[gd_scene load_steps=5 format=3 uid="uid://bygpgfdd3wmgq"]

[ext_resource type="Material" uid="uid://di5arbf86nadj" path="res://Assets/ModularDungeonAsset/DungeonTiles/material/PropSet_4_Mat.tres" id="1_s02wx"]

[sub_resource type="ArrayMesh" id="ArrayMesh_o5ihg"]
_surfaces = [{
"aabb": AABB(-0.202698, -0.14259, -0.202698, 0.405397, 0.150909, 0.405397),
"format": 4097,
"index_count": 1140,
"index_data": PackedByteArray(145, 0, 95, 0, 143, 0, 145, 0, 86, 0, 95, 0, 185, 0, 49, 0, 187, 0, 185, 0, 44, 0, 49, 0, 4, 0, 8, 0, 9, 0, 4, 0, 3, 0, 8, 0, 3, 0, 7, 0, 8, 0, 3, 0, 2, 0, 7, 0, 2, 0, 6, 0, 7, 0, 2, 0, 1, 0, 6, 0, 1, 0, 5, 0, 6, 0, 1, 0, 0, 0, 5, 0, 179, 0, 9, 0, 182, 0, 179, 0, 4, 0, 9, 0, 9, 0, 13, 0, 14, 0, 9, 0, 8, 0, 13, 0, 8, 0, 12, 0, 13, 0, 8, 0, 7, 0, 12, 0, 7, 0, 11, 0, 12, 0, 7, 0, 6, 0, 11, 0, 6, 0, 10, 0, 11, 0, 6, 0, 5, 0, 10, 0, 159, 0, 79, 0, 157, 0, 159, 0, 74, 0, 79, 0, 14, 0, 18, 0, 19, 0, 14, 0, 13, 0, 18, 0, 13, 0, 17, 0, 18, 0, 13, 0, 12, 0, 17, 0, 12, 0, 16, 0, 17, 0, 12, 0, 11, 0, 16, 0, 11, 0, 15, 0, 16, 0, 11, 0, 10, 0, 15, 0, 153, 0, 29, 0, 175, 0, 153, 0, 24, 0, 29, 0, 19, 0, 23, 0, 24, 0, 19, 0, 18, 0, 23, 0, 18, 0, 22, 0, 23, 0, 18, 0, 17, 0, 22, 0, 17, 0, 21, 0, 22, 0, 17, 0, 16, 0, 21, 0, 16, 0, 20, 0, 21, 0, 16, 0, 15, 0, 20, 0, 177, 0, 19, 0, 155, 0, 177, 0, 14, 0, 19, 0, 24, 0, 28, 0, 29, 0, 24, 0, 23, 0, 28, 0, 23, 0, 27, 0, 28, 0, 23, 0, 22, 0, 27, 0, 22, 0, 26, 0, 27, 0, 22, 0, 21, 0, 26, 0, 21, 0, 25, 0, 26, 0, 21, 0, 20, 0, 25, 0, 182, 0, 14, 0, 177, 0, 182, 0, 9, 0, 14, 0, 29, 0, 33, 0, 34, 0, 29, 0, 28, 0, 33, 0, 28, 0, 32, 0, 33, 0, 28, 0, 27, 0, 32, 0, 27, 0, 31, 0, 32, 0, 27, 0, 26, 0, 31, 0, 26, 0, 30, 0, 31, 0, 26, 0, 25, 0, 30, 0, 171, 0, 44, 0, 185, 0, 171, 0, 39, 0, 44, 0, 34, 0, 38, 0, 39, 0, 34, 0, 33, 0, 38, 0, 33, 0, 37, 0, 38, 0, 33, 0, 32, 0, 37, 0, 32, 0, 36, 0, 37, 0, 32, 0, 31, 0, 36, 0, 31, 0, 35, 0, 36, 0, 31, 0, 30, 0, 35, 0, 175, 0, 34, 0, 173, 0, 175, 0, 29, 0, 34, 0, 39, 0, 43, 0, 44, 0, 39, 0, 38, 0, 43, 0, 38, 0, 42, 0, 43, 0, 38, 0, 37, 0, 42, 0, 37, 0, 41, 0, 42, 0, 37, 0, 36, 0, 41, 0, 36, 0, 40, 0, 41, 0, 36, 0, 35, 0, 40, 0, 187, 0, 54, 0, 190, 0, 187, 0, 49, 0, 54, 0, 44, 0, 48, 0, 49, 0, 44, 0, 43, 0, 48, 0, 43, 0, 47, 0, 48, 0, 43, 0, 42, 0, 47, 0, 42, 0, 46, 0, 47, 0, 42, 0, 41, 0, 46, 0, 41, 0, 45, 0, 46, 0, 41, 0, 40, 0, 45, 0, 49, 0, 53, 0, 54, 0, 49, 0, 48, 0, 53, 0, 48, 0, 52, 0, 53, 0, 48, 0, 47, 0, 52, 0, 47, 0, 51, 0, 52, 0, 47, 0, 46, 0, 51, 0, 46, 0, 50, 0, 51, 0, 46, 0, 45, 0, 50, 0, 173, 0, 39, 0, 171, 0, 173, 0, 34, 0, 39, 0, 54, 0, 58, 0, 59, 0, 54, 0, 53, 0, 58, 0, 53, 0, 57, 0, 58, 0, 53, 0, 52, 0, 57, 0, 52, 0, 56, 0, 57, 0, 52, 0, 51, 0, 56, 0, 51, 0, 55, 0, 56, 0, 51, 0, 50, 0, 55, 0, 190, 0, 59, 0, 167, 0, 190, 0, 54, 0, 59, 0, 59, 0, 63, 0, 64, 0, 59, 0, 58, 0, 63, 0, 58, 0, 62, 0, 63, 0, 58, 0, 57, 0, 62, 0, 57, 0, 61, 0, 62, 0, 57, 0, 56, 0, 61, 0, 56, 0, 60, 0, 61, 0, 56, 0, 55, 0, 60, 0, 167, 0, 64, 0, 164, 0, 167, 0, 59, 0, 64, 0, 64, 0, 68, 0, 69, 0, 64, 0, 63, 0, 68, 0, 63, 0, 67, 0, 68, 0, 63, 0, 62, 0, 67, 0, 62, 0, 66, 0, 67, 0, 62, 0, 61, 0, 66, 0, 61, 0, 65, 0, 66, 0, 61, 0, 60, 0, 65, 0, 164, 0, 69, 0, 162, 0, 164, 0, 64, 0, 69, 0, 69, 0, 73, 0, 74, 0, 69, 0, 68, 0, 73, 0, 68, 0, 72, 0, 73, 0, 68, 0, 67, 0, 72, 0, 67, 0, 71, 0, 72, 0, 67, 0, 66, 0, 71, 0, 66, 0, 70, 0, 71, 0, 66, 0, 65, 0, 70, 0, 157, 0, 4, 0, 179, 0, 157, 0, 79, 0, 4, 0, 74, 0, 78, 0, 79, 0, 74, 0, 73, 0, 78, 0, 73, 0, 77, 0, 78, 0, 73, 0, 72, 0, 77, 0, 72, 0, 76, 0, 77, 0, 72, 0, 71, 0, 76, 0, 71, 0, 75, 0, 76, 0, 71, 0, 70, 0, 75, 0, 162, 0, 74, 0, 159, 0, 162, 0, 69, 0, 74, 0, 79, 0, 3, 0, 4, 0, 79, 0, 78, 0, 3, 0, 78, 0, 2, 0, 3, 0, 78, 0, 77, 0, 2, 0, 77, 0, 1, 0, 2, 0, 77, 0, 76, 0, 1, 0, 76, 0, 0, 0, 1, 0, 76, 0, 75, 0, 0, 0, 75, 0, 5, 0, 0, 0, 5, 0, 15, 0, 10, 0, 15, 0, 25, 0, 20, 0, 25, 0, 35, 0, 30, 0, 35, 0, 45, 0, 40, 0, 45, 0, 55, 0, 50, 0, 55, 0, 65, 0, 60, 0, 65, 0, 75, 0, 70, 0, 75, 0, 15, 0, 5, 0, 15, 0, 35, 0, 25, 0, 35, 0, 55, 0, 45, 0, 55, 0, 75, 0, 65, 0, 75, 0, 35, 0, 15, 0, 35, 0, 75, 0, 55, 0, 113, 0, 90, 0, 131, 0, 113, 0, 81, 0, 90, 0, 123, 0, 84, 0, 148, 0, 123, 0, 83, 0, 84, 0, 128, 0, 91, 0, 126, 0, 128, 0, 92, 0, 91, 0, 121, 0, 86, 0, 145, 0, 121, 0, 85, 0, 86, 0, 150, 0, 83, 0, 123, 0, 150, 0, 82, 0, 83, 0, 119, 0, 89, 0, 134, 0, 119, 0, 88, 0, 89, 0, 148, 0, 85, 0, 121, 0, 148, 0, 84, 0, 85, 0, 136, 0, 88, 0, 119, 0, 136, 0, 87, 0, 88, 0, 134, 0, 80, 0, 115, 0, 134, 0, 89, 0, 80, 0, 126, 0, 82, 0, 150, 0, 126, 0, 91, 0, 82, 0, 138, 0, 87, 0, 136, 0, 138, 0, 93, 0, 87, 0, 140, 0, 93, 0, 138, 0, 140, 0, 94, 0, 93, 0, 143, 0, 94, 0, 140, 0, 143, 0, 95, 0, 94, 0, 155, 0, 24, 0, 153, 0, 155, 0, 19, 0, 24, 0, 131, 0, 92, 0, 128, 0, 131, 0, 90, 0, 92, 0, 84, 0, 101, 0, 85, 0, 84, 0, 100, 0, 101, 0, 106, 0, 107, 0, 108, 0, 107, 0, 99, 0, 98, 0, 99, 0, 101, 0, 100, 0, 101, 0, 111, 0, 102, 0, 111, 0, 109, 0, 110, 0, 109, 0, 104, 0, 103, 0, 104, 0, 96, 0, 105, 0, 96, 0, 106, 0, 97, 0, 106, 0, 99, 0, 107, 0, 99, 0, 111, 0, 101, 0, 111, 0, 104, 0, 109, 0, 104, 0, 106, 0, 96, 0, 106, 0, 111, 0, 99, 0, 111, 0, 106, 0, 104, 0, 93, 0, 103, 0, 87, 0, 93, 0, 109, 0, 103, 0, 85, 0, 102, 0, 86, 0, 85, 0, 101, 0, 102, 0, 94, 0, 109, 0, 93, 0, 94, 0, 110, 0, 109, 0, 87, 0, 104, 0, 88, 0, 87, 0, 103, 0, 104, 0, 95, 0, 110, 0, 94, 0, 95, 0, 111, 0, 110, 0, 88, 0, 105, 0, 89, 0, 88, 0, 104, 0, 105, 0, 86, 0, 111, 0, 95, 0, 86, 0, 102, 0, 111, 0, 89, 0, 96, 0, 80, 0, 89, 0, 105, 0, 96, 0, 80, 0, 97, 0, 81, 0, 80, 0, 96, 0, 97, 0, 91, 0, 98, 0, 82, 0, 91, 0, 107, 0, 98, 0, 81, 0, 106, 0, 90, 0, 81, 0, 97, 0, 106, 0, 82, 0, 99, 0, 83, 0, 82, 0, 98, 0, 99, 0, 92, 0, 107, 0, 91, 0, 92, 0, 108, 0, 107, 0, 83, 0, 100, 0, 84, 0, 83, 0, 99, 0, 100, 0, 90, 0, 108, 0, 92, 0, 90, 0, 106, 0, 108, 0, 153, 0, 156, 0, 155, 0, 153, 0, 154, 0, 156, 0, 154, 0, 112, 0, 156, 0, 154, 0, 116, 0, 112, 0, 157, 0, 161, 0, 159, 0, 157, 0, 158, 0, 161, 0, 158, 0, 160, 0, 161, 0, 158, 0, 151, 0, 160, 0, 159, 0, 163, 0, 162, 0, 159, 0, 161, 0, 163, 0, 161, 0, 147, 0, 163, 0, 161, 0, 160, 0, 147, 0, 162, 0, 166, 0, 164, 0, 162, 0, 163, 0, 166, 0, 163, 0, 165, 0, 166, 0, 163, 0, 147, 0, 165, 0, 164, 0, 169, 0, 167, 0, 164, 0, 166, 0, 169, 0, 166, 0, 168, 0, 169, 0, 166, 0, 165, 0, 168, 0, 171, 0, 174, 0, 173, 0, 171, 0, 172, 0, 174, 0, 172, 0, 118, 0, 174, 0, 172, 0, 170, 0, 118, 0, 173, 0, 176, 0, 175, 0, 173, 0, 174, 0, 176, 0, 174, 0, 133, 0, 176, 0, 174, 0, 118, 0, 133, 0, 175, 0, 154, 0, 153, 0, 175, 0, 176, 0, 154, 0, 176, 0, 116, 0, 154, 0, 176, 0, 133, 0, 116, 0, 155, 0, 178, 0, 177, 0, 155, 0, 156, 0, 178, 0, 156, 0, 130, 0, 178, 0, 156, 0, 112, 0, 130, 0, 125, 0, 183, 0, 181, 0, 125, 0, 180, 0, 183, 0, 180, 0, 182, 0, 183, 0, 180, 0, 179, 0, 182, 0, 181, 0, 178, 0, 130, 0, 181, 0, 183, 0, 178, 0, 183, 0, 177, 0, 178, 0, 183, 0, 182, 0, 177, 0, 170, 0, 186, 0, 184, 0, 170, 0, 172, 0, 186, 0, 172, 0, 185, 0, 186, 0, 172, 0, 171, 0, 185, 0, 184, 0, 188, 0, 141, 0, 184, 0, 186, 0, 188, 0, 186, 0, 187, 0, 188, 0, 186, 0, 185, 0, 187, 0, 141, 0, 191, 0, 189, 0, 141, 0, 188, 0, 191, 0, 188, 0, 190, 0, 191, 0, 188, 0, 187, 0, 190, 0, 189, 0, 169, 0, 168, 0, 189, 0, 191, 0, 169, 0, 191, 0, 167, 0, 169, 0, 191, 0, 190, 0, 167, 0, 151, 0, 180, 0, 125, 0, 151, 0, 158, 0, 180, 0, 158, 0, 179, 0, 180, 0, 158, 0, 157, 0, 179, 0, 116, 0, 114, 0, 112, 0, 116, 0, 117, 0, 114, 0, 117, 0, 113, 0, 114, 0, 117, 0, 115, 0, 113, 0, 151, 0, 124, 0, 160, 0, 151, 0, 152, 0, 124, 0, 152, 0, 123, 0, 124, 0, 152, 0, 150, 0, 123, 0, 160, 0, 149, 0, 147, 0, 160, 0, 124, 0, 149, 0, 124, 0, 148, 0, 149, 0, 124, 0, 123, 0, 148, 0, 147, 0, 122, 0, 165, 0, 147, 0, 149, 0, 122, 0, 149, 0, 121, 0, 122, 0, 149, 0, 148, 0, 121, 0, 165, 0, 146, 0, 168, 0, 165, 0, 122, 0, 146, 0, 122, 0, 145, 0, 146, 0, 122, 0, 121, 0, 145, 0, 170, 0, 120, 0, 118, 0, 170, 0, 137, 0, 120, 0, 137, 0, 119, 0, 120, 0, 137, 0, 136, 0, 119, 0, 118, 0, 135, 0, 133, 0, 118, 0, 120, 0, 135, 0, 120, 0, 134, 0, 135, 0, 120, 0, 119, 0, 134, 0, 133, 0, 117, 0, 116, 0, 133, 0, 135, 0, 117, 0, 135, 0, 115, 0, 117, 0, 135, 0, 134, 0, 115, 0, 112, 0, 132, 0, 130, 0, 112, 0, 114, 0, 132, 0, 114, 0, 131, 0, 132, 0, 114, 0, 113, 0, 131, 0, 126, 0, 129, 0, 128, 0, 126, 0, 127, 0, 129, 0, 127, 0, 181, 0, 129, 0, 127, 0, 125, 0, 181, 0, 128, 0, 132, 0, 131, 0, 128, 0, 129, 0, 132, 0, 129, 0, 130, 0, 132, 0, 129, 0, 181, 0, 130, 0, 136, 0, 139, 0, 138, 0, 136, 0, 137, 0, 139, 0, 137, 0, 184, 0, 139, 0, 137, 0, 170, 0, 184, 0, 138, 0, 142, 0, 140, 0, 138, 0, 139, 0, 142, 0, 139, 0, 141, 0, 142, 0, 139, 0, 184, 0, 141, 0, 140, 0, 144, 0, 143, 0, 140, 0, 142, 0, 144, 0, 142, 0, 189, 0, 144, 0, 142, 0, 141, 0, 189, 0, 143, 0, 146, 0, 145, 0, 143, 0, 144, 0, 146, 0, 144, 0, 168, 0, 146, 0, 144, 0, 189, 0, 168, 0, 150, 0, 127, 0, 126, 0, 150, 0, 152, 0, 127, 0, 152, 0, 125, 0, 127, 0, 152, 0, 151, 0, 125, 0, 115, 0, 81, 0, 113, 0, 115, 0, 80, 0, 81, 0),
"lods": [0.0555586, PackedByteArray(185, 0, 34, 0, 52, 0, 34, 0, 31, 0, 46, 0, 34, 0, 46, 0, 52, 0, 52, 0, 46, 0, 51, 0, 173, 0, 34, 0, 185, 0, 52, 0, 51, 0, 61, 0, 172, 0, 173, 0, 185, 0, 173, 0, 172, 0, 174, 0, 172, 0, 118, 0, 174, 0, 172, 0, 170, 0, 118, 0, 170, 0, 172, 0, 185, 0, 170, 0, 185, 0, 184, 0, 184, 0, 185, 0, 188, 0, 188, 0, 185, 0, 190, 0, 184, 0, 188, 0, 141, 0, 141, 0, 188, 0, 190, 0, 185, 0, 52, 0, 190, 0, 141, 0, 190, 0, 189, 0, 189, 0, 190, 0, 169, 0, 164, 0, 169, 0, 190, 0, 190, 0, 52, 0, 164, 0, 189, 0, 169, 0, 168, 0, 164, 0, 168, 0, 169, 0, 164, 0, 165, 0, 168, 0, 163, 0, 165, 0, 164, 0, 159, 0, 163, 0, 164, 0, 164, 0, 52, 0, 159, 0, 159, 0, 160, 0, 147, 0, 158, 0, 160, 0, 159, 0, 158, 0, 159, 0, 179, 0, 52, 0, 72, 0, 159, 0, 52, 0, 61, 0, 72, 0, 72, 0, 61, 0, 66, 0, 72, 0, 66, 0, 1, 0, 159, 0, 72, 0, 9, 0, 72, 0, 1, 0, 9, 0, 159, 0, 9, 0, 179, 0, 9, 0, 1, 0, 6, 0, 9, 0, 6, 0, 11, 0, 9, 0, 11, 0, 21, 0, 9, 0, 21, 0, 34, 0, 34, 0, 21, 0, 26, 0, 34, 0, 26, 0, 31, 0, 153, 0, 9, 0, 34, 0, 179, 0, 9, 0, 153, 0, 153, 0, 34, 0, 173, 0, 151, 0, 158, 0, 179, 0, 158, 0, 151, 0, 160, 0, 173, 0, 174, 0, 176, 0, 173, 0, 176, 0, 153, 0, 176, 0, 116, 0, 153, 0, 153, 0, 116, 0, 112, 0, 176, 0, 133, 0, 116, 0, 174, 0, 133, 0, 176, 0, 174, 0, 118, 0, 133, 0, 153, 0, 156, 0, 177, 0, 156, 0, 130, 0, 177, 0, 181, 0, 177, 0, 130, 0, 179, 0, 153, 0, 177, 0, 183, 0, 179, 0, 177, 0, 125, 0, 179, 0, 183, 0, 151, 0, 179, 0, 125, 0, 156, 0, 112, 0, 130, 0, 153, 0, 112, 0, 156, 0, 125, 0, 183, 0, 181, 0, 181, 0, 183, 0, 177, 0, 1, 0, 66, 0, 6, 0, 6, 0, 66, 0, 11, 0, 61, 0, 51, 0, 66, 0, 46, 0, 66, 0, 51, 0, 66, 0, 46, 0, 11, 0, 26, 0, 11, 0, 46, 0, 21, 0, 11, 0, 26, 0, 26, 0, 46, 0, 31, 0, 121, 0, 123, 0, 145, 0, 147, 0, 123, 0, 121, 0, 147, 0, 121, 0, 165, 0, 165, 0, 121, 0, 145, 0, 165, 0, 145, 0, 168, 0, 189, 0, 168, 0, 145, 0, 160, 0, 123, 0, 147, 0, 151, 0, 123, 0, 160, 0, 140, 0, 141, 0, 189, 0, 140, 0, 189, 0, 145, 0, 138, 0, 141, 0, 140, 0, 140, 0, 145, 0, 138, 0, 138, 0, 184, 0, 141, 0, 145, 0, 109, 0, 138, 0, 145, 0, 110, 0, 109, 0, 145, 0, 102, 0, 110, 0, 123, 0, 102, 0, 145, 0, 123, 0, 101, 0, 102, 0, 123, 0, 100, 0, 101, 0, 126, 0, 100, 0, 123, 0, 151, 0, 126, 0, 123, 0, 126, 0, 98, 0, 100, 0, 151, 0, 125, 0, 126, 0, 126, 0, 125, 0, 181, 0, 128, 0, 98, 0, 126, 0, 126, 0, 181, 0, 128, 0, 128, 0, 107, 0, 98, 0, 128, 0, 181, 0, 130, 0, 128, 0, 130, 0, 131, 0, 112, 0, 131, 0, 130, 0, 131, 0, 108, 0, 128, 0, 128, 0, 108, 0, 107, 0, 131, 0, 97, 0, 108, 0, 88, 0, 97, 0, 131, 0, 115, 0, 88, 0, 131, 0, 115, 0, 131, 0, 112, 0, 116, 0, 115, 0, 112, 0, 133, 0, 115, 0, 116, 0, 133, 0, 134, 0, 115, 0, 118, 0, 134, 0, 133, 0, 118, 0, 120, 0, 134, 0, 120, 0, 119, 0, 134, 0, 134, 0, 88, 0, 115, 0, 119, 0, 88, 0, 134, 0, 88, 0, 96, 0, 97, 0, 88, 0, 105, 0, 96, 0, 88, 0, 104, 0, 105, 0, 136, 0, 88, 0, 119, 0, 136, 0, 119, 0, 120, 0, 170, 0, 136, 0, 120, 0, 170, 0, 120, 0, 118, 0, 136, 0, 170, 0, 184, 0, 136, 0, 184, 0, 138, 0, 136, 0, 138, 0, 88, 0, 138, 0, 104, 0, 88, 0, 138, 0, 103, 0, 104, 0, 138, 0, 109, 0, 103, 0, 98, 0, 101, 0, 100, 0, 98, 0, 102, 0, 101, 0, 108, 0, 102, 0, 98, 0, 108, 0, 98, 0, 107, 0, 102, 0, 109, 0, 110, 0, 102, 0, 104, 0, 109, 0, 102, 0, 108, 0, 104, 0, 109, 0, 104, 0, 103, 0, 104, 0, 108, 0, 96, 0, 96, 0, 108, 0, 97, 0, 104, 0, 96, 0, 105, 0, 159, 0, 147, 0, 163, 0, 163, 0, 147, 0, 165, 0), 0.0712906, PackedByteArray(179, 0, 21, 0, 153, 0, 173, 0, 21, 0, 31, 0, 153, 0, 21, 0, 173, 0, 173, 0, 118, 0, 133, 0, 173, 0, 133, 0, 153, 0, 133, 0, 116, 0, 153, 0, 153, 0, 116, 0, 112, 0, 153, 0, 112, 0, 177, 0, 179, 0, 153, 0, 177, 0, 112, 0, 130, 0, 177, 0, 181, 0, 177, 0, 130, 0, 181, 0, 179, 0, 177, 0, 125, 0, 179, 0, 181, 0, 151, 0, 179, 0, 125, 0, 151, 0, 157, 0, 179, 0, 157, 0, 21, 0, 179, 0, 157, 0, 151, 0, 160, 0, 157, 0, 61, 0, 21, 0, 157, 0, 160, 0, 162, 0, 162, 0, 61, 0, 157, 0, 160, 0, 147, 0, 162, 0, 162, 0, 147, 0, 165, 0, 162, 0, 185, 0, 61, 0, 162, 0, 165, 0, 167, 0, 167, 0, 185, 0, 162, 0, 165, 0, 168, 0, 167, 0, 189, 0, 167, 0, 168, 0, 141, 0, 167, 0, 189, 0, 141, 0, 185, 0, 167, 0, 184, 0, 185, 0, 141, 0, 170, 0, 185, 0, 184, 0, 173, 0, 61, 0, 185, 0, 170, 0, 173, 0, 185, 0, 173, 0, 31, 0, 61, 0, 170, 0, 118, 0, 173, 0, 21, 0, 61, 0, 31, 0, 136, 0, 140, 0, 119, 0, 140, 0, 104, 0, 119, 0, 136, 0, 184, 0, 140, 0, 140, 0, 103, 0, 104, 0, 136, 0, 170, 0, 184, 0, 170, 0, 136, 0, 119, 0, 170, 0, 119, 0, 118, 0, 140, 0, 184, 0, 141, 0, 140, 0, 141, 0, 189, 0, 145, 0, 189, 0, 168, 0, 165, 0, 145, 0, 168, 0, 145, 0, 103, 0, 140, 0, 140, 0, 189, 0, 145, 0, 123, 0, 103, 0, 145, 0, 147, 0, 123, 0, 145, 0, 147, 0, 145, 0, 165, 0, 151, 0, 126, 0, 123, 0, 131, 0, 105, 0, 103, 0, 131, 0, 181, 0, 130, 0, 112, 0, 131, 0, 130, 0, 126, 0, 125, 0, 181, 0, 151, 0, 125, 0, 126, 0, 151, 0, 123, 0, 160, 0, 160, 0, 123, 0, 147, 0, 126, 0, 103, 0, 123, 0, 131, 0, 103, 0, 126, 0, 126, 0, 181, 0, 131, 0, 119, 0, 105, 0, 131, 0, 119, 0, 104, 0, 105, 0, 115, 0, 131, 0, 112, 0, 116, 0, 115, 0, 112, 0, 115, 0, 119, 0, 131, 0, 133, 0, 115, 0, 116, 0, 133, 0, 119, 0, 115, 0, 118, 0, 119, 0, 133, 0, 103, 0, 105, 0, 104, 0), 0.088734, PackedByteArray(153, 0, 1, 0, 173, 0, 173, 0, 1, 0, 31, 0, 173, 0, 116, 0, 153, 0, 173, 0, 118, 0, 116, 0, 153, 0, 116, 0, 130, 0, 1, 0, 153, 0, 130, 0, 125, 0, 1, 0, 130, 0, 157, 0, 1, 0, 125, 0, 157, 0, 46, 0, 1, 0, 157, 0, 160, 0, 162, 0, 162, 0, 185, 0, 157, 0, 185, 0, 46, 0, 157, 0, 168, 0, 185, 0, 162, 0, 141, 0, 185, 0, 168, 0, 170, 0, 185, 0, 141, 0, 173, 0, 46, 0, 185, 0, 173, 0, 31, 0, 46, 0, 170, 0, 173, 0, 185, 0, 170, 0, 118, 0, 173, 0, 1, 0, 46, 0, 31, 0, 103, 0, 105, 0, 104, 0, 160, 0, 103, 0, 168, 0, 130, 0, 103, 0, 160, 0, 168, 0, 103, 0, 141, 0, 141, 0, 103, 0, 104, 0, 141, 0, 104, 0, 119, 0, 119, 0, 170, 0, 141, 0, 170, 0, 119, 0, 118, 0, 130, 0, 105, 0, 103, 0, 119, 0, 105, 0, 130, 0, 116, 0, 119, 0, 130, 0, 119, 0, 104, 0, 105, 0, 118, 0, 119, 0, 116, 0, 157, 0, 125, 0, 160, 0, 162, 0, 160, 0, 168, 0, 160, 0, 125, 0, 130, 0), 0.170322, PackedByteArray(168, 0, 61, 0, 21, 0, 116, 0, 168, 0, 173, 0, 173, 0, 118, 0, 116, 0, 173, 0, 21, 0, 31, 0, 168, 0, 21, 0, 173, 0, 168, 0, 118, 0, 173, 0, 173, 0, 61, 0, 168, 0, 173, 0, 31, 0, 61, 0, 21, 0, 61, 0, 31, 0, 103, 0, 105, 0, 104, 0, 168, 0, 104, 0, 119, 0, 168, 0, 119, 0, 118, 0, 168, 0, 103, 0, 104, 0, 116, 0, 103, 0, 168, 0, 116, 0, 105, 0, 103, 0, 119, 0, 104, 0, 105, 0, 118, 0, 119, 0, 116, 0, 119, 0, 105, 0, 116, 0)],
"name": "PropSet_4_Mat",
"primitive": 3,
"vertex_count": 192,
"vertex_data": PackedByteArray(0, 0, 0, 0, 60, 3, 18, 190, 54, 44, 80, 189, 0, 0, 0, 0, 8, 115, 10, 190, 133, 118, 201, 189, 0, 0, 0, 0, 230, 255, 232, 189, 98, 167, 16, 190, 0, 0, 0, 0, 12, 160, 164, 189, 198, 130, 51, 190, 0, 0, 0, 0, 210, 239, 28, 189, 241, 227, 73, 190, 4, 84, 159, 60, 60, 3, 18, 190, 150, 83, 64, 189, 102, 49, 26, 61, 8, 115, 10, 190, 163, 32, 186, 189, 43, 109, 93, 61, 230, 255, 232, 189, 136, 164, 5, 190, 64, 100, 137, 61, 12, 160, 164, 189, 170, 216, 37, 190, 44, 133, 154, 61, 210, 239, 28, 189, 185, 133, 58, 190, 71, 51, 19, 61, 60, 3, 18, 190, 67, 51, 19, 189, 176, 116, 142, 61, 8, 115, 10, 190, 175, 116, 142, 189, 71, 146, 204, 61, 230, 255, 232, 189, 70, 146, 204, 189, 218, 221, 253, 61, 12, 160, 164, 189, 218, 221, 253, 189, 15, 194, 14, 62, 210, 239, 28, 189, 15, 194, 14, 190, 151, 83, 64, 61, 60, 3, 18, 190, 1, 84, 159, 188, 164, 32, 186, 61, 8, 115, 10, 190, 102, 49, 26, 189, 136, 164, 5, 62, 230, 255, 232, 189, 43, 109, 93, 189, 171, 216, 37, 62, 12, 160, 164, 189, 66, 100, 137, 189, 186, 133, 58, 62, 210, 239, 28, 189, 44, 133, 154, 189, 54, 44, 80, 61, 60, 3, 18, 190, 0, 0, 0, 128, 133, 118, 201, 61, 8, 115, 10, 190, 0, 0, 0, 128, 98, 167, 16, 62, 230, 255, 232, 189, 0, 0, 0, 128, 198, 130, 51, 62, 12, 160, 164, 189, 0, 0, 0, 128, 241, 227, 73, 62, 210, 239, 28, 189, 0, 0, 0, 128, 150, 83, 64, 61, 60, 3, 18, 190, 4, 84, 159, 60, 163, 32, 186, 61, 8, 115, 10, 190, 102, 49, 26, 61, 136, 164, 5, 62, 230, 255, 232, 189, 43, 109, 93, 61, 170, 216, 37, 62, 12, 160, 164, 189, 64, 100, 137, 61, 185, 133, 58, 62, 210, 239, 28, 189, 44, 133, 154, 61, 67, 51, 19, 61, 60, 3, 18, 190, 71, 51, 19, 61, 175, 116, 142, 61, 8, 115, 10, 190, 176, 116, 142, 61, 70, 146, 204, 61, 230, 255, 232, 189, 71, 146, 204, 61, 218, 221, 253, 61, 12, 160, 164, 189, 218, 221, 253, 61, 15, 194, 14, 62, 210, 239, 28, 189, 15, 194, 14, 62, 1, 84, 159, 60, 60, 3, 18, 190, 151, 83, 64, 61, 102, 49, 26, 61, 8, 115, 10, 190, 164, 32, 186, 61, 43, 109, 93, 61, 230, 255, 232, 189, 136, 164, 5, 62, 66, 100, 137, 61, 12, 160, 164, 189, 171, 216, 37, 62, 44, 133, 154, 61, 210, 239, 28, 189, 186, 133, 58, 62, 0, 0, 0, 0, 60, 3, 18, 190, 54, 44, 80, 61, 0, 0, 0, 0, 8, 115, 10, 190, 133, 118, 201, 61, 0, 0, 0, 0, 230, 255, 232, 189, 98, 167, 16, 62, 0, 0, 0, 0, 12, 160, 164, 189, 198, 130, 51, 62, 0, 0, 0, 0, 210, 239, 28, 189, 241, 227, 73, 62, 4, 84, 159, 188, 60, 3, 18, 190, 150, 83, 64, 61, 102, 49, 26, 189, 8, 115, 10, 190, 163, 32, 186, 61, 43, 109, 93, 189, 230, 255, 232, 189, 136, 164, 5, 62, 64, 100, 137, 189, 12, 160, 164, 189, 170, 216, 37, 62, 44, 133, 154, 189, 210, 239, 28, 189, 185, 133, 58, 62, 71, 51, 19, 189, 60, 3, 18, 190, 67, 51, 19, 61, 176, 116, 142, 189, 8, 115, 10, 190, 175, 116, 142, 61, 71, 146, 204, 189, 230, 255, 232, 189, 70, 146, 204, 61, 218, 221, 253, 189, 12, 160, 164, 189, 218, 221, 253, 61, 15, 194, 14, 190, 210, 239, 28, 189, 15, 194, 14, 62, 151, 83, 64, 189, 60, 3, 18, 190, 1, 84, 159, 60, 164, 32, 186, 189, 8, 115, 10, 190, 102, 49, 26, 61, 136, 164, 5, 190, 230, 255, 232, 189, 43, 109, 93, 61, 171, 216, 37, 190, 12, 160, 164, 189, 66, 100, 137, 61, 186, 133, 58, 190, 210, 239, 28, 189, 44, 133, 154, 61, 54, 44, 80, 189, 60, 3, 18, 190, 0, 0, 0, 128, 133, 118, 201, 189, 8, 115, 10, 190, 0, 0, 0, 128, 98, 167, 16, 190, 230, 255, 232, 189, 0, 0, 0, 128, 198, 130, 51, 190, 12, 160, 164, 189, 0, 0, 0, 128, 241, 227, 73, 190, 210, 239, 28, 189, 0, 0, 0, 128, 150, 83, 64, 189, 60, 3, 18, 190, 4, 84, 159, 188, 163, 32, 186, 189, 8, 115, 10, 190, 102, 49, 26, 189, 136, 164, 5, 190, 230, 255, 232, 189, 43, 109, 93, 189, 170, 216, 37, 190, 12, 160, 164, 189, 64, 100, 137, 189, 185, 133, 58, 190, 210, 239, 28, 189, 44, 133, 154, 189, 67, 51, 19, 189, 60, 3, 18, 190, 71, 51, 19, 189, 175, 116, 142, 189, 8, 115, 10, 190, 176, 116, 142, 189, 70, 146, 204, 189, 230, 255, 232, 189, 71, 146, 204, 189, 218, 221, 253, 189, 12, 160, 164, 189, 218, 221, 253, 189, 15, 194, 14, 190, 210, 239, 28, 189, 15, 194, 14, 190, 1, 84, 159, 188, 60, 3, 18, 190, 151, 83, 64, 189, 102, 49, 26, 189, 8, 115, 10, 190, 164, 32, 186, 189, 43, 109, 93, 189, 230, 255, 232, 189, 136, 164, 5, 190, 66, 100, 137, 189, 12, 160, 164, 189, 171, 216, 37, 190, 44, 133, 154, 189, 210, 239, 28, 189, 186, 133, 58, 190, 235, 240, 28, 62, 36, 66, 184, 189, 107, 247, 39, 176, 161, 254, 16, 62, 36, 66, 184, 189, 56, 60, 112, 189, 86, 60, 112, 189, 38, 66, 184, 189, 169, 254, 16, 190, 216, 242, 221, 189, 36, 66, 184, 189, 202, 242, 221, 189, 175, 254, 16, 190, 38, 66, 184, 189, 56, 60, 112, 189, 250, 240, 28, 190, 36, 66, 184, 189, 107, 247, 39, 176, 175, 254, 16, 190, 38, 66, 184, 189, 56, 60, 112, 61, 27, 60, 112, 61, 38, 66, 184, 189, 169, 254, 16, 62, 186, 242, 221, 61, 36, 66, 184, 189, 202, 242, 221, 61, 161, 254, 16, 62, 38, 66, 184, 189, 56, 60, 112, 61, 186, 242, 221, 61, 38, 66, 184, 189, 202, 242, 221, 189, 214, 202, 231, 179, 38, 66, 184, 189, 242, 240, 28, 190, 27, 60, 112, 61, 38, 66, 184, 189, 169, 254, 16, 190, 214, 202, 231, 179, 38, 66, 184, 189, 242, 240, 28, 62, 86, 60, 112, 189, 38, 66, 184, 189, 169, 254, 16, 62, 216, 242, 221, 189, 38, 66, 184, 189, 202, 242, 221, 61, 24, 209, 119, 61, 64, 3, 8, 190, 184, 179, 220, 175, 240, 243, 100, 61, 64, 3, 8, 190, 186, 171, 189, 188, 186, 171, 189, 188, 65, 3, 8, 190, 240, 243, 100, 189, 164, 59, 47, 189, 64, 3, 8, 190, 164, 59, 47, 189, 240, 243, 100, 189, 65, 3, 8, 190, 186, 171, 189, 188, 24, 209, 119, 189, 64, 3, 8, 190, 184, 179, 220, 175, 240, 243, 100, 189, 65, 3, 8, 190, 186, 171, 189, 60, 186, 171, 189, 60, 65, 3, 8, 190, 240, 243, 100, 61, 164, 59, 47, 61, 64, 3, 8, 190, 164, 59, 47, 61, 240, 243, 100, 61, 65, 3, 8, 190, 186, 171, 189, 60, 164, 59, 47, 61, 65, 3, 8, 190, 164, 59, 47, 189, 36, 238, 43, 48, 65, 3, 8, 190, 24, 209, 119, 189, 186, 171, 189, 60, 65, 3, 8, 190, 240, 243, 100, 189, 36, 238, 43, 48, 65, 3, 8, 190, 24, 209, 119, 61, 186, 171, 189, 188, 65, 3, 8, 190, 240, 243, 100, 61, 164, 59, 47, 189, 65, 3, 8, 190, 164, 59, 47, 61, 96, 155, 53, 62, 39, 76, 8, 60, 185, 114, 150, 189, 198, 183, 37, 62, 40, 229, 101, 187, 3, 73, 137, 189, 79, 247, 43, 62, 28, 22, 159, 59, 28, 118, 142, 189, 42, 95, 51, 62, 32, 229, 101, 187, 49, 141, 181, 174, 231, 145, 68, 62, 39, 76, 8, 60, 0, 0, 0, 128, 123, 34, 58, 62, 28, 22, 159, 59, 0, 0, 0, 174, 245, 254, 10, 62, 39, 76, 8, 60, 245, 254, 10, 62, 129, 171, 253, 61, 36, 229, 101, 187, 129, 171, 253, 61, 252, 157, 3, 62, 28, 22, 159, 59, 252, 157, 3, 62, 42, 95, 51, 190, 36, 229, 101, 187, 50, 141, 181, 174, 123, 34, 58, 190, 28, 22, 159, 59, 0, 0, 128, 173, 129, 171, 253, 189, 36, 229, 101, 187, 129, 171, 253, 189, 252, 157, 3, 190, 28, 22, 159, 59, 252, 157, 3, 190, 0, 0, 0, 0, 16, 76, 8, 60, 231, 145, 68, 190, 63, 191, 78, 47, 120, 229, 101, 187, 42, 95, 51, 190, 0, 0, 64, 46, 240, 21, 159, 59, 123, 34, 58, 190, 3, 73, 137, 61, 124, 229, 101, 187, 198, 183, 37, 190, 28, 118, 142, 61, 238, 21, 159, 59, 79, 247, 43, 190, 245, 254, 10, 62, 16, 76, 8, 60, 245, 254, 10, 190, 129, 171, 253, 61, 126, 229, 101, 187, 129, 171, 253, 189, 252, 157, 3, 62, 239, 21, 159, 59, 252, 157, 3, 190, 96, 155, 53, 62, 16, 76, 8, 60, 185, 114, 150, 61, 198, 183, 37, 62, 124, 229, 101, 187, 3, 73, 137, 61, 79, 247, 43, 62, 238, 21, 159, 59, 28, 118, 142, 61, 3, 73, 137, 61, 126, 229, 101, 187, 198, 183, 37, 62, 28, 118, 142, 61, 239, 21, 159, 59, 79, 247, 43, 62, 64, 191, 78, 47, 124, 229, 101, 187, 42, 95, 51, 62, 0, 0, 64, 46, 238, 21, 159, 59, 123, 34, 58, 62, 3, 73, 137, 189, 124, 229, 101, 187, 198, 183, 37, 62, 185, 114, 150, 189, 16, 76, 8, 60, 96, 155, 53, 62, 28, 118, 142, 189, 238, 21, 159, 59, 79, 247, 43, 62, 129, 171, 253, 189, 124, 229, 101, 187, 129, 171, 253, 61, 252, 157, 3, 190, 238, 21, 159, 59, 252, 157, 3, 62, 198, 183, 37, 190, 126, 229, 101, 187, 3, 73, 137, 61, 79, 247, 43, 190, 239, 21, 159, 59, 28, 118, 142, 61, 96, 155, 53, 190, 16, 76, 8, 60, 185, 114, 150, 189, 198, 183, 37, 190, 124, 229, 101, 187, 3, 73, 137, 189, 79, 247, 43, 190, 238, 21, 159, 59, 28, 118, 142, 189, 3, 73, 137, 189, 126, 229, 101, 187, 198, 183, 37, 190, 185, 114, 150, 189, 16, 76, 8, 60, 96, 155, 53, 190, 28, 118, 142, 189, 239, 21, 159, 59, 79, 247, 43, 190, 46, 144, 79, 62, 148, 96, 131, 187, 0, 0, 0, 128, 18, 48, 77, 62, 52, 70, 154, 59, 0, 0, 0, 128, 109, 195, 63, 62, 148, 96, 131, 187, 173, 220, 158, 189, 155, 145, 61, 62, 52, 70, 154, 59, 64, 11, 157, 189, 173, 220, 158, 189, 192, 96, 131, 187, 109, 195, 63, 190, 63, 11, 157, 189, 6, 70, 154, 59, 155, 145, 61, 190, 244, 196, 18, 190, 146, 96, 131, 187, 244, 196, 18, 190, 246, 254, 10, 190, 39, 76, 8, 60, 246, 254, 10, 190, 244, 22, 17, 190, 52, 70, 154, 59, 244, 22, 17, 190, 109, 195, 63, 190, 192, 96, 131, 187, 173, 220, 158, 189, 155, 145, 61, 190, 6, 70, 154, 59, 63, 11, 157, 189, 46, 144, 79, 190, 148, 96, 131, 187, 0, 0, 0, 128, 232, 145, 68, 190, 39, 76, 8, 60, 0, 0, 0, 128, 18, 48, 77, 190, 52, 70, 154, 59, 0, 0, 0, 128, 109, 195, 63, 190, 192, 96, 131, 187, 173, 220, 158, 61, 96, 155, 53, 190, 16, 76, 8, 60, 185, 114, 150, 61, 155, 145, 61, 190, 6, 70, 154, 59, 63, 11, 157, 61, 185, 114, 150, 61, 16, 76, 8, 60, 96, 155, 53, 62, 173, 220, 158, 61, 192, 96, 131, 187, 109, 195, 63, 62, 63, 11, 157, 61, 6, 70, 154, 59, 155, 145, 61, 62, 244, 196, 18, 62, 146, 96, 131, 187, 244, 196, 18, 62, 244, 22, 17, 62, 52, 70, 154, 59, 244, 22, 17, 62, 109, 195, 63, 62, 190, 96, 131, 187, 173, 220, 158, 61, 155, 145, 61, 62, 6, 70, 154, 59, 63, 11, 157, 61, 244, 196, 18, 62, 192, 96, 131, 187, 244, 196, 18, 190, 244, 22, 17, 62, 6, 70, 154, 59, 244, 22, 17, 190, 0, 0, 0, 0, 192, 96, 131, 187, 46, 144, 79, 190, 0, 0, 0, 0, 6, 70, 154, 59, 18, 48, 77, 190, 185, 114, 150, 61, 16, 76, 8, 60, 96, 155, 53, 190, 173, 220, 158, 61, 192, 96, 131, 187, 109, 195, 63, 190, 63, 11, 157, 61, 6, 70, 154, 59, 155, 145, 61, 190, 0, 0, 0, 0, 16, 76, 8, 60, 232, 145, 68, 62, 0, 0, 0, 0, 192, 96, 131, 187, 46, 144, 79, 62, 0, 0, 0, 0, 6, 70, 154, 59, 18, 48, 77, 62, 173, 220, 158, 189, 192, 96, 131, 187, 109, 195, 63, 62, 63, 11, 157, 189, 6, 70, 154, 59, 155, 145, 61, 62, 246, 254, 10, 190, 16, 76, 8, 60, 246, 254, 10, 62, 244, 196, 18, 190, 192, 96, 131, 187, 244, 196, 18, 62, 244, 22, 17, 190, 6, 70, 154, 59, 244, 22, 17, 62)
}]
blend_shape_mode = 0

[sub_resource type="ArrayMesh" id="ArrayMesh_tomvy"]
resource_name = "ModularDungeonTiles_Props_PropSet_4_Bowl"
_surfaces = [{
"aabb": AABB(-0.202698, -0.14259, -0.202698, 0.405397, 0.150909, 0.405397),
"attribute_data": PackedByteArray(71, 181, 129, 62, 74, 63, 14, 63, 142, 72, 209, 61, 159, 20, 78, 63, 4, 95, 141, 62, 170, 23, 13, 63, 50, 68, 158, 61, 40, 59, 80, 63, 27, 124, 103, 61, 144, 246, 81, 63, 37, 148, 24, 61, 153, 135, 83, 63, 129, 171, 127, 62, 112, 253, 11, 63, 46, 198, 225, 61, 8, 145, 83, 63, 217, 185, 137, 62, 252, 176, 8, 63, 153, 5, 178, 61, 119, 134, 86, 63, 138, 3, 138, 61, 130, 240, 88, 63, 239, 133, 73, 61, 46, 35, 91, 63, 141, 192, 120, 62, 108, 67, 10, 63, 245, 209, 247, 61, 112, 170, 88, 63, 48, 253, 130, 62, 160, 82, 5, 63, 99, 84, 204, 61, 243, 97, 92, 63, 159, 136, 167, 61, 242, 114, 95, 63, 26, 9, 133, 61, 1, 64, 98, 63, 103, 183, 111, 62, 134, 84, 9, 63, 246, 137, 9, 62, 33, 66, 93, 63, 120, 95, 116, 62, 254, 127, 3, 63, 31, 254, 236, 61, 60, 176, 97, 63, 24, 25, 204, 61, 73, 100, 101, 63, 147, 204, 172, 61, 15, 199, 104, 63, 197, 240, 101, 62, 218, 84, 9, 63, 85, 160, 25, 62, 6, 48, 97, 63, 207, 81, 97, 62, 6, 128, 3, 63, 72, 12, 10, 62, 68, 80, 102, 63, 54, 223, 247, 61, 14, 176, 106, 63, 40, 8, 220, 61, 161, 173, 110, 63, 161, 233, 92, 62, 183, 68, 10, 63, 46, 18, 44, 62, 182, 53, 100, 63, 38, 183, 79, 62, 192, 82, 5, 63, 194, 47, 33, 62, 136, 18, 106, 63, 205, 3, 22, 62, 201, 72, 111, 63, 92, 199, 9, 62, 33, 10, 116, 63, 217, 1, 86, 62, 139, 255, 11, 63, 190, 166, 64, 62, 48, 47, 26, 63, 190, 166, 64, 62, 56, 229, 101, 63, 26, 62, 66, 62, 49, 177, 8, 63, 43, 101, 54, 62, 122, 103, 18, 63, 38, 216, 60, 62, 137, 151, 108, 63, 29, 252, 39, 62, 242, 106, 11, 63, 204, 56, 54, 62, 94, 34, 115, 63, 98, 189, 21, 62, 50, 131, 5, 63, 47, 122, 43, 62, 81, 91, 121, 63, 144, 70, 82, 62, 235, 65, 14, 63, 4, 148, 41, 62, 154, 18, 29, 63, 244, 243, 58, 62, 240, 23, 13, 63, 230, 114, 24, 62, 188, 198, 22, 63, 80, 236, 7, 62, 94, 124, 17, 63, 9, 103, 238, 61, 219, 236, 12, 63, 109, 71, 82, 62, 164, 179, 16, 63, 211, 220, 21, 62, 2, 14, 33, 63, 244, 243, 58, 62, 69, 219, 17, 63, 205, 248, 0, 62, 133, 232, 27, 63, 68, 159, 221, 61, 232, 163, 23, 63, 0, 72, 187, 61, 203, 214, 19, 63, 124, 6, 86, 62, 126, 245, 18, 63, 220, 75, 5, 62, 6, 193, 37, 63, 75, 62, 66, 62, 243, 65, 22, 63, 136, 194, 219, 61, 22, 151, 33, 63, 147, 111, 180, 61, 249, 31, 30, 63, 22, 244, 143, 61, 254, 247, 26, 63, 112, 241, 92, 62, 131, 175, 20, 63, 17, 151, 239, 61, 38, 247, 42, 63, 156, 183, 79, 62, 78, 160, 25, 63, 63, 31, 189, 61, 162, 185, 39, 63, 103, 58, 147, 61, 130, 1, 37, 63, 95, 27, 89, 61, 105, 126, 34, 63, 150, 250, 101, 62, 105, 158, 21, 63, 174, 193, 218, 61, 64, 140, 48, 63, 131, 82, 97, 62, 240, 114, 27, 63, 97, 191, 165, 61, 82, 56, 46, 63, 246, 196, 115, 61, 94, 62, 44, 63, 28, 218, 34, 61, 205, 101, 42, 63, 56, 193, 111, 62, 20, 158, 21, 63, 54, 51, 204, 61, 19, 98, 54, 63, 44, 96, 116, 62, 232, 114, 27, 63, 28, 167, 149, 61, 140, 248, 52, 63, 176, 13, 81, 61, 244, 190, 51, 63, 186, 138, 251, 60, 206, 149, 50, 63, 91, 200, 120, 62, 56, 174, 20, 63, 86, 1, 196, 61, 96, 92, 60, 63, 107, 253, 130, 62, 48, 160, 25, 63, 6, 230, 140, 61, 116, 221, 59, 63, 33, 137, 62, 61, 109, 101, 59, 63, 209, 128, 212, 60, 33, 238, 58, 63, 36, 176, 127, 62, 100, 243, 18, 63, 201, 47, 194, 61, 153, 95, 66, 63, 241, 185, 137, 62, 190, 65, 22, 63, 57, 125, 139, 61, 2, 201, 66, 63, 134, 66, 60, 61, 99, 17, 67, 63, 129, 198, 208, 60, 126, 75, 67, 63, 182, 181, 129, 62, 4, 177, 16, 63, 75, 171, 198, 61, 154, 80, 72, 63, 4, 95, 141, 62, 254, 218, 17, 63, 153, 86, 145, 61, 228, 156, 73, 63, 226, 10, 74, 61, 225, 161, 74, 63, 204, 246, 239, 60, 54, 138, 75, 63, 67, 40, 131, 62, 234, 102, 43, 63, 199, 57, 108, 62, 124, 190, 43, 63, 210, 207, 35, 62, 208, 35, 60, 63, 133, 43, 32, 62, 124, 129, 66, 63, 86, 152, 35, 62, 154, 228, 72, 63, 43, 228, 45, 62, 87, 207, 78, 63, 90, 80, 62, 62, 126, 202, 83, 63, 234, 54, 144, 62, 206, 118, 88, 63, 185, 64, 157, 62, 114, 22, 85, 63, 226, 114, 157, 62, 246, 47, 48, 63, 31, 97, 144, 62, 243, 213, 44, 63, 189, 214, 83, 62, 238, 202, 45, 63, 48, 95, 46, 62, 222, 77, 54, 63, 191, 184, 62, 62, 182, 101, 49, 63, 181, 3, 131, 62, 94, 222, 89, 63, 183, 16, 108, 62, 219, 101, 89, 63, 210, 155, 83, 62, 150, 109, 87, 63, 163, 161, 20, 61, 111, 214, 112, 63, 172, 123, 128, 62, 112, 179, 55, 63, 7, 239, 203, 60, 110, 214, 112, 63, 200, 228, 116, 62, 50, 197, 55, 63, 0, 0, 0, 59, 135, 160, 121, 63, 27, 68, 83, 62, 89, 118, 63, 63, 65, 220, 206, 59, 83, 82, 124, 63, 74, 109, 81, 62, 138, 123, 66, 63, 188, 106, 107, 60, 70, 98, 126, 63, 57, 244, 82, 62, 68, 131, 69, 63, 233, 238, 203, 60, 0, 128, 127, 63, 175, 187, 87, 62, 195, 82, 72, 63, 138, 161, 20, 61, 0, 128, 127, 63, 74, 101, 95, 62, 38, 179, 74, 63, 16, 153, 114, 61, 231, 181, 118, 63, 212, 108, 134, 62, 196, 248, 76, 63, 136, 189, 96, 61, 27, 4, 116, 63, 132, 146, 139, 62, 22, 92, 75, 63, 149, 148, 139, 62, 16, 45, 58, 63, 97, 190, 63, 61, 40, 244, 113, 63, 219, 91, 134, 62, 200, 128, 56, 63, 9, 107, 107, 60, 39, 244, 113, 63, 87, 109, 105, 62, 84, 173, 56, 63, 0, 0, 0, 59, 230, 181, 118, 63, 200, 170, 87, 62, 173, 160, 60, 63, 202, 220, 206, 59, 25, 4, 116, 63, 103, 110, 95, 62, 0, 87, 58, 63, 16, 153, 114, 61, 136, 160, 121, 63, 194, 117, 128, 62, 228, 172, 77, 63, 122, 189, 96, 61, 84, 82, 124, 63, 124, 194, 116, 62, 200, 122, 77, 63, 78, 190, 63, 61, 71, 98, 126, 63, 133, 86, 105, 62, 48, 118, 76, 63, 127, 117, 136, 61, 214, 165, 108, 63, 222, 97, 98, 62, 206, 65, 30, 63, 40, 156, 100, 62, 248, 16, 33, 63, 115, 129, 99, 62, 65, 170, 31, 63, 205, 235, 132, 62, 48, 133, 32, 63, 62, 4, 187, 61, 235, 42, 115, 63, 155, 72, 133, 62, 148, 170, 29, 63, 233, 26, 133, 62, 168, 24, 31, 63, 226, 120, 252, 61, 0, 128, 0, 63, 119, 220, 25, 62, 246, 78, 127, 63, 158, 170, 170, 62, 54, 246, 35, 63, 158, 170, 170, 62, 102, 95, 97, 63, 123, 122, 167, 62, 57, 28, 95, 63, 165, 122, 167, 62, 228, 63, 38, 63, 17, 249, 168, 62, 144, 24, 37, 63, 225, 251, 168, 62, 32, 67, 96, 63, 24, 213, 7, 62, 227, 91, 84, 63, 68, 212, 2, 62, 1, 29, 85, 63, 37, 216, 232, 61, 250, 53, 66, 63, 150, 61, 221, 61, 96, 49, 66, 63, 69, 208, 119, 60, 185, 91, 85, 63, 165, 46, 0, 62, 224, 206, 46, 63, 111, 242, 9, 62, 221, 89, 48, 63, 159, 21, 5, 62, 198, 148, 47, 63, 200, 60, 34, 62, 26, 58, 41, 63, 28, 103, 30, 62, 39, 41, 40, 63, 65, 142, 58, 61, 236, 121, 101, 63, 232, 28, 60, 62, 48, 115, 33, 63, 226, 58, 65, 62, 178, 4, 36, 63, 91, 175, 62, 62, 199, 188, 34, 63, 202, 107, 244, 61, 44, 38, 121, 63, 223, 249, 152, 62, 226, 160, 31, 63, 10, 49, 151, 62, 201, 86, 34, 63, 219, 20, 152, 62, 77, 252, 32, 63, 31, 40, 151, 62, 251, 21, 99, 63, 125, 23, 152, 62, 64, 113, 100, 63, 157, 173, 132, 62, 76, 255, 100, 63, 14, 231, 132, 62, 232, 114, 102, 63, 214, 45, 99, 62, 232, 123, 100, 63, 166, 166, 75, 61, 99, 115, 23, 63, 68, 238, 96, 62, 71, 96, 103, 63, 25, 13, 98, 62, 158, 236, 101, 63, 27, 255, 62, 62, 198, 77, 97, 63, 52, 82, 60, 62, 28, 157, 98, 63, 242, 188, 31, 62, 143, 200, 91, 63, 199, 189, 27, 62, 29, 219, 92, 63, 195, 104, 21, 59, 162, 110, 58, 63, 212, 135, 219, 61, 101, 96, 76, 63, 242, 21, 242, 61, 228, 155, 75, 63, 197, 216, 230, 61, 112, 253, 75, 63, 241, 121, 244, 61, 60, 227, 56, 63, 74, 204, 205, 59, 149, 157, 76, 63, 33, 59, 222, 61, 82, 16, 56, 63, 151, 101, 233, 61, 217, 121, 56, 63, 174, 198, 198, 61, 252, 144, 113, 63, 153, 247, 192, 61, 39, 90, 114, 63, 219, 87, 149, 61, 4, 66, 107, 63, 254, 250, 142, 61, 212, 239, 107, 63, 244, 251, 108, 60, 179, 53, 76, 63, 67, 4, 43, 60, 221, 102, 76, 63, 164, 81, 41, 60, 90, 118, 67, 63, 246, 22, 0, 59, 90, 151, 67, 63, 36, 141, 209, 61, 112, 45, 66, 63, 112, 171, 203, 59, 161, 132, 67, 63, 182, 152, 47, 60, 1, 150, 58, 63, 53, 107, 215, 59, 180, 128, 58, 63, 89, 85, 128, 60, 142, 186, 49, 63, 219, 147, 239, 59, 162, 74, 49, 63, 169, 150, 251, 61, 40, 224, 85, 63, 41, 131, 61, 60, 158, 129, 49, 63, 33, 1, 206, 60, 212, 9, 41, 63, 224, 94, 139, 60, 168, 82, 40, 63, 229, 184, 23, 62, 39, 240, 93, 63, 197, 87, 173, 60, 230, 173, 40, 63, 247, 190, 198, 61, 188, 81, 8, 63, 245, 8, 153, 62, 215, 201, 101, 63, 50, 8, 213, 61, 19, 221, 9, 63, 49, 248, 205, 61, 74, 22, 9, 63, 38, 165, 6, 62, 219, 237, 1, 63, 159, 205, 32, 62, 228, 131, 125, 63, 80, 150, 2, 62, 235, 34, 1, 63, 179, 162, 29, 62, 32, 117, 126, 63, 206, 198, 255, 61, 251, 93, 119, 63, 109, 55, 250, 61, 188, 61, 120, 63, 219, 188, 86, 61, 155, 79, 100, 63, 251, 212, 72, 61, 202, 224, 100, 63, 119, 71, 188, 60, 132, 175, 84, 63, 25, 148, 156, 60, 90, 2, 85, 63, 153, 199, 231, 60, 34, 175, 93, 63, 171, 136, 26, 62, 220, 22, 39, 63, 6, 68, 18, 61, 251, 193, 92, 63, 198, 74, 3, 61, 225, 52, 93, 63, 198, 96, 147, 61, 10, 182, 15, 63, 167, 35, 133, 62, 216, 231, 103, 63, 135, 188, 161, 61, 16, 36, 17, 63, 190, 180, 154, 61, 190, 109, 16, 63, 246, 223, 105, 61, 50, 173, 24, 63, 48, 21, 91, 61, 246, 16, 24, 63, 106, 238, 255, 60, 148, 171, 31, 63, 153, 162, 57, 62, 32, 239, 99, 63, 94, 227, 31, 61, 222, 166, 32, 63, 45, 65, 16, 61, 120, 41, 32, 63, 85, 160, 25, 62, 6, 48, 97, 63, 54, 51, 204, 61, 19, 98, 54, 63, 219, 91, 134, 62, 200, 128, 56, 63, 155, 72, 133, 62, 148, 170, 29, 63, 158, 170, 170, 62, 102, 95, 97, 63, 123, 122, 167, 62, 57, 28, 95, 63, 224, 94, 139, 60, 168, 82, 40, 63, 229, 184, 23, 62, 39, 240, 93, 63, 159, 205, 32, 62, 228, 131, 125, 63, 212, 108, 134, 62, 196, 248, 76, 63, 132, 146, 139, 62, 22, 92, 75, 63, 219, 91, 134, 62, 200, 128, 56, 63, 155, 72, 133, 62, 148, 170, 29, 63, 165, 122, 167, 62, 228, 63, 38, 63, 69, 208, 119, 60, 185, 91, 85, 63, 165, 46, 0, 62, 224, 206, 46, 63, 232, 28, 60, 62, 48, 115, 33, 63, 232, 28, 60, 62, 48, 115, 33, 63, 68, 238, 96, 62, 71, 96, 103, 63, 244, 251, 108, 60, 179, 53, 76, 63, 246, 22, 0, 59, 90, 151, 67, 63, 36, 141, 209, 61, 112, 45, 66, 63, 36, 141, 209, 61, 112, 45, 66, 63, 182, 152, 47, 60, 1, 150, 58, 63, 224, 94, 139, 60, 168, 82, 40, 63, 229, 184, 23, 62, 39, 240, 93, 63, 247, 190, 198, 61, 188, 81, 8, 63, 245, 8, 153, 62, 215, 201, 101, 63, 135, 188, 161, 61, 16, 36, 17, 63, 212, 108, 134, 62, 196, 248, 76, 63, 212, 108, 134, 62, 196, 248, 76, 63, 132, 146, 139, 62, 22, 92, 75, 63, 219, 91, 134, 62, 200, 128, 56, 63, 123, 122, 167, 62, 57, 28, 95, 63, 37, 216, 232, 61, 250, 53, 66, 63, 37, 216, 232, 61, 250, 53, 66, 63, 226, 58, 65, 62, 178, 4, 36, 63, 214, 45, 99, 62, 232, 123, 100, 63, 242, 188, 31, 62, 143, 200, 91, 63, 212, 135, 219, 61, 101, 96, 76, 63, 33, 59, 222, 61, 82, 16, 56, 63, 169, 150, 251, 61, 40, 224, 85, 63, 171, 136, 26, 62, 220, 22, 39, 63, 167, 35, 133, 62, 216, 231, 103, 63, 153, 162, 57, 62, 32, 239, 99, 63, 226, 114, 157, 62, 246, 47, 48, 63, 200, 228, 116, 62, 50, 197, 55, 63, 27, 68, 83, 62, 89, 118, 63, 63, 57, 244, 82, 62, 68, 131, 69, 63, 175, 187, 87, 62, 195, 82, 72, 63, 74, 101, 95, 62, 38, 179, 74, 63, 132, 146, 139, 62, 22, 92, 75, 63, 200, 170, 87, 62, 173, 160, 60, 63, 194, 117, 128, 62, 228, 172, 77, 63, 124, 194, 116, 62, 200, 122, 77, 63, 127, 117, 136, 61, 214, 165, 108, 63, 226, 120, 252, 61, 0, 128, 0, 63, 119, 220, 25, 62, 246, 78, 127, 63, 37, 216, 232, 61, 250, 53, 66, 63, 226, 58, 65, 62, 178, 4, 36, 63, 202, 107, 244, 61, 44, 38, 121, 63, 166, 166, 75, 61, 99, 115, 23, 63, 242, 188, 31, 62, 143, 200, 91, 63, 195, 104, 21, 59, 162, 110, 58, 63, 74, 204, 205, 59, 149, 157, 76, 63, 33, 59, 222, 61, 82, 16, 56, 63, 174, 198, 198, 61, 252, 144, 113, 63, 254, 250, 142, 61, 212, 239, 107, 63, 67, 4, 43, 60, 221, 102, 76, 63, 164, 81, 41, 60, 90, 118, 67, 63, 246, 22, 0, 59, 90, 151, 67, 63, 53, 107, 215, 59, 180, 128, 58, 63, 89, 85, 128, 60, 142, 186, 49, 63, 219, 147, 239, 59, 162, 74, 49, 63, 224, 94, 139, 60, 168, 82, 40, 63, 197, 87, 173, 60, 230, 173, 40, 63, 247, 190, 198, 61, 188, 81, 8, 63, 49, 248, 205, 61, 74, 22, 9, 63, 179, 162, 29, 62, 32, 117, 126, 63, 109, 55, 250, 61, 188, 61, 120, 63, 219, 188, 86, 61, 155, 79, 100, 63, 119, 71, 188, 60, 132, 175, 84, 63, 153, 199, 231, 60, 34, 175, 93, 63, 198, 74, 3, 61, 225, 52, 93, 63, 135, 188, 161, 61, 16, 36, 17, 63, 48, 21, 91, 61, 246, 16, 24, 63, 153, 162, 57, 62, 32, 239, 99, 63, 94, 227, 31, 61, 222, 166, 32, 63),
"format": 4119,
"index_count": 1140,
"index_data": PackedByteArray(194, 0, 116, 0, 192, 0, 194, 0, 106, 0, 116, 0, 244, 0, 63, 0, 246, 0, 244, 0, 57, 0, 63, 0, 5, 0, 10, 0, 11, 0, 5, 0, 4, 0, 10, 0, 4, 0, 9, 0, 10, 0, 4, 0, 3, 0, 9, 0, 3, 0, 7, 0, 9, 0, 3, 0, 1, 0, 7, 0, 2, 0, 6, 0, 8, 0, 2, 0, 0, 0, 6, 0, 236, 0, 11, 0, 240, 0, 236, 0, 5, 0, 11, 0, 11, 0, 16, 0, 17, 0, 11, 0, 10, 0, 16, 0, 10, 0, 15, 0, 16, 0, 10, 0, 9, 0, 15, 0, 9, 0, 13, 0, 15, 0, 9, 0, 7, 0, 13, 0, 8, 0, 12, 0, 14, 0, 8, 0, 6, 0, 12, 0, 210, 0, 99, 0, 208, 0, 210, 0, 93, 0, 99, 0, 17, 0, 22, 0, 23, 0, 17, 0, 16, 0, 22, 0, 16, 0, 21, 0, 22, 0, 16, 0, 15, 0, 21, 0, 15, 0, 19, 0, 21, 0, 15, 0, 13, 0, 19, 0, 14, 0, 18, 0, 20, 0, 14, 0, 12, 0, 18, 0, 204, 0, 35, 0, 232, 0, 204, 0, 29, 0, 35, 0, 23, 0, 28, 0, 29, 0, 23, 0, 22, 0, 28, 0, 22, 0, 27, 0, 28, 0, 22, 0, 21, 0, 27, 0, 21, 0, 25, 0, 27, 0, 21, 0, 19, 0, 25, 0, 20, 0, 24, 0, 26, 0, 20, 0, 18, 0, 24, 0, 234, 0, 23, 0, 206, 0, 234, 0, 17, 0, 23, 0, 29, 0, 34, 0, 35, 0, 29, 0, 28, 0, 34, 0, 28, 0, 33, 0, 34, 0, 28, 0, 27, 0, 33, 0, 27, 0, 31, 0, 33, 0, 27, 0, 25, 0, 31, 0, 26, 0, 30, 0, 32, 0, 26, 0, 24, 0, 30, 0, 240, 0, 17, 0, 234, 0, 240, 0, 11, 0, 17, 0, 35, 0, 43, 0, 45, 0, 35, 0, 34, 0, 43, 0, 34, 0, 41, 0, 43, 0, 34, 0, 33, 0, 41, 0, 33, 0, 38, 0, 41, 0, 33, 0, 31, 0, 38, 0, 32, 0, 36, 0, 39, 0, 32, 0, 30, 0, 36, 0, 226, 0, 57, 0, 244, 0, 226, 0, 51, 0, 57, 0, 44, 0, 50, 0, 51, 0, 44, 0, 42, 0, 50, 0, 42, 0, 49, 0, 50, 0, 42, 0, 40, 0, 49, 0, 40, 0, 47, 0, 49, 0, 40, 0, 37, 0, 47, 0, 39, 0, 46, 0, 48, 0, 39, 0, 36, 0, 46, 0, 232, 0, 45, 0, 229, 0, 232, 0, 35, 0, 45, 0, 51, 0, 56, 0, 57, 0, 51, 0, 50, 0, 56, 0, 50, 0, 55, 0, 56, 0, 50, 0, 49, 0, 55, 0, 49, 0, 53, 0, 55, 0, 49, 0, 47, 0, 53, 0, 48, 0, 52, 0, 54, 0, 48, 0, 46, 0, 52, 0, 246, 0, 69, 0, 250, 0, 246, 0, 63, 0, 69, 0, 57, 0, 62, 0, 63, 0, 57, 0, 56, 0, 62, 0, 56, 0, 61, 0, 62, 0, 56, 0, 55, 0, 61, 0, 55, 0, 59, 0, 61, 0, 55, 0, 53, 0, 59, 0, 54, 0, 58, 0, 60, 0, 54, 0, 52, 0, 58, 0, 63, 0, 68, 0, 69, 0, 63, 0, 62, 0, 68, 0, 62, 0, 67, 0, 68, 0, 62, 0, 61, 0, 67, 0, 61, 0, 65, 0, 67, 0, 61, 0, 59, 0, 65, 0, 60, 0, 64, 0, 66, 0, 60, 0, 58, 0, 64, 0, 228, 0, 51, 0, 226, 0, 228, 0, 44, 0, 51, 0, 69, 0, 74, 0, 75, 0, 69, 0, 68, 0, 74, 0, 68, 0, 73, 0, 74, 0, 68, 0, 67, 0, 73, 0, 67, 0, 71, 0, 73, 0, 67, 0, 65, 0, 71, 0, 66, 0, 70, 0, 72, 0, 66, 0, 64, 0, 70, 0, 250, 0, 75, 0, 220, 0, 250, 0, 69, 0, 75, 0, 75, 0, 80, 0, 81, 0, 75, 0, 74, 0, 80, 0, 74, 0, 79, 0, 80, 0, 74, 0, 73, 0, 79, 0, 73, 0, 77, 0, 79, 0, 73, 0, 71, 0, 77, 0, 72, 0, 76, 0, 78, 0, 72, 0, 70, 0, 76, 0, 220, 0, 81, 0, 216, 0, 220, 0, 75, 0, 81, 0, 81, 0, 86, 0, 87, 0, 81, 0, 80, 0, 86, 0, 80, 0, 85, 0, 86, 0, 80, 0, 79, 0, 85, 0, 79, 0, 83, 0, 85, 0, 79, 0, 77, 0, 83, 0, 78, 0, 82, 0, 84, 0, 78, 0, 76, 0, 82, 0, 216, 0, 87, 0, 214, 0, 216, 0, 81, 0, 87, 0, 87, 0, 92, 0, 93, 0, 87, 0, 86, 0, 92, 0, 86, 0, 91, 0, 92, 0, 86, 0, 85, 0, 91, 0, 85, 0, 89, 0, 91, 0, 85, 0, 83, 0, 89, 0, 84, 0, 88, 0, 90, 0, 84, 0, 82, 0, 88, 0, 208, 0, 5, 0, 236, 0, 208, 0, 99, 0, 5, 0, 93, 0, 98, 0, 99, 0, 93, 0, 92, 0, 98, 0, 92, 0, 97, 0, 98, 0, 92, 0, 91, 0, 97, 0, 91, 0, 95, 0, 97, 0, 91, 0, 89, 0, 95, 0, 90, 0, 94, 0, 96, 0, 90, 0, 88, 0, 94, 0, 214, 0, 93, 0, 210, 0, 214, 0, 87, 0, 93, 0, 99, 0, 4, 0, 5, 0, 99, 0, 98, 0, 4, 0, 98, 0, 3, 0, 4, 0, 98, 0, 97, 0, 3, 0, 97, 0, 1, 0, 3, 0, 97, 0, 95, 0, 1, 0, 96, 0, 0, 0, 2, 0, 96, 0, 94, 0, 0, 0, 94, 0, 6, 0, 0, 0, 6, 0, 18, 0, 12, 0, 18, 0, 30, 0, 24, 0, 30, 0, 46, 0, 36, 0, 46, 0, 58, 0, 52, 0, 58, 0, 70, 0, 64, 0, 70, 0, 82, 0, 76, 0, 82, 0, 94, 0, 88, 0, 94, 0, 18, 0, 6, 0, 18, 0, 46, 0, 30, 0, 46, 0, 70, 0, 58, 0, 70, 0, 94, 0, 82, 0, 94, 0, 46, 0, 18, 0, 46, 0, 94, 0, 70, 0, 152, 0, 111, 0, 178, 0, 152, 0, 101, 0, 111, 0, 168, 0, 104, 0, 198, 0, 168, 0, 103, 0, 104, 0, 174, 0, 112, 0, 172, 0, 174, 0, 113, 0, 112, 0, 166, 0, 106, 0, 194, 0, 166, 0, 105, 0, 106, 0, 200, 0, 103, 0, 168, 0, 200, 0, 102, 0, 103, 0, 163, 0, 110, 0, 182, 0, 163, 0, 109, 0, 110, 0, 198, 0, 105, 0, 166, 0, 198, 0, 104, 0, 105, 0, 184, 0, 108, 0, 162, 0, 184, 0, 107, 0, 108, 0, 182, 0, 100, 0, 154, 0, 182, 0, 110, 0, 100, 0, 172, 0, 102, 0, 200, 0, 172, 0, 112, 0, 102, 0, 186, 0, 107, 0, 184, 0, 186, 0, 114, 0, 107, 0, 188, 0, 114, 0, 186, 0, 188, 0, 115, 0, 114, 0, 192, 0, 115, 0, 188, 0, 192, 0, 116, 0, 115, 0, 206, 0, 29, 0, 204, 0, 206, 0, 23, 0, 29, 0, 178, 0, 113, 0, 174, 0, 178, 0, 111, 0, 113, 0, 104, 0, 128, 0, 105, 0, 104, 0, 126, 0, 128, 0, 138, 0, 140, 0, 142, 0, 140, 0, 123, 0, 121, 0, 123, 0, 127, 0, 125, 0, 127, 0, 148, 0, 129, 0, 148, 0, 144, 0, 146, 0, 144, 0, 133, 0, 131, 0, 133, 0, 117, 0, 136, 0, 117, 0, 138, 0, 119, 0, 138, 0, 123, 0, 140, 0, 123, 0, 148, 0, 127, 0, 148, 0, 133, 0, 144, 0, 133, 0, 138, 0, 117, 0, 138, 0, 148, 0, 123, 0, 148, 0, 138, 0, 133, 0, 114, 0, 132, 0, 107, 0, 114, 0, 145, 0, 132, 0, 105, 0, 130, 0, 106, 0, 105, 0, 128, 0, 130, 0, 115, 0, 145, 0, 114, 0, 115, 0, 147, 0, 145, 0, 107, 0, 134, 0, 108, 0, 107, 0, 132, 0, 134, 0, 116, 0, 147, 0, 115, 0, 116, 0, 149, 0, 147, 0, 109, 0, 137, 0, 110, 0, 109, 0, 135, 0, 137, 0, 106, 0, 149, 0, 116, 0, 106, 0, 130, 0, 149, 0, 110, 0, 118, 0, 100, 0, 110, 0, 137, 0, 118, 0, 100, 0, 120, 0, 101, 0, 100, 0, 118, 0, 120, 0, 112, 0, 122, 0, 102, 0, 112, 0, 141, 0, 122, 0, 101, 0, 139, 0, 111, 0, 101, 0, 120, 0, 139, 0, 102, 0, 124, 0, 103, 0, 102, 0, 122, 0, 124, 0, 113, 0, 141, 0, 112, 0, 113, 0, 143, 0, 141, 0, 103, 0, 126, 0, 104, 0, 103, 0, 124, 0, 126, 0, 111, 0, 143, 0, 113, 0, 111, 0, 139, 0, 143, 0, 204, 0, 207, 0, 206, 0, 204, 0, 205, 0, 207, 0, 205, 0, 150, 0, 207, 0, 205, 0, 155, 0, 150, 0, 208, 0, 213, 0, 210, 0, 208, 0, 209, 0, 213, 0, 209, 0, 211, 0, 213, 0, 209, 0, 201, 0, 211, 0, 210, 0, 215, 0, 214, 0, 210, 0, 213, 0, 215, 0, 213, 0, 196, 0, 215, 0, 213, 0, 211, 0, 196, 0, 214, 0, 219, 0, 216, 0, 214, 0, 215, 0, 219, 0, 215, 0, 217, 0, 219, 0, 215, 0, 196, 0, 217, 0, 216, 0, 223, 0, 220, 0, 216, 0, 219, 0, 223, 0, 219, 0, 221, 0, 223, 0, 219, 0, 217, 0, 221, 0, 226, 0, 230, 0, 228, 0, 226, 0, 227, 0, 230, 0, 227, 0, 158, 0, 230, 0, 227, 0, 224, 0, 158, 0, 229, 0, 233, 0, 232, 0, 229, 0, 231, 0, 233, 0, 231, 0, 180, 0, 233, 0, 231, 0, 159, 0, 180, 0, 232, 0, 205, 0, 204, 0, 232, 0, 233, 0, 205, 0, 233, 0, 155, 0, 205, 0, 233, 0, 180, 0, 155, 0, 206, 0, 235, 0, 234, 0, 206, 0, 207, 0, 235, 0, 207, 0, 176, 0, 235, 0, 207, 0, 150, 0, 176, 0, 170, 0, 241, 0, 238, 0, 170, 0, 237, 0, 241, 0, 237, 0, 240, 0, 241, 0, 237, 0, 236, 0, 240, 0, 238, 0, 235, 0, 176, 0, 238, 0, 241, 0, 235, 0, 241, 0, 234, 0, 235, 0, 241, 0, 240, 0, 234, 0, 224, 0, 245, 0, 242, 0, 224, 0, 227, 0, 245, 0, 227, 0, 244, 0, 245, 0, 227, 0, 226, 0, 244, 0, 242, 0, 247, 0, 189, 0, 242, 0, 245, 0, 247, 0, 245, 0, 246, 0, 247, 0, 245, 0, 244, 0, 246, 0, 189, 0, 251, 0, 248, 0, 189, 0, 247, 0, 251, 0, 247, 0, 250, 0, 251, 0, 247, 0, 246, 0, 250, 0, 248, 0, 223, 0, 221, 0, 248, 0, 251, 0, 223, 0, 251, 0, 220, 0, 223, 0, 251, 0, 250, 0, 220, 0, 201, 0, 237, 0, 170, 0, 201, 0, 209, 0, 237, 0, 209, 0, 236, 0, 237, 0, 209, 0, 208, 0, 236, 0, 156, 0, 153, 0, 151, 0, 156, 0, 157, 0, 153, 0, 157, 0, 152, 0, 153, 0, 157, 0, 154, 0, 152, 0, 202, 0, 169, 0, 212, 0, 202, 0, 203, 0, 169, 0, 203, 0, 168, 0, 169, 0, 203, 0, 200, 0, 168, 0, 212, 0, 199, 0, 197, 0, 212, 0, 169, 0, 199, 0, 169, 0, 198, 0, 199, 0, 169, 0, 168, 0, 198, 0, 197, 0, 167, 0, 218, 0, 197, 0, 199, 0, 167, 0, 199, 0, 166, 0, 167, 0, 199, 0, 198, 0, 166, 0, 218, 0, 195, 0, 222, 0, 218, 0, 167, 0, 195, 0, 167, 0, 194, 0, 195, 0, 167, 0, 166, 0, 194, 0, 225, 0, 165, 0, 161, 0, 225, 0, 185, 0, 165, 0, 185, 0, 162, 0, 165, 0, 185, 0, 184, 0, 162, 0, 160, 0, 183, 0, 181, 0, 160, 0, 164, 0, 183, 0, 164, 0, 182, 0, 183, 0, 164, 0, 163, 0, 182, 0, 181, 0, 157, 0, 156, 0, 181, 0, 183, 0, 157, 0, 183, 0, 154, 0, 157, 0, 183, 0, 182, 0, 154, 0, 151, 0, 179, 0, 177, 0, 151, 0, 153, 0, 179, 0, 153, 0, 178, 0, 179, 0, 153, 0, 152, 0, 178, 0, 172, 0, 175, 0, 174, 0, 172, 0, 173, 0, 175, 0, 173, 0, 239, 0, 175, 0, 173, 0, 171, 0, 239, 0, 174, 0, 179, 0, 178, 0, 174, 0, 175, 0, 179, 0, 175, 0, 177, 0, 179, 0, 175, 0, 239, 0, 177, 0, 184, 0, 187, 0, 186, 0, 184, 0, 185, 0, 187, 0, 185, 0, 243, 0, 187, 0, 185, 0, 225, 0, 243, 0, 186, 0, 191, 0, 188, 0, 186, 0, 187, 0, 191, 0, 187, 0, 190, 0, 191, 0, 187, 0, 243, 0, 190, 0, 188, 0, 193, 0, 192, 0, 188, 0, 191, 0, 193, 0, 191, 0, 249, 0, 193, 0, 191, 0, 190, 0, 249, 0, 192, 0, 195, 0, 194, 0, 192, 0, 193, 0, 195, 0, 193, 0, 222, 0, 195, 0, 193, 0, 249, 0, 222, 0, 200, 0, 173, 0, 172, 0, 200, 0, 203, 0, 173, 0, 203, 0, 171, 0, 173, 0, 203, 0, 202, 0, 171, 0, 154, 0, 101, 0, 152, 0, 154, 0, 100, 0, 101, 0),
"lods": [0.0555586, PackedByteArray(244, 0, 44, 0, 67, 0, 44, 0, 37, 0, 59, 0, 44, 0, 59, 0, 67, 0, 67, 0, 59, 0, 65, 0, 228, 0, 44, 0, 244, 0, 67, 0, 65, 0, 77, 0, 227, 0, 228, 0, 244, 0, 228, 0, 227, 0, 230, 0, 73, 1, 52, 1, 230, 0, 73, 1, 72, 1, 52, 1, 72, 1, 73, 1, 80, 1, 224, 0, 244, 0, 242, 0, 242, 0, 244, 0, 247, 0, 247, 0, 244, 0, 250, 0, 242, 0, 81, 1, 57, 1, 57, 1, 81, 1, 83, 1, 244, 0, 67, 0, 250, 0, 189, 0, 250, 0, 248, 0, 248, 0, 250, 0, 223, 0, 216, 0, 223, 0, 250, 0, 250, 0, 67, 0, 216, 0, 248, 0, 71, 1, 70, 1, 68, 1, 70, 1, 71, 1, 216, 0, 217, 0, 221, 0, 215, 0, 217, 0, 216, 0, 210, 0, 215, 0, 216, 0, 216, 0, 67, 0, 210, 0, 210, 0, 211, 0, 196, 0, 209, 0, 211, 0, 210, 0, 209, 0, 210, 0, 236, 0, 67, 0, 91, 0, 210, 0, 67, 0, 77, 0, 91, 0, 91, 0, 77, 0, 83, 0, 91, 0, 83, 0, 1, 0, 210, 0, 91, 0, 11, 0, 91, 0, 1, 0, 11, 0, 210, 0, 11, 0, 236, 0, 11, 0, 1, 0, 7, 0, 11, 0, 7, 0, 13, 0, 11, 0, 13, 0, 25, 0, 11, 0, 25, 0, 45, 0, 45, 0, 25, 0, 31, 0, 45, 0, 31, 0, 38, 0, 204, 0, 11, 0, 45, 0, 77, 1, 11, 0, 204, 0, 204, 0, 45, 0, 229, 0, 60, 1, 64, 1, 77, 1, 64, 1, 60, 1, 66, 1, 229, 0, 231, 0, 233, 0, 229, 0, 233, 0, 204, 0, 233, 0, 155, 0, 204, 0, 204, 0, 155, 0, 150, 0, 75, 1, 56, 1, 155, 0, 74, 1, 56, 1, 75, 1, 74, 1, 53, 1, 56, 1, 204, 0, 207, 0, 234, 0, 207, 0, 176, 0, 234, 0, 238, 0, 234, 0, 176, 0, 236, 0, 204, 0, 234, 0, 241, 0, 236, 0, 234, 0, 170, 0, 236, 0, 241, 0, 201, 0, 236, 0, 170, 0, 63, 1, 51, 1, 176, 0, 62, 1, 51, 1, 63, 1, 170, 0, 79, 1, 78, 1, 78, 1, 79, 1, 76, 1, 2, 0, 84, 0, 8, 0, 8, 0, 84, 0, 14, 0, 78, 0, 66, 0, 84, 0, 60, 0, 84, 0, 66, 0, 84, 0, 60, 0, 14, 0, 32, 0, 14, 0, 60, 0, 26, 0, 14, 0, 32, 0, 32, 0, 60, 0, 39, 0, 166, 0, 54, 1, 58, 1, 197, 0, 54, 1, 166, 0, 197, 0, 166, 0, 218, 0, 218, 0, 166, 0, 194, 0, 218, 0, 194, 0, 222, 0, 249, 0, 222, 0, 194, 0, 212, 0, 168, 0, 197, 0, 202, 0, 168, 0, 212, 0, 188, 0, 190, 0, 249, 0, 188, 0, 82, 1, 58, 1, 186, 0, 190, 0, 188, 0, 188, 0, 58, 1, 186, 0, 186, 0, 243, 0, 190, 0, 58, 1, 49, 1, 186, 0, 58, 1, 50, 1, 49, 1, 58, 1, 46, 1, 50, 1, 54, 1, 46, 1, 58, 1, 54, 1, 45, 1, 46, 1, 54, 1, 44, 1, 128, 0, 172, 0, 44, 1, 54, 1, 61, 1, 172, 0, 54, 1, 172, 0, 43, 1, 44, 1, 202, 0, 171, 0, 172, 0, 172, 0, 171, 0, 239, 0, 174, 0, 43, 1, 172, 0, 172, 0, 239, 0, 174, 0, 174, 0, 48, 1, 43, 1, 174, 0, 239, 0, 177, 0, 174, 0, 177, 0, 178, 0, 151, 0, 178, 0, 177, 0, 178, 0, 143, 0, 174, 0, 174, 0, 143, 0, 141, 0, 55, 1, 42, 1, 143, 0, 41, 1, 42, 1, 55, 1, 154, 0, 41, 1, 55, 1, 154, 0, 55, 1, 151, 0, 156, 0, 154, 0, 151, 0, 181, 0, 154, 0, 156, 0, 181, 0, 182, 0, 154, 0, 160, 0, 182, 0, 181, 0, 160, 0, 164, 0, 182, 0, 164, 0, 163, 0, 182, 0, 182, 0, 109, 0, 154, 0, 163, 0, 109, 0, 182, 0, 109, 0, 118, 0, 120, 0, 109, 0, 137, 0, 118, 0, 109, 0, 135, 0, 137, 0, 184, 0, 108, 0, 162, 0, 184, 0, 162, 0, 165, 0, 225, 0, 184, 0, 165, 0, 225, 0, 165, 0, 161, 0, 184, 0, 225, 0, 243, 0, 184, 0, 243, 0, 186, 0, 184, 0, 186, 0, 108, 0, 186, 0, 134, 0, 108, 0, 186, 0, 132, 0, 47, 1, 186, 0, 145, 0, 132, 0, 121, 0, 127, 0, 125, 0, 121, 0, 129, 0, 127, 0, 142, 0, 129, 0, 121, 0, 142, 0, 121, 0, 140, 0, 129, 0, 144, 0, 146, 0, 129, 0, 133, 0, 144, 0, 129, 0, 142, 0, 133, 0, 144, 0, 133, 0, 131, 0, 133, 0, 142, 0, 117, 0, 117, 0, 142, 0, 119, 0, 133, 0, 117, 0, 136, 0, 65, 1, 59, 1, 67, 1, 67, 1, 59, 1, 69, 1), 0.0712906, PackedByteArray(236, 0, 25, 0, 204, 0, 229, 0, 25, 0, 38, 0, 204, 0, 25, 0, 229, 0, 229, 0, 159, 0, 180, 0, 229, 0, 180, 0, 204, 0, 180, 0, 155, 0, 204, 0, 204, 0, 155, 0, 150, 0, 204, 0, 150, 0, 234, 0, 236, 0, 204, 0, 234, 0, 150, 0, 176, 0, 234, 0, 238, 0, 234, 0, 176, 0, 238, 0, 236, 0, 234, 0, 170, 0, 236, 0, 238, 0, 201, 0, 236, 0, 170, 0, 201, 0, 208, 0, 236, 0, 208, 0, 25, 0, 236, 0, 208, 0, 201, 0, 211, 0, 208, 0, 77, 0, 25, 0, 208, 0, 211, 0, 214, 0, 214, 0, 77, 0, 208, 0, 211, 0, 196, 0, 214, 0, 214, 0, 196, 0, 217, 0, 214, 0, 244, 0, 77, 0, 214, 0, 217, 0, 220, 0, 220, 0, 244, 0, 214, 0, 217, 0, 221, 0, 220, 0, 248, 0, 220, 0, 221, 0, 189, 0, 220, 0, 248, 0, 189, 0, 244, 0, 220, 0, 242, 0, 244, 0, 189, 0, 224, 0, 244, 0, 242, 0, 228, 0, 77, 0, 244, 0, 224, 0, 228, 0, 244, 0, 228, 0, 37, 0, 77, 0, 224, 0, 158, 0, 228, 0, 26, 0, 78, 0, 39, 0, 184, 0, 33, 1, 29, 1, 33, 1, 27, 1, 29, 1, 184, 0, 39, 1, 33, 1, 33, 1, 25, 1, 27, 1, 184, 0, 225, 0, 243, 0, 225, 0, 184, 0, 162, 0, 225, 0, 162, 0, 161, 0, 188, 0, 243, 0, 190, 0, 188, 0, 190, 0, 249, 0, 194, 0, 249, 0, 222, 0, 218, 0, 194, 0, 222, 0, 34, 1, 25, 1, 33, 1, 33, 1, 40, 1, 34, 1, 30, 1, 25, 1, 34, 1, 35, 1, 30, 1, 34, 1, 35, 1, 34, 1, 37, 1, 36, 1, 172, 0, 30, 1, 178, 0, 28, 1, 25, 1, 178, 0, 239, 0, 177, 0, 151, 0, 178, 0, 177, 0, 172, 0, 171, 0, 239, 0, 202, 0, 171, 0, 172, 0, 202, 0, 168, 0, 212, 0, 212, 0, 168, 0, 197, 0, 172, 0, 26, 1, 31, 1, 32, 1, 26, 1, 172, 0, 172, 0, 38, 1, 32, 1, 163, 0, 28, 1, 32, 1, 163, 0, 135, 0, 137, 0, 154, 0, 32, 1, 151, 0, 156, 0, 154, 0, 151, 0, 154, 0, 163, 0, 178, 0, 181, 0, 154, 0, 156, 0, 181, 0, 163, 0, 154, 0, 160, 0, 163, 0, 181, 0, 131, 0, 136, 0, 133, 0), 0.088734, PackedByteArray(204, 0, 1, 0, 229, 0, 229, 0, 1, 0, 38, 0, 229, 0, 155, 0, 204, 0, 229, 0, 159, 0, 155, 0, 204, 0, 155, 0, 176, 0, 1, 0, 204, 0, 176, 0, 170, 0, 1, 0, 176, 0, 208, 0, 1, 0, 170, 0, 208, 0, 59, 0, 1, 0, 208, 0, 211, 0, 214, 0, 214, 0, 244, 0, 208, 0, 244, 0, 59, 0, 208, 0, 221, 0, 244, 0, 214, 0, 189, 0, 244, 0, 221, 0, 22, 1, 24, 1, 189, 0, 228, 0, 59, 0, 244, 0, 228, 0, 37, 0, 59, 0, 224, 0, 228, 0, 244, 0, 224, 0, 158, 0, 228, 0, 2, 0, 60, 0, 39, 0, 131, 0, 136, 0, 133, 0, 17, 1, 132, 0, 21, 1, 177, 0, 132, 0, 212, 0, 21, 1, 5, 1, 14, 1, 14, 1, 5, 1, 6, 1, 14, 1, 6, 1, 162, 0, 162, 0, 23, 1, 14, 1, 225, 0, 162, 0, 161, 0, 12, 1, 7, 1, 132, 0, 9, 1, 7, 1, 12, 1, 8, 1, 163, 0, 12, 1, 163, 0, 135, 0, 137, 0, 160, 0, 163, 0, 156, 0, 15, 1, 10, 1, 16, 1, 19, 1, 16, 1, 20, 1, 18, 1, 11, 1, 13, 1), 0.170322, PackedByteArray(2, 1, 253, 0, 252, 0, 155, 0, 221, 0, 229, 0, 229, 0, 159, 0, 155, 0, 229, 0, 25, 0, 38, 0, 221, 0, 25, 0, 4, 1, 221, 0, 158, 0, 228, 0, 228, 0, 77, 0, 221, 0, 228, 0, 37, 0, 77, 0, 26, 0, 78, 0, 39, 0, 131, 0, 136, 0, 133, 0, 222, 0, 134, 0, 1, 1, 3, 1, 1, 1, 0, 1, 222, 0, 132, 0, 134, 0, 156, 0, 132, 0, 222, 0, 156, 0, 137, 0, 132, 0, 163, 0, 135, 0, 137, 0, 160, 0, 163, 0, 156, 0, 163, 0, 254, 0, 255, 0)],
"material": ExtResource("1_s02wx"),
"name": "PropSet_4_Mat",
"primitive": 3,
"vertex_count": 340,
"vertex_data": PackedByteArray(0, 0, 0, 0, 60, 3, 18, 190, 54, 44, 80, 189, 196, 117, 0, 0, 164, 8, 18, 246, 0, 0, 0, 0, 8, 115, 10, 190, 133, 118, 201, 189, 105, 160, 0, 0, 164, 157, 139, 179, 0, 0, 0, 0, 8, 115, 10, 190, 133, 118, 201, 189, 105, 160, 0, 0, 248, 27, 58, 247, 0, 0, 0, 0, 230, 255, 232, 189, 98, 167, 16, 190, 78, 182, 0, 0, 166, 152, 18, 170, 0, 0, 0, 0, 12, 160, 164, 189, 198, 130, 51, 190, 77, 202, 0, 0, 169, 151, 182, 161, 0, 0, 0, 0, 210, 239, 28, 189, 241, 227, 73, 190, 167, 224, 0, 0, 109, 153, 69, 153, 4, 84, 159, 60, 60, 3, 18, 190, 150, 83, 64, 189, 11, 141, 210, 3, 97, 7, 223, 245, 102, 49, 26, 61, 8, 115, 10, 190, 163, 32, 186, 189, 76, 167, 130, 11, 25, 139, 154, 178, 102, 49, 26, 61, 8, 115, 10, 190, 163, 32, 186, 189, 76, 167, 130, 11, 241, 23, 58, 246, 43, 109, 93, 61, 230, 255, 232, 189, 136, 164, 5, 190, 201, 190, 99, 18, 125, 139, 93, 169, 64, 100, 137, 61, 12, 160, 164, 189, 170, 216, 37, 190, 106, 210, 35, 24, 189, 143, 84, 162, 44, 133, 154, 61, 210, 239, 28, 189, 185, 133, 58, 190, 139, 230, 9, 30, 77, 151, 210, 156, 71, 51, 19, 61, 60, 3, 18, 190, 67, 51, 19, 189, 0, 142, 0, 7, 2, 5, 166, 245, 176, 116, 142, 61, 8, 115, 10, 190, 175, 116, 142, 189, 124, 169, 190, 20, 120, 115, 158, 179, 176, 116, 142, 61, 8, 115, 10, 190, 175, 116, 142, 189, 124, 169, 190, 20, 178, 16, 148, 245, 71, 146, 204, 61, 230, 255, 232, 189, 70, 146, 204, 189, 81, 193, 169, 32, 221, 121, 18, 170, 218, 221, 253, 61, 12, 160, 164, 189, 218, 221, 253, 189, 182, 212, 91, 42, 220, 131, 65, 162, 15, 194, 14, 62, 210, 239, 28, 189, 15, 194, 14, 190, 30, 232, 15, 52, 118, 144, 104, 159, 151, 83, 64, 61, 60, 3, 18, 190, 1, 84, 159, 188, 11, 141, 57, 9, 205, 1, 115, 245, 164, 32, 186, 61, 8, 115, 10, 190, 102, 49, 26, 189, 76, 167, 202, 27, 120, 96, 21, 182, 164, 32, 186, 61, 8, 115, 10, 190, 102, 49, 26, 189, 76, 167, 202, 27, 95, 6, 96, 245, 136, 164, 5, 62, 230, 255, 232, 189, 43, 109, 93, 189, 201, 190, 101, 44, 247, 104, 86, 174, 171, 216, 37, 62, 12, 160, 164, 189, 66, 100, 137, 189, 106, 210, 71, 58, 136, 115, 201, 166, 186, 133, 58, 62, 210, 239, 28, 189, 44, 133, 154, 189, 139, 230, 130, 72, 10, 131, 42, 160, 54, 44, 80, 61, 60, 3, 18, 190, 0, 0, 0, 128, 58, 138, 58, 10, 207, 1, 107, 138, 133, 118, 201, 61, 8, 115, 10, 190, 0, 0, 0, 128, 105, 160, 105, 32, 28, 81, 11, 184, 133, 118, 201, 61, 8, 115, 10, 190, 0, 0, 0, 128, 105, 160, 105, 32, 120, 6, 138, 137, 98, 167, 16, 62, 230, 255, 232, 189, 0, 0, 0, 128, 78, 182, 78, 54, 198, 89, 233, 177, 198, 130, 51, 62, 12, 160, 164, 189, 0, 0, 0, 128, 77, 202, 78, 74, 47, 99, 15, 172, 241, 227, 73, 62, 210, 239, 28, 189, 0, 0, 0, 128, 167, 224, 167, 96, 119, 111, 129, 166, 150, 83, 64, 61, 60, 3, 18, 190, 4, 84, 159, 60, 56, 137, 11, 13, 8, 5, 14, 138, 163, 32, 186, 61, 8, 115, 10, 190, 102, 49, 26, 61, 201, 155, 76, 39, 71, 68, 86, 186, 163, 32, 186, 61, 8, 115, 10, 190, 102, 49, 26, 61, 201, 155, 76, 39, 74, 17, 247, 135, 136, 164, 5, 62, 230, 255, 232, 189, 43, 109, 93, 61, 101, 172, 201, 62, 26, 75, 170, 181, 170, 216, 37, 62, 12, 160, 164, 189, 64, 100, 137, 61, 70, 186, 106, 82, 125, 82, 150, 176, 185, 133, 58, 62, 210, 239, 28, 189, 44, 133, 154, 61, 130, 200, 139, 102, 82, 92, 177, 171, 67, 51, 19, 61, 60, 3, 18, 190, 71, 51, 19, 61, 255, 134, 0, 14, 103, 7, 215, 137, 175, 116, 142, 61, 8, 115, 10, 190, 176, 116, 142, 61, 190, 148, 125, 41, 87, 248, 26, 150, 175, 116, 142, 61, 8, 115, 10, 190, 176, 116, 142, 61, 190, 148, 125, 41, 207, 57, 11, 190, 175, 116, 142, 61, 8, 115, 10, 190, 176, 116, 142, 61, 190, 148, 125, 41, 193, 24, 103, 135, 70, 146, 204, 61, 230, 255, 232, 189, 71, 146, 204, 61, 168, 160, 82, 65, 64, 239, 199, 147, 70, 146, 204, 61, 230, 255, 232, 189, 71, 146, 204, 61, 168, 160, 82, 65, 72, 59, 221, 186, 218, 221, 253, 61, 12, 160, 164, 189, 218, 221, 253, 61, 90, 170, 182, 84, 159, 225, 165, 144, 218, 221, 253, 61, 12, 160, 164, 189, 218, 221, 253, 61, 90, 170, 182, 84, 195, 63, 42, 181, 15, 194, 14, 62, 210, 239, 28, 189, 15, 194, 14, 62, 15, 180, 31, 104, 121, 211, 195, 143, 15, 194, 14, 62, 210, 239, 28, 189, 15, 194, 14, 62, 15, 180, 31, 104, 48, 73, 5, 175, 1, 84, 159, 60, 60, 3, 18, 190, 151, 83, 64, 61, 209, 131, 11, 13, 167, 8, 206, 137, 102, 49, 26, 61, 8, 115, 10, 190, 164, 32, 186, 61, 130, 139, 76, 39, 239, 240, 238, 150, 102, 49, 26, 61, 8, 115, 10, 190, 164, 32, 186, 61, 130, 139, 76, 39, 90, 28, 206, 135, 43, 109, 93, 61, 230, 255, 232, 189, 136, 164, 5, 62, 99, 146, 201, 62, 22, 229, 195, 149, 66, 100, 137, 61, 12, 160, 164, 189, 171, 216, 37, 62, 35, 152, 106, 82, 116, 216, 86, 148, 44, 133, 154, 61, 210, 239, 28, 189, 186, 133, 58, 62, 8, 158, 139, 102, 88, 205, 14, 149, 0, 0, 0, 0, 60, 3, 18, 190, 54, 44, 80, 61, 255, 127, 58, 10, 164, 8, 235, 137, 0, 0, 0, 0, 8, 115, 10, 190, 133, 118, 201, 61, 255, 127, 105, 32, 110, 237, 87, 155, 0, 0, 0, 0, 8, 115, 10, 190, 133, 118, 201, 61, 255, 127, 105, 32, 248, 27, 196, 136, 0, 0, 0, 0, 230, 255, 232, 189, 98, 167, 16, 62, 255, 127, 78, 54, 47, 224, 130, 154, 0, 0, 0, 0, 12, 160, 164, 189, 198, 130, 51, 62, 255, 127, 78, 74, 4, 211, 65, 153, 0, 0, 0, 0, 210, 239, 28, 189, 241, 227, 73, 62, 255, 127, 167, 96, 133, 198, 240, 153, 4, 84, 159, 188, 60, 3, 18, 190, 150, 83, 64, 61, 45, 124, 11, 13, 97, 7, 30, 138, 102, 49, 26, 189, 8, 115, 10, 190, 163, 32, 186, 61, 124, 116, 76, 39, 137, 234, 121, 160, 102, 49, 26, 189, 8, 115, 10, 190, 163, 32, 186, 61, 124, 116, 76, 39, 241, 23, 196, 137, 43, 109, 93, 189, 230, 255, 232, 189, 136, 164, 5, 62, 155, 109, 201, 62, 216, 218, 247, 158, 64, 100, 137, 189, 12, 160, 164, 189, 170, 216, 37, 62, 219, 103, 106, 82, 13, 203, 183, 156, 44, 133, 154, 189, 210, 239, 28, 189, 185, 133, 58, 62, 246, 97, 139, 102, 148, 185, 12, 156, 71, 51, 19, 189, 60, 3, 18, 190, 67, 51, 19, 61, 255, 120, 0, 14, 2, 5, 88, 138, 176, 116, 142, 189, 8, 115, 10, 190, 175, 116, 142, 61, 64, 107, 125, 41, 61, 231, 74, 166, 176, 116, 142, 189, 8, 115, 10, 190, 175, 116, 142, 61, 64, 107, 125, 41, 178, 16, 106, 138, 71, 146, 204, 189, 230, 255, 232, 189, 70, 146, 204, 61, 86, 95, 82, 65, 37, 212, 52, 163, 218, 221, 253, 189, 12, 160, 164, 189, 218, 221, 253, 61, 164, 85, 182, 84, 176, 192, 230, 158, 15, 194, 14, 190, 210, 239, 28, 189, 15, 194, 14, 62, 239, 75, 31, 104, 151, 172, 38, 156, 151, 83, 64, 189, 60, 3, 18, 190, 1, 84, 159, 60, 198, 118, 11, 13, 205, 1, 138, 138, 164, 32, 186, 189, 8, 115, 10, 190, 102, 49, 26, 61, 53, 100, 76, 39, 155, 226, 50, 173, 164, 32, 186, 189, 8, 115, 10, 190, 102, 49, 26, 61, 53, 100, 76, 39, 95, 6, 158, 138, 136, 164, 5, 190, 230, 255, 232, 189, 43, 109, 93, 61, 153, 83, 201, 62, 177, 202, 12, 167, 171, 216, 37, 190, 12, 160, 164, 189, 66, 100, 137, 61, 184, 69, 106, 82, 38, 182, 248, 159, 186, 133, 58, 190, 210, 239, 28, 189, 44, 133, 154, 61, 124, 55, 139, 102, 27, 162, 41, 154, 54, 44, 80, 189, 60, 3, 18, 190, 0, 0, 0, 128, 196, 117, 58, 10, 207, 1, 147, 245, 133, 118, 201, 189, 8, 115, 10, 190, 0, 0, 0, 128, 149, 95, 105, 32, 87, 213, 134, 177, 133, 118, 201, 189, 8, 115, 10, 190, 0, 0, 0, 128, 149, 95, 105, 32, 120, 6, 116, 246, 98, 167, 16, 190, 230, 255, 232, 189, 0, 0, 0, 128, 176, 73, 78, 54, 80, 191, 170, 168, 198, 130, 51, 190, 12, 160, 164, 189, 0, 0, 0, 128, 177, 53, 78, 74, 3, 174, 40, 160, 241, 227, 73, 190, 210, 239, 28, 189, 0, 0, 0, 128, 87, 31, 167, 96, 111, 154, 59, 151, 150, 83, 64, 189, 60, 3, 18, 190, 4, 84, 159, 188, 243, 114, 57, 9, 8, 5, 239, 245, 163, 32, 186, 189, 8, 115, 10, 190, 102, 49, 26, 189, 178, 88, 202, 27, 203, 198, 229, 178, 163, 32, 186, 189, 8, 115, 10, 190, 102, 49, 26, 189, 178, 88, 202, 27, 74, 17, 7, 248, 136, 164, 5, 190, 230, 255, 232, 189, 43, 109, 93, 189, 53, 65, 101, 44, 159, 181, 147, 169, 170, 216, 37, 190, 12, 160, 164, 189, 64, 100, 137, 189, 148, 45, 71, 58, 161, 167, 34, 160, 185, 133, 58, 190, 210, 239, 28, 189, 44, 133, 154, 189, 115, 25, 130, 72, 125, 150, 190, 148, 67, 51, 19, 189, 60, 3, 18, 190, 71, 51, 19, 189, 254, 113, 0, 7, 103, 7, 38, 246, 175, 116, 142, 189, 8, 115, 10, 190, 176, 116, 142, 189, 130, 86, 190, 20, 170, 185, 158, 179, 175, 116, 142, 189, 8, 115, 10, 190, 176, 116, 142, 189, 130, 86, 190, 20, 193, 24, 150, 248, 70, 146, 204, 189, 230, 255, 232, 189, 71, 146, 204, 189, 173, 62, 169, 32, 138, 172, 18, 170, 218, 221, 253, 189, 12, 160, 164, 189, 218, 221, 253, 189, 72, 43, 91, 42, 98, 162, 88, 160, 15, 194, 14, 190, 210, 239, 28, 189, 15, 194, 14, 190, 224, 23, 15, 52, 95, 150, 30, 148, 1, 84, 159, 188, 60, 3, 18, 190, 151, 83, 64, 189, 243, 114, 210, 3, 167, 8, 48, 246, 102, 49, 26, 189, 8, 115, 10, 190, 164, 32, 186, 189, 178, 88, 130, 11, 113, 172, 213, 179, 102, 49, 26, 189, 8, 115, 10, 190, 164, 32, 186, 189, 178, 88, 130, 11, 90, 28, 48, 248, 43, 109, 93, 189, 230, 255, 232, 189, 136, 164, 5, 190, 53, 65, 99, 18, 52, 163, 64, 170, 66, 100, 137, 189, 12, 160, 164, 189, 171, 216, 37, 190, 148, 45, 35, 24, 111, 157, 236, 160, 44, 133, 154, 189, 210, 239, 28, 189, 186, 133, 58, 190, 115, 25, 9, 30, 83, 152, 230, 149, 235, 240, 28, 62, 36, 66, 184, 189, 107, 247, 39, 176, 251, 55, 251, 183, 49, 133, 86, 195, 161, 254, 16, 62, 36, 66, 184, 189, 56, 60, 112, 189, 64, 71, 191, 175, 56, 155, 55, 186, 86, 60, 112, 189, 38, 66, 184, 189, 169, 254, 16, 190, 128, 151, 191, 175, 143, 170, 3, 164, 216, 242, 221, 189, 36, 66, 184, 189, 202, 242, 221, 189, 75, 169, 102, 173, 184, 164, 131, 161, 175, 254, 16, 190, 38, 66, 184, 189, 56, 60, 112, 189, 190, 184, 191, 175, 243, 161, 247, 162, 250, 240, 28, 190, 36, 66, 184, 189, 107, 247, 39, 176, 3, 200, 251, 183, 242, 165, 150, 167, 175, 254, 16, 190, 38, 66, 184, 189, 56, 60, 112, 61, 63, 208, 64, 199, 175, 176, 118, 173, 27, 60, 112, 61, 38, 66, 184, 189, 169, 254, 16, 62, 191, 47, 125, 232, 154, 233, 255, 211, 186, 242, 221, 61, 36, 66, 184, 189, 202, 242, 221, 61, 103, 45, 178, 214, 238, 222, 44, 223, 186, 242, 221, 61, 36, 66, 184, 189, 202, 242, 221, 61, 103, 45, 178, 214, 2, 99, 172, 208, 161, 254, 16, 62, 38, 66, 184, 189, 56, 60, 112, 61, 191, 47, 64, 199, 109, 110, 54, 203, 186, 242, 221, 61, 38, 66, 184, 189, 202, 242, 221, 189, 179, 86, 102, 173, 254, 166, 22, 180, 214, 202, 231, 179, 38, 66, 184, 189, 242, 240, 28, 190, 255, 127, 251, 183, 38, 174, 249, 168, 27, 60, 112, 61, 38, 66, 184, 189, 169, 254, 16, 190, 126, 104, 191, 175, 20, 173, 141, 174, 214, 202, 231, 179, 38, 66, 184, 189, 242, 240, 28, 62, 3, 200, 255, 255, 247, 245, 209, 194, 86, 60, 112, 189, 38, 66, 184, 189, 169, 254, 16, 62, 63, 208, 125, 232, 27, 217, 192, 185, 216, 242, 221, 189, 38, 66, 184, 189, 202, 242, 221, 61, 151, 210, 178, 214, 59, 193, 148, 179, 24, 209, 119, 61, 64, 3, 8, 190, 184, 179, 220, 175, 160, 102, 159, 230, 114, 147, 102, 194, 24, 209, 119, 61, 64, 3, 8, 190, 184, 179, 220, 175, 160, 102, 159, 230, 29, 140, 126, 193, 240, 243, 100, 61, 64, 3, 8, 190, 186, 171, 189, 188, 230, 105, 190, 224, 108, 149, 160, 189, 240, 243, 100, 61, 64, 3, 8, 190, 186, 171, 189, 188, 230, 105, 190, 224, 158, 150, 205, 189, 186, 171, 189, 188, 65, 3, 8, 190, 240, 243, 100, 189, 38, 137, 190, 224, 175, 144, 1, 181, 186, 171, 189, 188, 65, 3, 8, 190, 240, 243, 100, 189, 38, 137, 190, 224, 40, 174, 156, 182, 164, 59, 47, 189, 64, 3, 8, 190, 164, 59, 47, 189, 147, 144, 214, 222, 217, 143, 121, 182, 164, 59, 47, 189, 64, 3, 8, 190, 164, 59, 47, 189, 147, 144, 214, 222, 127, 180, 121, 182, 240, 243, 100, 189, 65, 3, 8, 190, 186, 171, 189, 188, 24, 150, 190, 224, 196, 144, 112, 185, 240, 243, 100, 189, 65, 3, 8, 190, 186, 171, 189, 188, 24, 150, 190, 224, 72, 187, 215, 182, 24, 209, 119, 189, 64, 3, 8, 190, 184, 179, 220, 175, 94, 153, 159, 230, 114, 147, 151, 189, 24, 209, 119, 189, 64, 3, 8, 190, 184, 179, 220, 175, 94, 153, 159, 230, 40, 195, 177, 183, 240, 243, 100, 189, 65, 3, 8, 190, 186, 171, 189, 60, 63, 159, 230, 233, 108, 149, 93, 194, 240, 243, 100, 189, 65, 3, 8, 190, 186, 171, 189, 60, 63, 159, 230, 233, 139, 204, 7, 185, 186, 171, 189, 60, 65, 3, 8, 190, 240, 243, 100, 61, 191, 96, 215, 246, 175, 144, 252, 202, 186, 171, 189, 60, 65, 3, 8, 190, 240, 243, 100, 61, 191, 96, 215, 246, 145, 244, 140, 197, 164, 59, 47, 61, 64, 3, 8, 190, 164, 59, 47, 61, 214, 94, 106, 239, 217, 143, 133, 201, 164, 59, 47, 61, 64, 3, 8, 190, 164, 59, 47, 61, 214, 94, 106, 239, 248, 238, 231, 203, 164, 59, 47, 61, 64, 3, 8, 190, 164, 59, 47, 61, 214, 94, 106, 239, 5, 122, 161, 200, 240, 243, 100, 61, 65, 3, 8, 190, 186, 171, 189, 60, 191, 96, 230, 233, 196, 144, 141, 198, 240, 243, 100, 61, 65, 3, 8, 190, 186, 171, 189, 60, 191, 96, 230, 233, 129, 127, 116, 197, 164, 59, 47, 61, 65, 3, 8, 190, 164, 59, 47, 189, 107, 111, 214, 222, 88, 149, 166, 185, 164, 59, 47, 61, 65, 3, 8, 190, 164, 59, 47, 189, 107, 111, 214, 222, 233, 157, 236, 186, 36, 238, 43, 48, 65, 3, 8, 190, 24, 209, 119, 189, 255, 127, 159, 230, 134, 146, 37, 181, 36, 238, 43, 48, 65, 3, 8, 190, 24, 209, 119, 189, 255, 127, 159, 230, 111, 168, 81, 183, 186, 171, 189, 60, 65, 3, 8, 190, 240, 243, 100, 189, 216, 118, 190, 224, 84, 148, 197, 182, 186, 171, 189, 60, 65, 3, 8, 190, 240, 243, 100, 189, 216, 118, 190, 224, 190, 163, 204, 184, 36, 238, 43, 48, 65, 3, 8, 190, 24, 209, 119, 61, 160, 102, 255, 255, 134, 146, 216, 202, 36, 238, 43, 48, 65, 3, 8, 190, 24, 209, 119, 61, 160, 102, 255, 255, 82, 243, 64, 193, 186, 171, 189, 188, 65, 3, 8, 190, 240, 243, 100, 61, 63, 159, 215, 246, 83, 148, 57, 201, 186, 171, 189, 188, 65, 3, 8, 190, 240, 243, 100, 61, 63, 159, 215, 246, 54, 230, 140, 189, 164, 59, 47, 189, 65, 3, 8, 190, 164, 59, 47, 61, 40, 161, 106, 239, 88, 149, 87, 198, 164, 59, 47, 189, 65, 3, 8, 190, 164, 59, 47, 61, 40, 161, 106, 239, 255, 215, 233, 186, 96, 155, 53, 62, 39, 76, 8, 60, 185, 114, 150, 189, 153, 140, 21, 247, 56, 216, 34, 189, 96, 155, 53, 62, 39, 76, 8, 60, 185, 114, 150, 189, 153, 140, 21, 247, 144, 150, 201, 192, 198, 183, 37, 62, 40, 229, 101, 187, 3, 73, 137, 189, 213, 62, 215, 163, 183, 154, 25, 184, 79, 247, 43, 62, 28, 22, 159, 59, 28, 118, 142, 189, 255, 85, 153, 196, 191, 150, 232, 186, 42, 95, 51, 62, 32, 229, 101, 187, 49, 141, 181, 174, 33, 43, 32, 171, 231, 131, 214, 195, 231, 145, 68, 62, 39, 76, 8, 60, 0, 0, 0, 128, 223, 137, 31, 246, 42, 184, 166, 189, 231, 145, 68, 62, 39, 76, 8, 60, 0, 0, 0, 128, 223, 137, 31, 246, 151, 135, 174, 191, 123, 34, 58, 62, 28, 22, 159, 59, 0, 0, 0, 174, 251, 76, 250, 204, 146, 134, 44, 194, 245, 254, 10, 62, 39, 76, 8, 60, 245, 254, 10, 62, 195, 134, 119, 242, 48, 225, 108, 188, 245, 254, 10, 62, 39, 76, 8, 60, 245, 254, 10, 62, 195, 134, 119, 242, 232, 130, 108, 188, 245, 254, 10, 62, 39, 76, 8, 60, 245, 254, 10, 62, 195, 134, 119, 242, 47, 110, 107, 189, 245, 254, 10, 62, 39, 76, 8, 60, 245, 254, 10, 62, 195, 134, 119, 242, 180, 250, 15, 181, 129, 171, 253, 61, 36, 229, 101, 187, 129, 171, 253, 61, 214, 33, 234, 208, 14, 220, 134, 226, 129, 171, 253, 61, 36, 229, 101, 187, 129, 171, 253, 61, 214, 33, 234, 208, 113, 94, 182, 209, 252, 157, 3, 62, 28, 22, 159, 59, 252, 157, 3, 62, 18, 66, 8, 225, 195, 106, 164, 205, 252, 157, 3, 62, 28, 22, 159, 59, 252, 157, 3, 62, 18, 66, 8, 225, 26, 228, 22, 216, 42, 95, 51, 190, 36, 229, 101, 187, 50, 141, 181, 174, 221, 212, 32, 171, 220, 157, 157, 162, 123, 34, 58, 190, 28, 22, 159, 59, 0, 0, 128, 173, 3, 179, 250, 204, 80, 181, 84, 174, 129, 171, 253, 189, 36, 229, 101, 187, 129, 171, 253, 189, 20, 175, 213, 161, 159, 154, 194, 154, 252, 157, 3, 190, 28, 22, 159, 59, 252, 157, 3, 190, 245, 158, 18, 194, 6, 172, 147, 171, 0, 0, 0, 0, 16, 76, 8, 60, 231, 145, 68, 190, 223, 137, 255, 255, 170, 248, 126, 144, 0, 0, 0, 0, 16, 76, 8, 60, 231, 145, 68, 190, 223, 137, 255, 255, 115, 177, 6, 195, 63, 191, 78, 47, 120, 229, 101, 187, 42, 95, 51, 190, 255, 127, 32, 171, 111, 167, 163, 162, 0, 0, 64, 46, 240, 21, 159, 59, 123, 34, 58, 190, 255, 127, 250, 204, 112, 168, 140, 174, 3, 73, 137, 61, 124, 229, 101, 187, 198, 183, 37, 190, 1, 101, 215, 163, 2, 169, 106, 169, 28, 118, 142, 61, 238, 21, 159, 59, 79, 247, 43, 190, 153, 110, 153, 196, 99, 165, 187, 177, 245, 254, 10, 62, 16, 76, 8, 60, 245, 254, 10, 190, 135, 141, 59, 249, 218, 248, 82, 180, 245, 254, 10, 62, 16, 76, 8, 60, 245, 254, 10, 190, 135, 141, 59, 249, 168, 161, 176, 193, 129, 171, 253, 61, 126, 229, 101, 187, 129, 171, 253, 189, 234, 80, 213, 161, 25, 165, 88, 176, 252, 157, 3, 62, 239, 21, 159, 59, 252, 157, 3, 190, 9, 97, 18, 194, 239, 159, 196, 181, 96, 155, 53, 62, 16, 76, 8, 60, 185, 114, 150, 61, 232, 136, 100, 243, 28, 153, 118, 189, 96, 155, 53, 62, 16, 76, 8, 60, 185, 114, 150, 61, 232, 136, 100, 243, 112, 117, 146, 190, 198, 183, 37, 62, 124, 229, 101, 187, 3, 73, 137, 61, 215, 35, 213, 190, 217, 107, 182, 204, 79, 247, 43, 62, 238, 21, 159, 59, 28, 118, 142, 61, 153, 68, 254, 213, 111, 115, 155, 200, 3, 73, 137, 61, 126, 229, 101, 187, 198, 183, 37, 62, 215, 35, 1, 229, 18, 230, 221, 214, 28, 118, 142, 61, 239, 21, 159, 59, 79, 247, 43, 62, 153, 68, 153, 238, 57, 238, 195, 206, 64, 191, 78, 47, 124, 229, 101, 187, 42, 95, 51, 62, 33, 43, 255, 255, 42, 244, 235, 195, 0, 0, 64, 46, 238, 21, 159, 59, 123, 34, 58, 62, 251, 76, 255, 255, 226, 243, 105, 194, 3, 73, 137, 189, 124, 229, 101, 187, 198, 183, 37, 62, 39, 220, 1, 229, 71, 213, 200, 183, 185, 114, 150, 189, 16, 76, 8, 60, 96, 155, 53, 62, 78, 124, 100, 243, 215, 147, 106, 188, 185, 114, 150, 189, 16, 76, 8, 60, 96, 155, 53, 62, 78, 124, 100, 243, 16, 232, 204, 192, 28, 118, 142, 189, 238, 21, 159, 59, 79, 247, 43, 62, 101, 187, 153, 238, 37, 223, 208, 186, 129, 171, 253, 189, 124, 229, 101, 187, 129, 171, 253, 61, 40, 222, 234, 208, 131, 187, 15, 176, 252, 157, 3, 190, 238, 21, 159, 59, 252, 157, 3, 62, 236, 189, 8, 225, 246, 203, 113, 181, 198, 183, 37, 190, 126, 229, 101, 187, 3, 73, 137, 61, 39, 220, 213, 190, 219, 169, 65, 169, 79, 247, 43, 190, 239, 21, 159, 59, 28, 118, 142, 61, 101, 187, 254, 213, 152, 190, 110, 177, 96, 155, 53, 190, 16, 76, 8, 60, 185, 114, 150, 189, 101, 115, 21, 247, 218, 7, 85, 172, 96, 155, 53, 190, 16, 76, 8, 60, 185, 114, 150, 189, 101, 115, 21, 247, 105, 195, 117, 195, 198, 183, 37, 190, 124, 229, 101, 187, 3, 73, 137, 189, 41, 193, 215, 163, 129, 152, 15, 157, 79, 247, 43, 190, 238, 21, 159, 59, 28, 118, 142, 189, 255, 169, 153, 196, 92, 175, 70, 172, 3, 73, 137, 189, 126, 229, 101, 187, 198, 183, 37, 190, 253, 154, 215, 163, 101, 161, 4, 157, 185, 114, 150, 189, 16, 76, 8, 60, 96, 155, 53, 190, 101, 115, 78, 252, 112, 8, 194, 136, 185, 114, 150, 189, 16, 76, 8, 60, 96, 155, 53, 190, 101, 115, 78, 252, 157, 183, 106, 195, 28, 118, 142, 189, 239, 21, 159, 59, 79, 247, 43, 190, 101, 145, 153, 196, 49, 170, 98, 172, 46, 144, 79, 62, 148, 96, 131, 187, 0, 0, 0, 128, 10, 250, 243, 133, 223, 130, 132, 162, 18, 48, 77, 62, 52, 70, 154, 59, 0, 0, 0, 128, 209, 198, 45, 185, 139, 158, 20, 173, 109, 195, 63, 62, 148, 96, 131, 187, 173, 220, 158, 189, 99, 251, 190, 168, 119, 150, 155, 162, 155, 145, 61, 62, 52, 70, 154, 59, 64, 11, 157, 189, 28, 207, 14, 200, 13, 179, 33, 171, 173, 220, 158, 189, 192, 96, 131, 187, 109, 195, 63, 190, 155, 4, 219, 219, 71, 155, 195, 135, 63, 11, 157, 189, 6, 70, 154, 59, 155, 145, 61, 190, 226, 48, 211, 232, 21, 67, 243, 129, 244, 196, 18, 190, 146, 96, 131, 187, 244, 196, 18, 190, 68, 4, 33, 194, 107, 136, 10, 128, 246, 254, 10, 190, 39, 76, 8, 60, 246, 254, 10, 190, 119, 114, 59, 249, 36, 7, 159, 155, 246, 254, 10, 190, 39, 76, 8, 60, 246, 254, 10, 190, 119, 114, 59, 249, 104, 189, 145, 195, 244, 22, 17, 190, 52, 70, 154, 59, 244, 22, 17, 190, 132, 46, 65, 215, 194, 59, 96, 143, 109, 195, 63, 190, 192, 96, 131, 187, 173, 220, 158, 189, 155, 4, 190, 168, 66, 119, 190, 135, 155, 145, 61, 190, 6, 70, 154, 59, 63, 11, 157, 189, 226, 48, 14, 200, 31, 64, 63, 153, 46, 144, 79, 190, 148, 96, 131, 187, 0, 0, 0, 128, 244, 5, 243, 133, 22, 123, 166, 141, 232, 145, 68, 190, 39, 76, 8, 60, 0, 0, 0, 128, 31, 118, 31, 246, 151, 27, 204, 187, 232, 145, 68, 190, 39, 76, 8, 60, 0, 0, 0, 128, 31, 118, 31, 246, 43, 202, 24, 195, 18, 48, 77, 190, 52, 70, 154, 59, 0, 0, 0, 128, 45, 57, 45, 185, 244, 78, 160, 161, 109, 195, 63, 190, 192, 96, 131, 187, 173, 220, 158, 61, 191, 40, 154, 132, 95, 136, 234, 147, 96, 155, 53, 190, 16, 76, 8, 60, 185, 114, 150, 61, 22, 119, 100, 243, 88, 63, 152, 188, 96, 155, 53, 190, 16, 76, 8, 60, 185, 114, 150, 61, 22, 119, 100, 243, 57, 210, 133, 194, 155, 145, 61, 190, 6, 70, 154, 59, 63, 11, 157, 61, 14, 72, 226, 176, 125, 97, 123, 164, 185, 114, 150, 61, 16, 76, 8, 60, 96, 155, 53, 62, 176, 131, 100, 243, 151, 209, 31, 189, 185, 114, 150, 61, 16, 76, 8, 60, 96, 155, 53, 62, 176, 131, 100, 243, 4, 253, 214, 185, 173, 220, 158, 61, 192, 96, 131, 187, 109, 195, 63, 62, 35, 164, 154, 132, 204, 196, 109, 153, 63, 11, 157, 61, 6, 70, 154, 59, 155, 145, 61, 62, 43, 151, 226, 176, 191, 195, 111, 168, 244, 196, 18, 62, 146, 96, 131, 187, 244, 196, 18, 62, 220, 189, 68, 132, 73, 201, 67, 147, 244, 196, 18, 62, 146, 96, 131, 187, 244, 196, 18, 62, 220, 189, 68, 132, 243, 86, 134, 170, 244, 22, 17, 62, 52, 70, 154, 59, 244, 22, 17, 62, 188, 168, 132, 174, 131, 202, 228, 161, 244, 22, 17, 62, 52, 70, 154, 59, 244, 22, 17, 62, 188, 168, 132, 174, 183, 108, 30, 171, 109, 195, 63, 62, 190, 96, 131, 187, 173, 220, 158, 61, 63, 215, 154, 132, 60, 106, 47, 168, 155, 145, 61, 62, 6, 70, 154, 59, 63, 11, 157, 61, 240, 183, 226, 176, 237, 130, 192, 170, 244, 196, 18, 62, 192, 96, 131, 187, 244, 196, 18, 190, 186, 251, 33, 194, 104, 161, 36, 159, 244, 22, 17, 62, 6, 70, 154, 59, 244, 22, 17, 190, 122, 209, 65, 215, 221, 195, 184, 164, 0, 0, 0, 0, 192, 96, 131, 187, 46, 144, 79, 190, 10, 250, 255, 255, 73, 163, 97, 143, 0, 0, 0, 0, 6, 70, 154, 59, 18, 48, 77, 190, 209, 198, 255, 255, 231, 199, 78, 141, 185, 114, 150, 61, 16, 76, 8, 60, 96, 155, 53, 190, 153, 140, 78, 252, 164, 249, 150, 161, 185, 114, 150, 61, 16, 76, 8, 60, 96, 155, 53, 190, 153, 140, 78, 252, 86, 170, 112, 194, 173, 220, 158, 61, 192, 96, 131, 187, 109, 195, 63, 190, 99, 251, 219, 219, 100, 165, 88, 152, 63, 11, 157, 61, 6, 70, 154, 59, 155, 145, 61, 190, 28, 207, 211, 232, 96, 203, 23, 153, 0, 0, 0, 0, 16, 76, 8, 60, 232, 145, 68, 62, 255, 127, 31, 246, 62, 183, 48, 189, 0, 0, 0, 0, 16, 76, 8, 60, 232, 145, 68, 62, 255, 127, 31, 246, 169, 246, 163, 191, 0, 0, 0, 0, 192, 96, 131, 187, 46, 144, 79, 62, 255, 127, 243, 133, 222, 184, 22, 158, 0, 0, 0, 0, 6, 70, 154, 59, 18, 48, 77, 62, 255, 127, 45, 185, 250, 177, 106, 170, 173, 220, 158, 189, 192, 96, 131, 187, 109, 195, 63, 62, 219, 91, 154, 132, 217, 168, 165, 158, 63, 11, 157, 189, 6, 70, 154, 59, 155, 145, 61, 62, 211, 104, 226, 176, 5, 155, 10, 168, 246, 254, 10, 190, 16, 76, 8, 60, 246, 254, 10, 62, 59, 121, 119, 242, 140, 97, 108, 188, 246, 254, 10, 190, 16, 76, 8, 60, 246, 254, 10, 62, 59, 121, 119, 242, 19, 220, 194, 193, 244, 196, 18, 190, 192, 96, 131, 187, 244, 196, 18, 62, 34, 66, 68, 132, 145, 152, 28, 155, 244, 22, 17, 190, 6, 70, 154, 59, 244, 22, 17, 62, 66, 87, 132, 174, 37, 124, 29, 162, 133, 118, 201, 61, 8, 115, 10, 190, 0, 0, 0, 128, 122, 177, 47, 231, 28, 81, 11, 184, 133, 118, 201, 189, 8, 115, 10, 190, 0, 0, 0, 128, 26, 197, 58, 211, 87, 213, 134, 177, 240, 243, 100, 61, 65, 3, 8, 190, 186, 171, 189, 60, 177, 48, 185, 201, 129, 127, 116, 197, 231, 145, 68, 62, 39, 76, 8, 60, 0, 0, 0, 128, 52, 48, 29, 199, 151, 135, 174, 191, 245, 254, 10, 62, 39, 76, 8, 60, 245, 254, 10, 62, 83, 39, 174, 229, 180, 250, 15, 181, 129, 171, 253, 61, 36, 229, 101, 187, 129, 171, 253, 61, 55, 42, 29, 228, 14, 220, 134, 226, 96, 155, 53, 190, 16, 76, 8, 60, 185, 114, 150, 61, 93, 210, 226, 201, 88, 63, 152, 188, 96, 155, 53, 190, 16, 76, 8, 60, 185, 114, 150, 61, 243, 210, 207, 232, 57, 210, 133, 194, 244, 196, 18, 62, 146, 96, 131, 187, 244, 196, 18, 62, 48, 39, 23, 219, 243, 86, 134, 170, 186, 171, 189, 60, 65, 3, 8, 190, 240, 243, 100, 61, 84, 198, 81, 240, 145, 244, 140, 197, 164, 59, 47, 61, 64, 3, 8, 190, 164, 59, 47, 61, 39, 54, 208, 242, 248, 238, 231, 203, 240, 243, 100, 61, 65, 3, 8, 190, 186, 171, 189, 60, 83, 85, 36, 212, 129, 127, 116, 197, 231, 145, 68, 62, 39, 76, 8, 60, 0, 0, 0, 128, 73, 56, 113, 170, 151, 135, 174, 191, 129, 171, 253, 61, 36, 229, 101, 187, 129, 171, 253, 61, 160, 46, 10, 190, 113, 94, 182, 209, 0, 0, 0, 0, 16, 76, 8, 60, 231, 145, 68, 190, 89, 81, 40, 247, 170, 248, 126, 144, 0, 0, 0, 0, 16, 76, 8, 60, 231, 145, 68, 190, 24, 125, 38, 186, 115, 177, 6, 195, 245, 254, 10, 62, 16, 76, 8, 60, 245, 254, 10, 190, 154, 69, 20, 176, 168, 161, 176, 193, 245, 254, 10, 62, 16, 76, 8, 60, 245, 254, 10, 190, 176, 107, 240, 169, 168, 161, 176, 193, 185, 114, 150, 189, 16, 76, 8, 60, 96, 155, 53, 62, 137, 202, 190, 251, 16, 232, 204, 192, 173, 220, 158, 189, 192, 96, 131, 187, 109, 195, 63, 190, 39, 60, 120, 237, 71, 155, 195, 135, 246, 254, 10, 190, 39, 76, 8, 60, 246, 254, 10, 190, 144, 109, 201, 254, 36, 7, 159, 155, 246, 254, 10, 190, 39, 76, 8, 60, 246, 254, 10, 190, 70, 191, 72, 169, 104, 189, 145, 195, 246, 254, 10, 190, 39, 76, 8, 60, 246, 254, 10, 190, 8, 144, 209, 176, 104, 189, 145, 195, 109, 195, 63, 190, 192, 96, 131, 187, 173, 220, 158, 189, 134, 112, 171, 253, 66, 119, 190, 135, 96, 155, 53, 190, 16, 76, 8, 60, 185, 114, 150, 61, 165, 170, 29, 212, 88, 63, 152, 188, 96, 155, 53, 190, 16, 76, 8, 60, 185, 114, 150, 61, 125, 210, 171, 197, 57, 210, 133, 194, 185, 114, 150, 61, 16, 76, 8, 60, 96, 155, 53, 62, 147, 129, 223, 218, 151, 209, 31, 189, 185, 114, 150, 61, 16, 76, 8, 60, 96, 155, 53, 62, 144, 48, 63, 235, 4, 253, 214, 185, 0, 0, 0, 0, 192, 96, 131, 187, 46, 144, 79, 62, 57, 129, 118, 209, 222, 184, 22, 158, 186, 171, 189, 60, 65, 3, 8, 190, 240, 243, 100, 61, 24, 176, 121, 239, 145, 244, 140, 197, 186, 171, 189, 60, 65, 3, 8, 190, 240, 243, 100, 61, 130, 116, 39, 205, 145, 244, 140, 197, 164, 59, 47, 61, 64, 3, 8, 190, 164, 59, 47, 61, 60, 62, 244, 239, 248, 238, 231, 203, 240, 243, 100, 61, 65, 3, 8, 190, 186, 171, 189, 60, 126, 82, 114, 215, 129, 127, 116, 197, 129, 171, 253, 61, 36, 229, 101, 187, 129, 171, 253, 61, 179, 44, 92, 232, 14, 220, 134, 226, 129, 171, 253, 189, 36, 229, 101, 187, 129, 171, 253, 189, 106, 178, 65, 172, 159, 154, 194, 154, 129, 171, 253, 189, 36, 229, 101, 187, 129, 171, 253, 189, 31, 149, 210, 173, 159, 154, 194, 154, 129, 171, 253, 61, 126, 229, 101, 187, 129, 171, 253, 189, 113, 79, 229, 169, 25, 165, 88, 176, 3, 73, 137, 189, 124, 229, 101, 187, 198, 183, 37, 62, 125, 206, 35, 245, 71, 213, 200, 183, 198, 183, 37, 190, 126, 229, 101, 187, 3, 73, 137, 61, 97, 209, 116, 196, 219, 169, 65, 169, 96, 155, 53, 190, 16, 76, 8, 60, 185, 114, 150, 189, 106, 192, 97, 183, 105, 195, 117, 195, 185, 114, 150, 189, 16, 76, 8, 60, 96, 155, 53, 190, 12, 158, 21, 164, 157, 183, 106, 195, 232, 145, 68, 190, 39, 76, 8, 60, 0, 0, 0, 128, 83, 198, 16, 190, 43, 202, 24, 195, 185, 114, 150, 61, 16, 76, 8, 60, 96, 155, 53, 190, 198, 103, 29, 166, 86, 170, 112, 194, 0, 0, 0, 0, 16, 76, 8, 60, 232, 145, 68, 62, 20, 44, 137, 253, 169, 246, 163, 191, 246, 254, 10, 190, 16, 76, 8, 60, 246, 254, 10, 62, 6, 221, 158, 207, 19, 220, 194, 193, 186, 242, 221, 61, 36, 66, 184, 189, 202, 242, 221, 61, 68, 59, 235, 183, 2, 99, 172, 208, 240, 243, 100, 61, 64, 3, 8, 190, 186, 171, 189, 188, 182, 78, 15, 177, 158, 150, 205, 189, 186, 171, 189, 188, 65, 3, 8, 190, 240, 243, 100, 189, 164, 128, 224, 188, 40, 174, 156, 182, 240, 243, 100, 189, 65, 3, 8, 190, 186, 171, 189, 188, 255, 159, 18, 181, 72, 187, 215, 182, 24, 209, 119, 189, 64, 3, 8, 190, 184, 179, 220, 175, 49, 181, 246, 190, 40, 195, 177, 183, 240, 243, 100, 189, 65, 3, 8, 190, 186, 171, 189, 60, 8, 196, 125, 192, 139, 204, 7, 185, 164, 59, 47, 61, 64, 3, 8, 190, 164, 59, 47, 61, 255, 51, 110, 241, 248, 238, 231, 203, 36, 238, 43, 48, 65, 3, 8, 190, 24, 209, 119, 189, 120, 117, 40, 184, 111, 168, 81, 183, 36, 238, 43, 48, 65, 3, 8, 190, 24, 209, 119, 61, 45, 197, 232, 230, 82, 243, 64, 193, 186, 171, 189, 188, 65, 3, 8, 190, 240, 243, 100, 61, 229, 198, 219, 217, 54, 230, 140, 189, 96, 155, 53, 62, 39, 76, 8, 60, 185, 114, 150, 189, 129, 178, 56, 216, 56, 216, 34, 189, 245, 254, 10, 62, 39, 76, 8, 60, 245, 254, 10, 62, 77, 145, 174, 208, 48, 225, 108, 188, 245, 254, 10, 62, 39, 76, 8, 60, 245, 254, 10, 62, 29, 149, 171, 214, 232, 130, 108, 188, 129, 171, 253, 189, 36, 229, 101, 187, 129, 171, 253, 189, 117, 177, 189, 172, 159, 154, 194, 154, 129, 171, 253, 61, 126, 229, 101, 187, 129, 171, 253, 189, 229, 69, 237, 172, 25, 165, 88, 176, 96, 155, 53, 62, 16, 76, 8, 60, 185, 114, 150, 61, 219, 155, 59, 209, 28, 153, 118, 189, 185, 114, 150, 189, 16, 76, 8, 60, 96, 155, 53, 62, 239, 111, 219, 209, 215, 147, 106, 188, 198, 183, 37, 190, 126, 229, 101, 187, 3, 73, 137, 61, 74, 210, 118, 204, 219, 169, 65, 169, 96, 155, 53, 190, 16, 76, 8, 60, 185, 114, 150, 189, 31, 75, 82, 222, 218, 7, 85, 172, 185, 114, 150, 189, 16, 76, 8, 60, 96, 155, 53, 190, 235, 76, 230, 242, 112, 8, 194, 136, 185, 114, 150, 189, 16, 76, 8, 60, 96, 155, 53, 190, 207, 150, 117, 165, 157, 183, 106, 195, 46, 144, 79, 62, 148, 96, 131, 187, 0, 0, 0, 128, 30, 209, 105, 185, 223, 130, 132, 162, 155, 145, 61, 62, 52, 70, 154, 59, 64, 11, 157, 189, 54, 189, 80, 209, 13, 179, 33, 171, 63, 11, 157, 189, 6, 70, 154, 59, 155, 145, 61, 190, 190, 66, 232, 239, 21, 67, 243, 129, 244, 196, 18, 190, 146, 96, 131, 187, 244, 196, 18, 190, 32, 46, 35, 208, 107, 136, 10, 128, 246, 254, 10, 190, 39, 76, 8, 60, 246, 254, 10, 190, 3, 81, 149, 241, 36, 7, 159, 155, 155, 145, 61, 190, 6, 70, 154, 59, 63, 11, 157, 189, 130, 56, 60, 209, 31, 64, 63, 153, 46, 144, 79, 190, 148, 96, 131, 187, 0, 0, 0, 128, 209, 58, 164, 174, 22, 123, 166, 141, 232, 145, 68, 190, 39, 76, 8, 60, 0, 0, 0, 128, 2, 85, 193, 224, 151, 27, 204, 187, 96, 155, 53, 190, 16, 76, 8, 60, 185, 114, 150, 61, 30, 86, 131, 202, 88, 63, 152, 188, 155, 145, 61, 190, 6, 70, 154, 59, 63, 11, 157, 61, 105, 83, 67, 197, 125, 97, 123, 164, 185, 114, 150, 61, 16, 76, 8, 60, 96, 155, 53, 62, 14, 140, 72, 209, 151, 209, 31, 189, 63, 11, 157, 61, 6, 70, 154, 59, 155, 145, 61, 62, 217, 146, 186, 193, 191, 195, 111, 168, 244, 22, 17, 62, 52, 70, 154, 59, 244, 22, 17, 62, 59, 163, 214, 191, 183, 108, 30, 171, 155, 145, 61, 62, 6, 70, 154, 59, 63, 11, 157, 61, 93, 167, 80, 196, 237, 130, 192, 170, 244, 196, 18, 62, 192, 96, 131, 187, 244, 196, 18, 190, 181, 211, 170, 221, 104, 161, 36, 159, 0, 0, 0, 0, 192, 96, 131, 187, 46, 144, 79, 190, 22, 56, 102, 255, 73, 163, 97, 143, 185, 114, 150, 61, 16, 76, 8, 60, 96, 155, 53, 190, 118, 178, 183, 238, 164, 249, 150, 161, 63, 11, 157, 61, 6, 70, 154, 59, 155, 145, 61, 190, 125, 192, 97, 234, 96, 203, 23, 153, 0, 0, 0, 0, 192, 96, 131, 187, 46, 144, 79, 62, 201, 141, 155, 181, 222, 184, 22, 158, 63, 11, 157, 189, 6, 70, 154, 59, 155, 145, 61, 62, 215, 107, 73, 195, 5, 155, 10, 168, 246, 254, 10, 190, 16, 76, 8, 60, 246, 254, 10, 62, 174, 219, 47, 209, 19, 220, 194, 193, 244, 196, 18, 190, 192, 96, 131, 187, 244, 196, 18, 62, 197, 97, 143, 180, 145, 152, 28, 155)
}]
blend_shape_mode = 0
shadow_mesh = SubResource("ArrayMesh_o5ihg")

[sub_resource type="CylinderShape3D" id="CylinderShape3D_6sfln"]
height = 0.211404
radius = 0.214989

[node name="PropSet_4_Bowl" type="RigidBody3D"]

[node name="PropSet_4_Bowl" type="MeshInstance3D" parent="."]
mesh = SubResource("ArrayMesh_tomvy")
skeleton = NodePath("")

[node name="CollisionShape3D" type="CollisionShape3D" parent="."]
transform = Transform3D(1, 0, 0, 0, 1, 0, 0, 0, 1, 0, -0.0426654, 0)
shape = SubResource("CylinderShape3D_6sfln")
