[gd_scene load_steps=6 format=3 uid="uid://dyabpsmrb0l4m"]

[ext_resource type="Material" uid="uid://di5arbf86nadj" path="res://Assets/ModularDungeonAsset/DungeonTiles/material/PropSet_4_Mat.tres" id="1_r6wk1"]

[sub_resource type="ArrayMesh" id="ArrayMesh_3vmo0"]
_surfaces = [{
"aabb": AABB(-0.406071, -0.0226552, -0.0598398, 0.496575, 0.0698777, 0.11968),
"format": 4097,
"index_count": 486,
"index_data": PackedByteArray(32, 0, 16, 0, 17, 0, 32, 0, 33, 0, 16, 0, 33, 0, 19, 0, 16, 0, 33, 0, 34, 0, 19, 0, 34, 0, 21, 0, 19, 0, 34, 0, 35, 0, 21, 0, 35, 0, 23, 0, 21, 0, 35, 0, 36, 0, 23, 0, 36, 0, 25, 0, 23, 0, 36, 0, 37, 0, 25, 0, 37, 0, 27, 0, 25, 0, 37, 0, 38, 0, 27, 0, 38, 0, 29, 0, 27, 0, 38, 0, 39, 0, 29, 0, 39, 0, 10, 0, 29, 0, 39, 0, 40, 0, 10, 0, 4, 0, 80, 0, 81, 0, 74, 0, 4, 0, 81, 0, 11, 0, 64, 0, 51, 0, 11, 0, 28, 0, 64, 0, 41, 0, 14, 0, 31, 0, 41, 0, 15, 0, 14, 0, 48, 0, 16, 0, 47, 0, 48, 0, 17, 0, 16, 0, 30, 0, 15, 0, 41, 0, 30, 0, 18, 0, 15, 0, 47, 0, 19, 0, 46, 0, 47, 0, 16, 0, 19, 0, 13, 0, 18, 0, 30, 0, 13, 0, 20, 0, 18, 0, 46, 0, 21, 0, 45, 0, 46, 0, 19, 0, 21, 0, 12, 0, 20, 0, 13, 0, 12, 0, 22, 0, 20, 0, 45, 0, 23, 0, 44, 0, 45, 0, 21, 0, 23, 0, 9, 0, 22, 0, 12, 0, 9, 0, 24, 0, 22, 0, 44, 0, 25, 0, 43, 0, 44, 0, 23, 0, 25, 0, 8, 0, 24, 0, 9, 0, 8, 0, 26, 0, 24, 0, 43, 0, 27, 0, 42, 0, 43, 0, 25, 0, 27, 0, 74, 0, 26, 0, 8, 0, 74, 0, 28, 0, 26, 0, 42, 0, 29, 0, 7, 0, 42, 0, 27, 0, 29, 0, 82, 0, 29, 0, 65, 0, 82, 0, 7, 0, 29, 0, 73, 0, 10, 0, 40, 0, 73, 0, 50, 0, 10, 0, 65, 0, 10, 0, 50, 0, 65, 0, 29, 0, 10, 0, 28, 0, 40, 0, 39, 0, 28, 0, 11, 0, 40, 0, 26, 0, 39, 0, 38, 0, 26, 0, 28, 0, 39, 0, 24, 0, 38, 0, 37, 0, 24, 0, 26, 0, 38, 0, 22, 0, 37, 0, 36, 0, 22, 0, 24, 0, 37, 0, 20, 0, 36, 0, 35, 0, 20, 0, 22, 0, 36, 0, 18, 0, 35, 0, 34, 0, 18, 0, 20, 0, 35, 0, 15, 0, 34, 0, 33, 0, 15, 0, 18, 0, 34, 0, 14, 0, 33, 0, 32, 0, 14, 0, 15, 0, 33, 0, 49, 0, 46, 0, 45, 0, 32, 0, 53, 0, 66, 0, 32, 0, 17, 0, 53, 0, 66, 0, 55, 0, 67, 0, 66, 0, 53, 0, 55, 0, 67, 0, 57, 0, 68, 0, 67, 0, 55, 0, 57, 0, 68, 0, 59, 0, 69, 0, 68, 0, 57, 0, 59, 0, 69, 0, 61, 0, 70, 0, 69, 0, 59, 0, 61, 0, 70, 0, 63, 0, 71, 0, 70, 0, 61, 0, 63, 0, 71, 0, 65, 0, 72, 0, 71, 0, 63, 0, 65, 0, 72, 0, 50, 0, 73, 0, 72, 0, 65, 0, 50, 0, 4, 0, 79, 0, 80, 0, 4, 0, 76, 0, 77, 0, 4, 0, 75, 0, 76, 0, 75, 0, 14, 0, 52, 0, 75, 0, 31, 0, 14, 0, 48, 0, 53, 0, 17, 0, 48, 0, 6, 0, 53, 0, 76, 0, 52, 0, 54, 0, 76, 0, 75, 0, 52, 0, 6, 0, 55, 0, 53, 0, 6, 0, 5, 0, 55, 0, 77, 0, 54, 0, 56, 0, 77, 0, 76, 0, 54, 0, 5, 0, 57, 0, 55, 0, 5, 0, 3, 0, 57, 0, 78, 0, 56, 0, 58, 0, 78, 0, 77, 0, 56, 0, 3, 0, 59, 0, 57, 0, 3, 0, 2, 0, 59, 0, 79, 0, 58, 0, 60, 0, 79, 0, 78, 0, 58, 0, 2, 0, 61, 0, 59, 0, 2, 0, 1, 0, 61, 0, 80, 0, 60, 0, 62, 0, 80, 0, 79, 0, 60, 0, 1, 0, 63, 0, 61, 0, 1, 0, 0, 0, 63, 0, 81, 0, 62, 0, 64, 0, 81, 0, 80, 0, 62, 0, 0, 0, 65, 0, 63, 0, 0, 0, 82, 0, 65, 0, 4, 0, 77, 0, 78, 0, 4, 0, 78, 0, 79, 0, 4, 0, 31, 0, 75, 0, 64, 0, 73, 0, 51, 0, 64, 0, 72, 0, 73, 0, 62, 0, 72, 0, 64, 0, 62, 0, 71, 0, 72, 0, 60, 0, 71, 0, 62, 0, 60, 0, 70, 0, 71, 0, 58, 0, 70, 0, 60, 0, 58, 0, 69, 0, 70, 0, 56, 0, 69, 0, 58, 0, 56, 0, 68, 0, 69, 0, 54, 0, 68, 0, 56, 0, 54, 0, 67, 0, 68, 0, 52, 0, 67, 0, 54, 0, 52, 0, 66, 0, 67, 0, 14, 0, 66, 0, 52, 0, 14, 0, 32, 0, 66, 0, 51, 0, 40, 0, 11, 0, 51, 0, 73, 0, 40, 0, 4, 0, 74, 0, 8, 0, 4, 0, 8, 0, 9, 0, 4, 0, 9, 0, 12, 0, 4, 0, 12, 0, 13, 0, 4, 0, 13, 0, 30, 0, 4, 0, 30, 0, 41, 0, 4, 0, 41, 0, 31, 0, 28, 0, 81, 0, 64, 0, 28, 0, 74, 0, 81, 0, 49, 0, 45, 0, 44, 0, 49, 0, 44, 0, 43, 0, 49, 0, 43, 0, 42, 0, 49, 0, 42, 0, 7, 0, 49, 0, 7, 0, 82, 0, 49, 0, 6, 0, 48, 0, 49, 0, 5, 0, 6, 0, 49, 0, 3, 0, 5, 0, 49, 0, 2, 0, 3, 0, 49, 0, 1, 0, 2, 0, 49, 0, 0, 0, 1, 0, 49, 0, 82, 0, 0, 0, 49, 0, 47, 0, 46, 0, 49, 0, 48, 0, 47, 0),
"lods": [0.0159665, PackedByteArray(32, 0, 33, 0, 16, 0, 32, 0, 16, 0, 66, 0, 33, 0, 19, 0, 16, 0, 66, 0, 16, 0, 55, 0, 33, 0, 34, 0, 19, 0, 66, 0, 55, 0, 67, 0, 34, 0, 21, 0, 19, 0, 67, 0, 55, 0, 57, 0, 34, 0, 35, 0, 21, 0, 67, 0, 57, 0, 68, 0, 35, 0, 23, 0, 21, 0, 68, 0, 57, 0, 59, 0, 35, 0, 36, 0, 23, 0, 68, 0, 59, 0, 69, 0, 36, 0, 25, 0, 23, 0, 69, 0, 59, 0, 61, 0, 36, 0, 37, 0, 25, 0, 69, 0, 61, 0, 70, 0, 37, 0, 27, 0, 25, 0, 70, 0, 61, 0, 63, 0, 37, 0, 38, 0, 27, 0, 70, 0, 63, 0, 71, 0, 38, 0, 29, 0, 27, 0, 71, 0, 63, 0, 65, 0, 38, 0, 39, 0, 29, 0, 39, 0, 10, 0, 29, 0, 39, 0, 40, 0, 10, 0, 71, 0, 65, 0, 72, 0, 72, 0, 65, 0, 50, 0, 72, 0, 50, 0, 73, 0, 28, 0, 52, 0, 64, 0, 28, 0, 11, 0, 40, 0, 28, 0, 40, 0, 39, 0, 28, 0, 39, 0, 38, 0, 28, 0, 38, 0, 37, 0, 11, 0, 28, 0, 64, 0, 11, 0, 64, 0, 51, 0, 35, 0, 28, 0, 37, 0, 35, 0, 37, 0, 36, 0, 52, 0, 28, 0, 35, 0, 64, 0, 73, 0, 51, 0, 64, 0, 72, 0, 73, 0, 64, 0, 71, 0, 72, 0, 64, 0, 70, 0, 71, 0, 68, 0, 70, 0, 64, 0, 68, 0, 69, 0, 70, 0, 52, 0, 68, 0, 64, 0, 52, 0, 67, 0, 68, 0, 52, 0, 66, 0, 67, 0, 15, 0, 66, 0, 52, 0, 35, 0, 15, 0, 52, 0, 15, 0, 32, 0, 66, 0, 15, 0, 35, 0, 34, 0, 15, 0, 33, 0, 32, 0, 15, 0, 34, 0, 33, 0, 19, 0, 23, 0, 25, 0, 19, 0, 21, 0, 23, 0, 27, 0, 19, 0, 25, 0, 27, 0, 16, 0, 19, 0, 16, 0, 57, 0, 55, 0, 16, 0, 59, 0, 57, 0, 16, 0, 61, 0, 59, 0, 27, 0, 61, 0, 16, 0, 27, 0, 63, 0, 61, 0, 63, 0, 27, 0, 65, 0, 27, 0, 29, 0, 65, 0, 65, 0, 29, 0, 10, 0, 65, 0, 10, 0, 50, 0, 73, 0, 10, 0, 40, 0, 73, 0, 50, 0, 10, 0, 51, 0, 40, 0, 11, 0, 51, 0, 73, 0, 40, 0), 0.0176327, PackedByteArray(32, 0, 19, 0, 16, 0, 32, 0, 16, 0, 55, 0, 32, 0, 34, 0, 19, 0, 32, 0, 55, 0, 68, 0, 34, 0, 36, 0, 19, 0, 68, 0, 55, 0, 72, 0, 36, 0, 25, 0, 19, 0, 72, 0, 55, 0, 65, 0, 72, 0, 65, 0, 50, 0, 72, 0, 50, 0, 73, 0, 36, 0, 27, 0, 25, 0, 36, 0, 39, 0, 27, 0, 39, 0, 10, 0, 27, 0, 39, 0, 40, 0, 10, 0, 11, 0, 64, 0, 51, 0, 11, 0, 28, 0, 64, 0, 28, 0, 11, 0, 40, 0, 28, 0, 40, 0, 39, 0, 28, 0, 39, 0, 36, 0, 28, 0, 36, 0, 34, 0, 64, 0, 28, 0, 34, 0, 64, 0, 34, 0, 68, 0, 34, 0, 32, 0, 68, 0, 68, 0, 72, 0, 64, 0, 64, 0, 72, 0, 73, 0, 64, 0, 73, 0, 51, 0, 73, 0, 10, 0, 40, 0, 73, 0, 50, 0, 10, 0, 65, 0, 10, 0, 50, 0, 65, 0, 27, 0, 10, 0, 27, 0, 65, 0, 55, 0, 27, 0, 55, 0, 16, 0, 27, 0, 16, 0, 19, 0, 27, 0, 19, 0, 25, 0, 51, 0, 40, 0, 11, 0, 51, 0, 73, 0, 40, 0), 0.0519026, PackedByteArray(34, 0, 10, 0, 19, 0, 34, 0, 19, 0, 68, 0, 34, 0, 40, 0, 10, 0, 11, 0, 64, 0, 51, 0, 11, 0, 28, 0, 64, 0, 64, 0, 73, 0, 51, 0, 64, 0, 68, 0, 73, 0, 28, 0, 68, 0, 64, 0, 28, 0, 34, 0, 68, 0, 28, 0, 40, 0, 34, 0, 28, 0, 11, 0, 40, 0, 73, 0, 10, 0, 40, 0, 73, 0, 50, 0, 10, 0, 19, 0, 10, 0, 50, 0, 68, 0, 50, 0, 73, 0, 68, 0, 19, 0, 50, 0, 51, 0, 40, 0, 11, 0, 51, 0, 73, 0, 40, 0)],
"name": "PropSet_4_Mat",
"primitive": 3,
"vertex_count": 83,
"vertex_data": PackedByteArray(231, 20, 58, 189, 76, 229, 34, 187, 184, 125, 183, 188, 106, 15, 204, 188, 76, 229, 34, 187, 96, 78, 3, 189, 233, 105, 16, 52, 76, 229, 34, 187, 93, 206, 26, 189, 252, 15, 204, 60, 76, 229, 34, 187, 221, 78, 24, 189, 22, 1, 35, 59, 111, 151, 185, 188, 6, 230, 180, 51, 48, 21, 58, 61, 76, 229, 34, 187, 63, 47, 226, 188, 252, 62, 110, 61, 76, 229, 34, 187, 40, 178, 94, 188, 180, 62, 110, 189, 76, 229, 34, 187, 58, 218, 51, 60, 231, 20, 58, 189, 143, 225, 105, 188, 218, 125, 183, 60, 106, 15, 204, 188, 143, 225, 105, 188, 107, 78, 3, 61, 99, 2, 207, 190, 98, 108, 65, 61, 51, 69, 1, 60, 99, 2, 207, 190, 84, 34, 17, 61, 51, 69, 1, 60, 190, 106, 16, 52, 143, 225, 105, 188, 122, 139, 26, 61, 252, 15, 204, 60, 143, 225, 105, 188, 134, 208, 23, 61, 168, 86, 178, 61, 60, 40, 193, 187, 181, 151, 138, 51, 106, 195, 164, 61, 60, 40, 193, 187, 232, 147, 168, 60, 106, 195, 164, 61, 60, 40, 193, 59, 180, 194, 167, 60, 168, 86, 178, 61, 60, 40, 193, 59, 227, 109, 140, 51, 126, 53, 124, 61, 60, 40, 193, 187, 208, 75, 45, 61, 126, 53, 124, 61, 60, 40, 193, 59, 172, 2, 45, 61, 174, 126, 8, 61, 60, 40, 193, 187, 137, 17, 103, 61, 174, 126, 8, 61, 60, 40, 193, 59, 226, 11, 103, 61, 0, 0, 64, 52, 60, 40, 193, 187, 139, 232, 101, 61, 0, 0, 64, 52, 60, 40, 193, 59, 39, 229, 101, 61, 78, 126, 8, 189, 60, 40, 193, 187, 72, 39, 67, 61, 78, 126, 8, 189, 60, 40, 193, 59, 72, 39, 67, 61, 28, 53, 124, 189, 60, 40, 193, 187, 66, 97, 8, 61, 28, 53, 124, 189, 60, 40, 193, 59, 179, 39, 8, 61, 57, 195, 164, 189, 60, 40, 193, 187, 212, 71, 138, 60, 57, 195, 164, 189, 60, 40, 193, 59, 31, 34, 138, 60, 48, 21, 58, 61, 143, 225, 105, 188, 108, 63, 225, 60, 225, 189, 126, 61, 143, 225, 105, 188, 190, 102, 80, 51, 97, 90, 185, 61, 0, 0, 0, 0, 178, 170, 141, 51, 156, 234, 170, 61, 0, 0, 0, 0, 4, 186, 179, 60, 72, 77, 130, 61, 0, 0, 0, 0, 106, 247, 56, 61, 132, 156, 12, 61, 0, 0, 0, 0, 174, 26, 117, 61, 43, 142, 63, 52, 0, 0, 0, 0, 191, 2, 116, 61, 36, 156, 12, 189, 0, 0, 0, 0, 16, 253, 79, 61, 24, 77, 130, 189, 0, 0, 0, 0, 104, 144, 17, 61, 42, 125, 168, 189, 0, 0, 0, 0, 40, 183, 171, 60, 124, 232, 207, 190, 91, 71, 41, 61, 115, 28, 20, 60, 252, 62, 110, 61, 143, 225, 105, 188, 192, 55, 94, 60, 231, 20, 58, 189, 76, 229, 34, 187, 218, 125, 183, 60, 106, 15, 204, 188, 76, 229, 34, 187, 107, 78, 3, 61, 233, 105, 16, 52, 76, 229, 34, 187, 101, 206, 26, 61, 252, 15, 204, 60, 76, 229, 34, 187, 233, 78, 24, 61, 48, 21, 58, 61, 76, 229, 34, 187, 104, 47, 226, 60, 252, 62, 110, 61, 76, 229, 34, 187, 142, 178, 94, 60, 225, 189, 126, 61, 72, 229, 34, 187, 18, 207, 82, 51, 198, 255, 34, 59, 194, 6, 50, 188, 226, 207, 100, 50, 99, 2, 207, 190, 98, 108, 65, 61, 51, 69, 1, 188, 99, 2, 207, 190, 84, 34, 17, 61, 51, 69, 1, 188, 106, 195, 164, 61, 60, 40, 193, 187, 162, 147, 168, 188, 106, 195, 164, 61, 60, 40, 193, 59, 109, 194, 167, 188, 126, 53, 124, 61, 60, 40, 193, 187, 180, 75, 45, 189, 126, 53, 124, 61, 60, 40, 193, 59, 144, 2, 45, 189, 174, 126, 8, 61, 60, 40, 193, 187, 124, 17, 103, 189, 174, 126, 8, 61, 60, 40, 193, 59, 206, 11, 103, 189, 0, 0, 64, 52, 60, 40, 193, 187, 133, 232, 101, 189, 0, 0, 64, 52, 60, 40, 193, 59, 29, 229, 101, 189, 78, 126, 8, 189, 60, 40, 193, 187, 61, 39, 67, 189, 78, 126, 8, 189, 60, 40, 193, 59, 61, 39, 67, 189, 28, 53, 124, 189, 60, 40, 193, 187, 43, 97, 8, 189, 28, 53, 124, 189, 60, 40, 193, 59, 156, 39, 8, 189, 57, 195, 164, 189, 60, 40, 193, 187, 154, 71, 138, 188, 57, 195, 164, 189, 60, 40, 193, 59, 229, 33, 138, 188, 156, 234, 170, 61, 0, 0, 0, 0, 194, 185, 179, 188, 72, 77, 130, 61, 0, 0, 0, 0, 75, 247, 56, 189, 132, 156, 12, 61, 0, 0, 0, 0, 157, 26, 117, 189, 43, 142, 63, 52, 0, 0, 0, 0, 183, 2, 116, 189, 36, 156, 12, 189, 0, 0, 0, 0, 1, 253, 79, 189, 24, 77, 130, 189, 0, 0, 0, 0, 80, 144, 17, 189, 42, 125, 168, 189, 0, 0, 0, 0, 237, 182, 171, 188, 124, 232, 207, 190, 91, 71, 41, 61, 115, 28, 20, 188, 180, 62, 110, 189, 143, 225, 105, 188, 59, 218, 51, 60, 252, 62, 110, 61, 143, 225, 105, 188, 79, 55, 94, 188, 48, 21, 58, 61, 143, 225, 105, 188, 68, 63, 225, 188, 252, 15, 204, 60, 143, 225, 105, 188, 121, 208, 23, 189, 190, 106, 16, 52, 143, 225, 105, 188, 115, 139, 26, 189, 106, 15, 204, 188, 143, 225, 105, 188, 96, 78, 3, 189, 231, 20, 58, 189, 143, 225, 105, 188, 184, 125, 183, 188, 180, 62, 110, 189, 143, 225, 105, 188, 225, 217, 51, 188, 180, 62, 110, 189, 76, 229, 34, 187, 224, 217, 51, 188)
}]
blend_shape_mode = 0

[sub_resource type="ArrayMesh" id="ArrayMesh_0mo8y"]
resource_name = "ModularDungeonTiles_Props_PropSet_4_Spoon"
_surfaces = [{
"aabb": AABB(-0.406071, -0.0226552, -0.0598398, 0.496575, 0.0698777, 0.11968),
"attribute_data": PackedByteArray(86, 198, 41, 63, 250, 45, 48, 63, 10, 87, 37, 63, 183, 115, 50, 63, 225, 6, 32, 63, 246, 211, 51, 63, 89, 208, 26, 63, 104, 215, 51, 63, 34, 69, 31, 63, 150, 228, 14, 63, 152, 124, 22, 63, 24, 1, 50, 63, 47, 185, 19, 63, 167, 51, 47, 63, 78, 87, 44, 63, 32, 133, 40, 63, 68, 98, 41, 63, 68, 99, 20, 63, 39, 194, 36, 63, 16, 55, 22, 63, 212, 6, 115, 63, 135, 141, 37, 63, 212, 6, 115, 63, 135, 141, 37, 63, 212, 6, 115, 63, 135, 141, 37, 63, 56, 202, 115, 63, 124, 228, 20, 63, 56, 202, 115, 63, 124, 228, 20, 63, 56, 202, 115, 63, 124, 228, 20, 63, 51, 78, 31, 63, 58, 13, 23, 63, 223, 17, 26, 63, 24, 134, 22, 63, 65, 84, 13, 63, 144, 1, 14, 63, 180, 99, 14, 63, 171, 97, 18, 63, 193, 106, 14, 63, 182, 87, 40, 63, 193, 106, 14, 63, 182, 87, 40, 63, 237, 86, 13, 63, 68, 179, 44, 63, 237, 86, 13, 63, 68, 179, 44, 63, 12, 12, 18, 63, 206, 82, 23, 63, 11, 11, 18, 63, 180, 106, 35, 63, 11, 11, 18, 63, 180, 106, 35, 63, 183, 213, 23, 63, 12, 202, 26, 63, 44, 195, 23, 63, 104, 1, 32, 63, 44, 195, 23, 63, 104, 1, 32, 63, 23, 1, 31, 63, 2, 111, 27, 63, 6, 214, 30, 63, 152, 83, 31, 63, 6, 214, 30, 63, 152, 83, 31, 63, 174, 125, 38, 63, 158, 38, 26, 63, 77, 65, 38, 63, 28, 131, 32, 63, 77, 65, 38, 63, 28, 131, 32, 63, 85, 255, 44, 63, 254, 102, 23, 63, 169, 201, 44, 63, 166, 31, 35, 63, 169, 201, 44, 63, 166, 31, 35, 63, 107, 212, 49, 63, 198, 8, 20, 63, 63, 235, 49, 63, 88, 82, 38, 63, 63, 235, 49, 63, 88, 82, 38, 63, 25, 233, 21, 63, 41, 58, 20, 63, 128, 191, 18, 63, 20, 70, 14, 63, 99, 218, 11, 63, 234, 238, 13, 63, 124, 218, 11, 63, 68, 199, 44, 63, 59, 250, 12, 63, 124, 240, 18, 63, 240, 252, 12, 63, 23, 188, 39, 63, 174, 1, 17, 63, 32, 130, 24, 63, 153, 13, 17, 63, 240, 62, 34, 63, 92, 65, 23, 63, 182, 152, 30, 63, 214, 82, 23, 63, 188, 56, 28, 63, 90, 198, 30, 63, 44, 205, 29, 63, 180, 244, 30, 63, 158, 250, 28, 63, 4, 161, 38, 63, 162, 5, 31, 63, 196, 228, 38, 63, 153, 166, 27, 63, 148, 139, 45, 63, 147, 206, 33, 63, 96, 207, 45, 63, 156, 174, 24, 63, 66, 97, 50, 63, 178, 131, 36, 63, 41, 125, 50, 63, 139, 180, 21, 63, 28, 148, 116, 63, 134, 75, 36, 63, 28, 148, 116, 63, 134, 75, 36, 63, 156, 19, 117, 63, 18, 10, 22, 63, 156, 19, 117, 63, 18, 10, 22, 63, 154, 110, 19, 63, 206, 38, 17, 63, 150, 63, 41, 63, 57, 52, 38, 63, 230, 151, 36, 63, 58, 112, 36, 63, 26, 43, 31, 63, 168, 164, 35, 63, 124, 252, 25, 63, 228, 46, 36, 63, 207, 224, 21, 63, 48, 119, 38, 63, 221, 108, 19, 63, 238, 138, 41, 63, 35, 192, 18, 63, 98, 106, 44, 63, 238, 46, 31, 63, 157, 194, 43, 63, 88, 85, 115, 63, 198, 75, 40, 63, 88, 85, 115, 63, 198, 75, 40, 63, 88, 85, 115, 63, 198, 75, 40, 63, 241, 193, 115, 63, 14, 240, 17, 63, 241, 193, 115, 63, 14, 240, 17, 63, 241, 193, 115, 63, 14, 240, 17, 63, 184, 208, 14, 63, 151, 193, 9, 63, 59, 222, 14, 63, 212, 235, 48, 63, 59, 222, 14, 63, 212, 235, 48, 63, 78, 241, 18, 63, 170, 50, 5, 63, 240, 253, 18, 63, 202, 112, 53, 63, 240, 253, 18, 63, 202, 112, 53, 63, 206, 11, 25, 63, 153, 81, 2, 63, 148, 10, 25, 63, 230, 59, 56, 63, 148, 10, 25, 63, 230, 59, 56, 63, 216, 63, 32, 63, 240, 98, 2, 63, 226, 39, 32, 63, 232, 41, 56, 63, 226, 39, 32, 63, 232, 41, 56, 63, 231, 148, 39, 63, 115, 105, 4, 63, 194, 108, 39, 63, 210, 48, 54, 63, 194, 108, 39, 63, 210, 48, 54, 63, 124, 205, 45, 63, 22, 210, 7, 63, 145, 174, 45, 63, 180, 220, 50, 63, 145, 174, 45, 63, 180, 220, 50, 63, 218, 78, 50, 63, 22, 180, 11, 63, 165, 131, 50, 63, 100, 16, 47, 63, 165, 131, 50, 63, 100, 16, 47, 63, 7, 119, 13, 63, 215, 15, 9, 63, 178, 130, 13, 63, 254, 172, 49, 63, 19, 6, 18, 63, 120, 234, 3, 63, 68, 33, 18, 63, 166, 181, 54, 63, 182, 173, 24, 63, 140, 215, 0, 63, 85, 175, 24, 63, 154, 176, 57, 63, 158, 65, 32, 63, 154, 176, 57, 63, 200, 90, 32, 63, 140, 215, 0, 63, 153, 245, 39, 63, 211, 163, 55, 63, 136, 34, 40, 63, 140, 244, 2, 63, 63, 151, 46, 63, 126, 26, 52, 63, 252, 191, 46, 63, 85, 159, 6, 63, 128, 36, 51, 63, 166, 27, 10, 63, 167, 46, 51, 63, 134, 209, 48, 63, 21, 166, 116, 63, 86, 96, 41, 63, 21, 166, 116, 63, 86, 96, 41, 63, 245, 108, 117, 63, 116, 238, 16, 63, 245, 108, 117, 63, 116, 238, 16, 63, 253, 101, 44, 63, 73, 10, 18, 63, 104, 182, 19, 63, 50, 122, 11, 63, 141, 123, 22, 63, 57, 169, 8, 63, 106, 217, 26, 63, 90, 201, 6, 63, 226, 28, 32, 63, 17, 200, 6, 63, 187, 116, 37, 63, 80, 41, 8, 63, 97, 222, 41, 63, 207, 115, 10, 63, 153, 155, 44, 63, 248, 25, 13, 63, 254, 145, 44, 63, 145, 133, 45, 63, 212, 6, 115, 63, 135, 141, 37, 63, 11, 11, 18, 63, 180, 106, 35, 63, 153, 13, 17, 63, 240, 62, 34, 63, 85, 175, 24, 63, 154, 176, 57, 63, 85, 175, 24, 63, 154, 176, 57, 63, 21, 166, 116, 63, 86, 96, 41, 63),
"format": 4119,
"index_count": 486,
"index_data": PackedByteArray(45, 0, 21, 0, 23, 0, 45, 0, 47, 0, 21, 0, 47, 0, 26, 0, 21, 0, 47, 0, 49, 0, 26, 0, 49, 0, 29, 0, 26, 0, 49, 0, 50, 0, 29, 0, 50, 0, 31, 0, 29, 0, 50, 0, 52, 0, 31, 0, 52, 0, 34, 0, 31, 0, 52, 0, 54, 0, 34, 0, 54, 0, 37, 0, 34, 0, 54, 0, 56, 0, 37, 0, 56, 0, 40, 0, 37, 0, 56, 0, 58, 0, 40, 0, 58, 0, 11, 0, 40, 0, 58, 0, 61, 0, 11, 0, 4, 0, 124, 0, 125, 0, 118, 0, 4, 0, 125, 0, 14, 0, 97, 0, 77, 0, 14, 0, 39, 0, 97, 0, 64, 0, 18, 0, 43, 0, 64, 0, 19, 0, 18, 0, 71, 0, 20, 0, 70, 0, 71, 0, 22, 0, 20, 0, 42, 0, 19, 0, 64, 0, 42, 0, 24, 0, 19, 0, 70, 0, 25, 0, 69, 0, 70, 0, 20, 0, 25, 0, 17, 0, 24, 0, 42, 0, 17, 0, 27, 0, 24, 0, 69, 0, 28, 0, 68, 0, 69, 0, 25, 0, 28, 0, 16, 0, 27, 0, 17, 0, 16, 0, 30, 0, 27, 0, 68, 0, 32, 0, 67, 0, 68, 0, 28, 0, 32, 0, 9, 0, 30, 0, 16, 0, 9, 0, 33, 0, 30, 0, 67, 0, 35, 0, 66, 0, 67, 0, 32, 0, 35, 0, 8, 0, 33, 0, 9, 0, 8, 0, 36, 0, 33, 0, 66, 0, 38, 0, 65, 0, 66, 0, 35, 0, 38, 0, 118, 0, 36, 0, 8, 0, 118, 0, 39, 0, 36, 0, 65, 0, 41, 0, 7, 0, 65, 0, 38, 0, 41, 0, 126, 0, 41, 0, 99, 0, 126, 0, 7, 0, 41, 0, 114, 0, 10, 0, 60, 0, 114, 0, 73, 0, 10, 0, 99, 0, 12, 0, 75, 0, 99, 0, 41, 0, 12, 0, 39, 0, 63, 0, 59, 0, 39, 0, 15, 0, 63, 0, 36, 0, 59, 0, 57, 0, 36, 0, 39, 0, 59, 0, 33, 0, 57, 0, 55, 0, 33, 0, 36, 0, 57, 0, 30, 0, 55, 0, 53, 0, 30, 0, 33, 0, 55, 0, 27, 0, 53, 0, 51, 0, 27, 0, 30, 0, 53, 0, 24, 0, 51, 0, 48, 0, 24, 0, 27, 0, 51, 0, 19, 0, 48, 0, 46, 0, 19, 0, 24, 0, 48, 0, 18, 0, 46, 0, 44, 0, 18, 0, 19, 0, 46, 0, 72, 0, 69, 0, 68, 0, 45, 0, 81, 0, 101, 0, 45, 0, 23, 0, 81, 0, 101, 0, 84, 0, 103, 0, 101, 0, 81, 0, 84, 0, 103, 0, 87, 0, 105, 0, 103, 0, 84, 0, 87, 0, 105, 0, 89, 0, 106, 0, 105, 0, 87, 0, 89, 0, 106, 0, 92, 0, 108, 0, 106, 0, 89, 0, 92, 0, 108, 0, 95, 0, 110, 0, 108, 0, 92, 0, 95, 0, 110, 0, 98, 0, 113, 0, 110, 0, 95, 0, 98, 0, 113, 0, 74, 0, 115, 0, 113, 0, 98, 0, 74, 0, 4, 0, 123, 0, 124, 0, 4, 0, 120, 0, 121, 0, 4, 0, 119, 0, 120, 0, 119, 0, 18, 0, 79, 0, 119, 0, 43, 0, 18, 0, 71, 0, 80, 0, 22, 0, 71, 0, 6, 0, 80, 0, 120, 0, 79, 0, 82, 0, 120, 0, 119, 0, 79, 0, 6, 0, 83, 0, 80, 0, 6, 0, 5, 0, 83, 0, 121, 0, 82, 0, 85, 0, 121, 0, 120, 0, 82, 0, 5, 0, 86, 0, 83, 0, 5, 0, 3, 0, 86, 0, 122, 0, 85, 0, 88, 0, 122, 0, 121, 0, 85, 0, 3, 0, 90, 0, 86, 0, 3, 0, 2, 0, 90, 0, 123, 0, 88, 0, 91, 0, 123, 0, 122, 0, 88, 0, 2, 0, 93, 0, 90, 0, 2, 0, 1, 0, 93, 0, 124, 0, 91, 0, 94, 0, 124, 0, 123, 0, 91, 0, 1, 0, 96, 0, 93, 0, 1, 0, 0, 0, 96, 0, 125, 0, 94, 0, 97, 0, 125, 0, 124, 0, 94, 0, 0, 0, 99, 0, 96, 0, 0, 0, 126, 0, 99, 0, 4, 0, 121, 0, 122, 0, 4, 0, 122, 0, 123, 0, 4, 0, 43, 0, 119, 0, 97, 0, 117, 0, 78, 0, 97, 0, 112, 0, 117, 0, 94, 0, 112, 0, 97, 0, 94, 0, 111, 0, 112, 0, 91, 0, 111, 0, 94, 0, 91, 0, 109, 0, 111, 0, 88, 0, 109, 0, 91, 0, 88, 0, 107, 0, 109, 0, 85, 0, 107, 0, 88, 0, 85, 0, 104, 0, 107, 0, 82, 0, 104, 0, 85, 0, 82, 0, 102, 0, 104, 0, 79, 0, 102, 0, 82, 0, 79, 0, 100, 0, 102, 0, 18, 0, 100, 0, 79, 0, 18, 0, 44, 0, 100, 0, 76, 0, 62, 0, 13, 0, 76, 0, 116, 0, 62, 0, 4, 0, 118, 0, 8, 0, 4, 0, 8, 0, 9, 0, 4, 0, 9, 0, 16, 0, 4, 0, 16, 0, 17, 0, 4, 0, 17, 0, 42, 0, 4, 0, 42, 0, 64, 0, 4, 0, 64, 0, 43, 0, 39, 0, 125, 0, 97, 0, 39, 0, 118, 0, 125, 0, 72, 0, 68, 0, 67, 0, 72, 0, 67, 0, 66, 0, 72, 0, 66, 0, 65, 0, 72, 0, 65, 0, 7, 0, 72, 0, 7, 0, 126, 0, 72, 0, 6, 0, 71, 0, 72, 0, 5, 0, 6, 0, 72, 0, 3, 0, 5, 0, 72, 0, 2, 0, 3, 0, 72, 0, 1, 0, 2, 0, 72, 0, 0, 0, 1, 0, 72, 0, 126, 0, 0, 0, 72, 0, 70, 0, 69, 0, 72, 0, 71, 0, 70, 0),
"lods": [0.0159665, PackedByteArray(45, 0, 47, 0, 21, 0, 45, 0, 21, 0, 101, 0, 47, 0, 26, 0, 21, 0, 101, 0, 21, 0, 84, 0, 47, 0, 49, 0, 26, 0, 101, 0, 84, 0, 103, 0, 49, 0, 29, 0, 26, 0, 103, 0, 84, 0, 87, 0, 49, 0, 50, 0, 29, 0, 103, 0, 87, 0, 105, 0, 50, 0, 31, 0, 29, 0, 105, 0, 87, 0, 89, 0, 50, 0, 52, 0, 31, 0, 105, 0, 89, 0, 106, 0, 52, 0, 34, 0, 31, 0, 106, 0, 89, 0, 92, 0, 52, 0, 54, 0, 34, 0, 106, 0, 92, 0, 108, 0, 54, 0, 37, 0, 34, 0, 108, 0, 92, 0, 95, 0, 54, 0, 56, 0, 37, 0, 108, 0, 95, 0, 110, 0, 56, 0, 40, 0, 37, 0, 110, 0, 95, 0, 98, 0, 56, 0, 58, 0, 40, 0, 58, 0, 11, 0, 40, 0, 58, 0, 61, 0, 11, 0, 110, 0, 98, 0, 113, 0, 113, 0, 98, 0, 74, 0, 113, 0, 74, 0, 115, 0, 39, 0, 79, 0, 97, 0, 39, 0, 15, 0, 63, 0, 39, 0, 63, 0, 59, 0, 39, 0, 59, 0, 57, 0, 39, 0, 57, 0, 55, 0, 14, 0, 39, 0, 97, 0, 14, 0, 97, 0, 77, 0, 51, 0, 39, 0, 55, 0, 51, 0, 55, 0, 53, 0, 79, 0, 39, 0, 51, 0, 97, 0, 117, 0, 78, 0, 97, 0, 112, 0, 117, 0, 97, 0, 111, 0, 112, 0, 97, 0, 109, 0, 111, 0, 104, 0, 109, 0, 97, 0, 104, 0, 107, 0, 109, 0, 79, 0, 104, 0, 97, 0, 79, 0, 102, 0, 104, 0, 79, 0, 100, 0, 102, 0, 19, 0, 100, 0, 79, 0, 51, 0, 19, 0, 79, 0, 19, 0, 44, 0, 100, 0, 19, 0, 51, 0, 48, 0, 19, 0, 46, 0, 44, 0, 19, 0, 48, 0, 46, 0, 25, 0, 32, 0, 35, 0, 25, 0, 28, 0, 32, 0, 38, 0, 25, 0, 35, 0, 38, 0, 20, 0, 25, 0, 20, 0, 86, 0, 83, 0, 20, 0, 90, 0, 86, 0, 20, 0, 93, 0, 90, 0, 38, 0, 93, 0, 20, 0, 38, 0, 96, 0, 93, 0, 96, 0, 38, 0, 99, 0, 38, 0, 41, 0, 99, 0, 99, 0, 41, 0, 12, 0, 99, 0, 12, 0, 75, 0, 114, 0, 10, 0, 60, 0, 114, 0, 73, 0, 10, 0, 76, 0, 62, 0, 13, 0, 76, 0, 116, 0, 62, 0), 0.0176327, PackedByteArray(45, 0, 26, 0, 21, 0, 45, 0, 21, 0, 84, 0, 45, 0, 49, 0, 26, 0, 45, 0, 84, 0, 105, 0, 49, 0, 52, 0, 26, 0, 105, 0, 84, 0, 113, 0, 52, 0, 34, 0, 26, 0, 113, 0, 84, 0, 98, 0, 113, 0, 98, 0, 74, 0, 113, 0, 74, 0, 115, 0, 52, 0, 37, 0, 34, 0, 52, 0, 58, 0, 37, 0, 58, 0, 11, 0, 37, 0, 58, 0, 61, 0, 11, 0, 14, 0, 97, 0, 77, 0, 14, 0, 39, 0, 97, 0, 39, 0, 15, 0, 63, 0, 39, 0, 63, 0, 59, 0, 39, 0, 59, 0, 53, 0, 39, 0, 53, 0, 48, 0, 97, 0, 39, 0, 48, 0, 97, 0, 48, 0, 104, 0, 48, 0, 44, 0, 104, 0, 104, 0, 112, 0, 97, 0, 97, 0, 112, 0, 117, 0, 97, 0, 117, 0, 78, 0, 114, 0, 10, 0, 60, 0, 114, 0, 73, 0, 10, 0, 99, 0, 12, 0, 75, 0, 99, 0, 38, 0, 12, 0, 38, 0, 99, 0, 83, 0, 38, 0, 83, 0, 20, 0, 38, 0, 20, 0, 25, 0, 38, 0, 25, 0, 35, 0, 76, 0, 62, 0, 13, 0, 76, 0, 116, 0, 62, 0), 0.0519026, PackedByteArray(129, 0, 127, 0, 128, 0, 129, 0, 128, 0, 130, 0, 49, 0, 61, 0, 11, 0, 14, 0, 97, 0, 77, 0, 14, 0, 39, 0, 97, 0, 97, 0, 117, 0, 78, 0, 97, 0, 104, 0, 117, 0, 39, 0, 104, 0, 97, 0, 39, 0, 48, 0, 104, 0, 39, 0, 63, 0, 48, 0, 39, 0, 15, 0, 63, 0, 114, 0, 10, 0, 60, 0, 114, 0, 73, 0, 10, 0, 25, 0, 12, 0, 75, 0, 131, 0, 74, 0, 132, 0, 105, 0, 26, 0, 74, 0, 76, 0, 62, 0, 13, 0, 76, 0, 116, 0, 62, 0)],
"material": ExtResource("1_r6wk1"),
"name": "PropSet_4_Mat",
"primitive": 3,
"vertex_count": 133,
"vertex_data": PackedByteArray(231, 20, 58, 189, 76, 229, 34, 187, 184, 125, 183, 188, 194, 143, 249, 215, 139, 19, 95, 202, 106, 15, 204, 188, 76, 229, 34, 187, 96, 78, 3, 189, 107, 138, 137, 216, 192, 13, 153, 199, 233, 105, 16, 52, 76, 229, 34, 187, 93, 206, 26, 189, 197, 131, 128, 220, 165, 5, 232, 195, 252, 15, 204, 60, 76, 229, 34, 187, 221, 78, 24, 189, 156, 121, 182, 220, 191, 6, 131, 186, 22, 1, 35, 59, 111, 151, 185, 188, 6, 230, 180, 51, 173, 127, 82, 0, 78, 0, 45, 195, 48, 21, 58, 61, 76, 229, 34, 187, 63, 47, 226, 188, 44, 112, 214, 218, 205, 16, 118, 180, 252, 62, 110, 61, 76, 229, 34, 187, 40, 178, 94, 188, 48, 106, 108, 221, 131, 22, 227, 177, 180, 62, 110, 189, 76, 229, 34, 187, 58, 218, 51, 60, 81, 163, 138, 232, 116, 22, 206, 208, 231, 20, 58, 189, 143, 225, 105, 188, 218, 125, 183, 60, 64, 112, 254, 39, 20, 16, 97, 204, 106, 15, 204, 188, 143, 225, 105, 188, 107, 78, 3, 61, 155, 117, 109, 39, 224, 9, 103, 201, 99, 2, 207, 190, 98, 108, 65, 61, 51, 69, 1, 60, 95, 29, 94, 157, 155, 79, 218, 139, 99, 2, 207, 190, 98, 108, 65, 61, 51, 69, 1, 60, 17, 130, 92, 166, 133, 14, 36, 201, 99, 2, 207, 190, 98, 108, 65, 61, 51, 69, 1, 60, 123, 142, 130, 241, 109, 13, 99, 203, 99, 2, 207, 190, 84, 34, 17, 61, 51, 69, 1, 60, 95, 29, 160, 98, 195, 59, 24, 247, 99, 2, 207, 190, 84, 34, 17, 61, 51, 69, 1, 60, 131, 113, 124, 14, 155, 13, 173, 202, 99, 2, 207, 190, 84, 34, 17, 61, 51, 69, 1, 60, 109, 120, 100, 89, 8, 13, 145, 200, 190, 106, 16, 52, 143, 225, 105, 188, 122, 139, 26, 61, 69, 124, 107, 35, 138, 1, 104, 197, 252, 15, 204, 60, 143, 225, 105, 188, 134, 208, 23, 61, 98, 134, 52, 35, 196, 9, 190, 183, 168, 86, 178, 61, 60, 40, 193, 187, 181, 151, 138, 51, 203, 188, 204, 60, 172, 58, 108, 160, 106, 195, 164, 61, 60, 40, 193, 187, 232, 147, 168, 60, 50, 173, 123, 70, 46, 58, 222, 165, 106, 195, 164, 61, 60, 40, 193, 59, 180, 194, 167, 60, 230, 85, 142, 228, 103, 30, 53, 174, 106, 195, 164, 61, 60, 40, 193, 59, 180, 194, 167, 60, 140, 185, 234, 165, 212, 77, 252, 224, 168, 86, 178, 61, 60, 40, 193, 59, 227, 109, 140, 51, 137, 95, 136, 223, 48, 31, 228, 173, 168, 86, 178, 61, 60, 40, 193, 59, 227, 109, 140, 51, 188, 208, 65, 175, 162, 77, 70, 233, 126, 53, 124, 61, 60, 40, 193, 187, 208, 75, 45, 61, 130, 159, 156, 71, 139, 47, 177, 172, 126, 53, 124, 61, 60, 40, 193, 59, 172, 2, 45, 61, 187, 82, 254, 235, 39, 25, 37, 177, 126, 53, 124, 61, 60, 40, 193, 59, 172, 2, 45, 61, 158, 167, 8, 166, 203, 62, 122, 215, 174, 126, 8, 61, 60, 40, 193, 187, 137, 17, 103, 61, 188, 140, 37, 67, 54, 22, 57, 181, 174, 126, 8, 61, 60, 40, 193, 59, 226, 11, 103, 61, 48, 85, 78, 247, 191, 13, 156, 181, 174, 126, 8, 61, 60, 40, 193, 59, 226, 11, 103, 61, 184, 143, 17, 171, 192, 31, 21, 205, 0, 0, 64, 52, 60, 40, 193, 187, 139, 232, 101, 61, 143, 120, 165, 65, 227, 2, 40, 199, 0, 0, 64, 52, 60, 40, 193, 59, 39, 229, 101, 61, 233, 117, 87, 171, 30, 3, 204, 183, 0, 0, 64, 52, 60, 40, 193, 59, 39, 229, 101, 61, 250, 170, 177, 251, 15, 1, 212, 197, 78, 126, 8, 189, 60, 40, 193, 187, 72, 39, 67, 61, 91, 108, 100, 71, 90, 18, 251, 208, 78, 126, 8, 189, 60, 40, 193, 59, 72, 39, 67, 61, 34, 103, 35, 166, 224, 20, 43, 171, 78, 126, 8, 189, 60, 40, 193, 59, 72, 39, 67, 61, 218, 176, 174, 242, 95, 12, 235, 203, 28, 53, 124, 189, 60, 40, 193, 187, 66, 97, 8, 61, 2, 99, 115, 72, 81, 28, 61, 215, 28, 53, 124, 189, 60, 40, 193, 59, 179, 39, 8, 61, 111, 92, 184, 165, 3, 32, 198, 163, 28, 53, 124, 189, 60, 40, 193, 59, 179, 39, 8, 61, 159, 177, 103, 235, 67, 20, 123, 208, 57, 195, 164, 189, 60, 40, 193, 187, 212, 71, 138, 60, 201, 102, 17, 58, 201, 26, 59, 211, 57, 195, 164, 189, 60, 40, 193, 59, 31, 34, 138, 60, 109, 106, 137, 167, 168, 13, 71, 174, 57, 195, 164, 189, 60, 40, 193, 59, 31, 34, 138, 60, 34, 160, 210, 231, 192, 23, 167, 207, 48, 21, 58, 61, 143, 225, 105, 188, 108, 63, 225, 60, 195, 143, 14, 37, 44, 19, 222, 179, 225, 189, 126, 61, 143, 225, 105, 188, 190, 102, 80, 51, 9, 154, 9, 26, 7, 25, 0, 177, 97, 90, 185, 61, 0, 0, 0, 0, 178, 170, 141, 51, 221, 255, 33, 128, 200, 134, 15, 128, 97, 90, 185, 61, 0, 0, 0, 0, 178, 170, 141, 51, 221, 255, 33, 128, 93, 120, 239, 255, 156, 234, 170, 61, 0, 0, 0, 0, 4, 186, 179, 60, 55, 210, 49, 128, 157, 109, 238, 153, 156, 234, 170, 61, 0, 0, 0, 0, 4, 186, 179, 60, 55, 210, 49, 128, 15, 108, 52, 228, 72, 77, 130, 61, 0, 0, 0, 0, 106, 247, 56, 61, 216, 183, 61, 128, 227, 80, 235, 169, 72, 77, 130, 61, 0, 0, 0, 0, 106, 247, 56, 61, 216, 183, 61, 128, 158, 80, 251, 213, 132, 156, 12, 61, 0, 0, 0, 0, 174, 26, 117, 61, 69, 144, 236, 170, 143, 32, 68, 205, 132, 156, 12, 61, 0, 0, 0, 0, 174, 26, 117, 61, 74, 144, 58, 85, 154, 32, 192, 178, 43, 142, 63, 52, 0, 0, 0, 0, 191, 2, 116, 61, 197, 113, 4, 128, 251, 1, 0, 184, 43, 142, 63, 52, 0, 0, 0, 0, 191, 2, 116, 61, 197, 113, 4, 128, 76, 3, 147, 200, 36, 156, 12, 189, 0, 0, 0, 0, 16, 253, 79, 61, 230, 92, 21, 128, 131, 19, 92, 167, 36, 156, 12, 189, 0, 0, 0, 0, 16, 253, 79, 61, 230, 92, 21, 128, 186, 20, 21, 217, 24, 77, 130, 189, 0, 0, 0, 0, 104, 144, 17, 61, 3, 77, 35, 128, 109, 31, 11, 157, 24, 77, 130, 189, 0, 0, 0, 0, 104, 144, 17, 61, 3, 77, 35, 128, 142, 32, 82, 227, 42, 125, 168, 189, 0, 0, 0, 0, 40, 183, 171, 60, 193, 94, 237, 125, 74, 10, 59, 171, 42, 125, 168, 189, 0, 0, 0, 0, 40, 183, 171, 60, 193, 94, 237, 125, 41, 24, 149, 217, 124, 232, 207, 190, 91, 71, 41, 61, 115, 28, 20, 60, 0, 0, 255, 127, 212, 81, 0, 128, 124, 232, 207, 190, 91, 71, 41, 61, 115, 28, 20, 60, 144, 124, 173, 131, 107, 14, 252, 200, 124, 232, 207, 190, 91, 71, 41, 61, 115, 28, 20, 60, 0, 0, 255, 127, 67, 170, 255, 255, 124, 232, 207, 190, 91, 71, 41, 61, 115, 28, 20, 60, 144, 124, 173, 131, 202, 12, 43, 200, 252, 62, 110, 61, 143, 225, 105, 188, 192, 55, 94, 60, 197, 149, 134, 34, 200, 23, 143, 177, 231, 20, 58, 189, 76, 229, 34, 187, 218, 125, 183, 60, 5, 168, 60, 240, 133, 15, 216, 204, 106, 15, 204, 188, 76, 229, 34, 187, 107, 78, 3, 61, 117, 167, 147, 245, 124, 9, 190, 201, 233, 105, 16, 52, 76, 229, 34, 187, 101, 206, 26, 61, 126, 163, 56, 252, 112, 1, 145, 197, 252, 15, 204, 60, 76, 229, 34, 187, 233, 78, 24, 61, 182, 92, 155, 249, 226, 9, 116, 183, 48, 21, 58, 61, 76, 229, 34, 187, 104, 47, 226, 60, 215, 90, 44, 240, 57, 19, 19, 180, 252, 62, 110, 61, 76, 229, 34, 187, 142, 178, 94, 60, 109, 93, 48, 234, 213, 23, 156, 177, 225, 189, 126, 61, 72, 229, 34, 187, 18, 207, 82, 51, 243, 101, 243, 229, 248, 24, 222, 176, 198, 255, 34, 59, 194, 6, 50, 188, 226, 207, 100, 50, 86, 128, 168, 255, 82, 0, 102, 195, 99, 2, 207, 190, 98, 108, 65, 61, 51, 69, 1, 188, 95, 29, 94, 157, 83, 110, 83, 162, 99, 2, 207, 190, 98, 108, 65, 61, 51, 69, 1, 188, 162, 217, 236, 253, 229, 1, 255, 193, 99, 2, 207, 190, 98, 108, 65, 61, 51, 69, 1, 188, 123, 142, 130, 241, 99, 13, 139, 203, 99, 2, 207, 190, 84, 34, 17, 61, 51, 69, 1, 188, 95, 29, 160, 98, 115, 102, 226, 234, 99, 2, 207, 190, 84, 34, 17, 61, 51, 69, 1, 188, 131, 113, 124, 14, 148, 13, 199, 202, 99, 2, 207, 190, 84, 34, 17, 61, 51, 69, 1, 188, 154, 38, 145, 7, 33, 23, 59, 204, 106, 195, 164, 61, 60, 40, 193, 187, 162, 147, 168, 188, 122, 198, 50, 45, 231, 46, 174, 161, 106, 195, 164, 61, 60, 40, 193, 59, 109, 194, 167, 188, 143, 100, 230, 213, 42, 29, 246, 174, 106, 195, 164, 61, 60, 40, 193, 59, 109, 194, 167, 188, 19, 218, 113, 198, 63, 59, 28, 231, 126, 53, 124, 61, 60, 40, 193, 187, 180, 75, 45, 189, 155, 199, 131, 31, 13, 33, 151, 167, 126, 53, 124, 61, 60, 40, 193, 59, 144, 2, 45, 189, 255, 107, 186, 210, 91, 22, 232, 177, 126, 53, 124, 61, 60, 40, 193, 59, 144, 2, 45, 189, 245, 217, 96, 216, 117, 40, 243, 222, 174, 126, 8, 61, 60, 40, 193, 187, 124, 17, 103, 189, 36, 195, 188, 12, 177, 14, 144, 180, 174, 126, 8, 61, 60, 40, 193, 59, 206, 11, 103, 189, 79, 119, 48, 213, 8, 10, 254, 184, 174, 126, 8, 61, 60, 40, 193, 59, 206, 11, 103, 189, 236, 212, 69, 240, 171, 17, 144, 206, 0, 0, 64, 52, 60, 40, 193, 187, 133, 232, 101, 189, 89, 62, 111, 7, 219, 13, 27, 197, 0, 0, 64, 52, 60, 40, 193, 59, 29, 229, 101, 189, 88, 43, 233, 245, 245, 19, 156, 185, 0, 0, 64, 52, 60, 40, 193, 59, 29, 229, 101, 189, 76, 132, 4, 213, 118, 6, 157, 195, 78, 126, 8, 189, 60, 40, 193, 187, 61, 39, 67, 189, 154, 56, 164, 19, 135, 33, 104, 204, 78, 126, 8, 189, 60, 40, 193, 59, 61, 39, 67, 189, 36, 38, 34, 231, 239, 43, 189, 177, 78, 126, 8, 189, 60, 40, 193, 59, 61, 39, 67, 189, 80, 141, 35, 207, 228, 18, 245, 200, 28, 53, 124, 189, 60, 40, 193, 187, 43, 97, 8, 189, 140, 55, 252, 28, 124, 45, 40, 209, 28, 53, 124, 189, 60, 40, 193, 59, 156, 39, 8, 189, 185, 37, 111, 220, 187, 57, 145, 172, 28, 53, 124, 189, 60, 40, 193, 59, 156, 39, 8, 189, 151, 148, 94, 206, 171, 27, 203, 204, 57, 195, 164, 189, 60, 40, 193, 187, 154, 71, 138, 188, 237, 69, 54, 25, 176, 35, 145, 207, 57, 195, 164, 189, 60, 40, 193, 59, 229, 33, 138, 188, 138, 39, 109, 234, 224, 37, 55, 181, 57, 195, 164, 189, 60, 40, 193, 59, 229, 33, 138, 188, 44, 152, 219, 223, 169, 25, 64, 205, 156, 234, 170, 61, 0, 0, 0, 0, 194, 185, 179, 188, 204, 255, 199, 173, 246, 67, 167, 138, 156, 234, 170, 61, 0, 0, 0, 0, 194, 185, 179, 188, 204, 255, 199, 173, 89, 64, 152, 244, 72, 77, 130, 61, 0, 0, 0, 0, 75, 247, 56, 189, 192, 255, 37, 200, 86, 38, 49, 153, 72, 77, 130, 61, 0, 0, 0, 0, 75, 247, 56, 189, 192, 255, 37, 200, 7, 38, 164, 230, 132, 156, 12, 61, 0, 0, 0, 0, 157, 26, 117, 189, 57, 213, 75, 16, 147, 18, 233, 176, 132, 156, 12, 61, 0, 0, 0, 0, 157, 26, 117, 189, 17, 213, 184, 239, 52, 18, 2, 207, 43, 142, 63, 52, 0, 0, 0, 0, 183, 2, 116, 189, 5, 0, 197, 241, 47, 24, 100, 186, 43, 142, 63, 52, 0, 0, 0, 0, 183, 2, 116, 189, 5, 0, 197, 241, 184, 24, 230, 197, 36, 156, 12, 189, 0, 0, 0, 0, 1, 253, 79, 189, 21, 0, 229, 220, 54, 54, 212, 178, 36, 156, 12, 189, 0, 0, 0, 0, 1, 253, 79, 189, 21, 0, 229, 220, 181, 54, 123, 205, 24, 77, 130, 189, 0, 0, 0, 0, 80, 144, 17, 189, 36, 0, 2, 205, 165, 73, 41, 173, 24, 77, 130, 189, 0, 0, 0, 0, 80, 144, 17, 189, 36, 0, 2, 205, 70, 74, 72, 211, 42, 125, 168, 189, 0, 0, 0, 0, 237, 182, 171, 188, 18, 2, 61, 33, 69, 55, 236, 206, 42, 125, 168, 189, 0, 0, 0, 0, 237, 182, 171, 188, 18, 2, 61, 33, 100, 46, 159, 183, 124, 232, 207, 190, 91, 71, 41, 61, 115, 28, 20, 188, 0, 0, 255, 127, 255, 127, 160, 148, 124, 232, 207, 190, 91, 71, 41, 61, 115, 28, 20, 188, 173, 3, 144, 252, 188, 3, 25, 192, 124, 232, 207, 190, 91, 71, 41, 61, 115, 28, 20, 188, 0, 0, 255, 127, 255, 127, 105, 237, 124, 232, 207, 190, 91, 71, 41, 61, 115, 28, 20, 188, 173, 3, 144, 252, 245, 26, 175, 203, 180, 62, 110, 189, 143, 225, 105, 188, 59, 218, 51, 60, 139, 104, 75, 35, 11, 23, 31, 208, 252, 62, 110, 61, 143, 225, 105, 188, 79, 55, 94, 188, 133, 162, 197, 21, 176, 22, 41, 178, 48, 21, 58, 61, 143, 225, 105, 188, 68, 63, 225, 188, 14, 165, 195, 15, 27, 17, 217, 180, 252, 15, 204, 60, 143, 225, 105, 188, 121, 208, 23, 189, 52, 163, 99, 6, 204, 6, 143, 186, 190, 106, 16, 52, 143, 225, 105, 188, 115, 139, 26, 189, 147, 92, 186, 3, 127, 5, 173, 195, 106, 15, 204, 188, 143, 225, 105, 188, 96, 78, 3, 189, 145, 88, 99, 10, 195, 13, 189, 199, 231, 20, 58, 189, 143, 225, 105, 188, 184, 125, 183, 188, 1, 88, 191, 15, 145, 19, 163, 202, 180, 62, 110, 189, 143, 225, 105, 188, 225, 217, 51, 188, 179, 92, 116, 23, 134, 25, 88, 206, 180, 62, 110, 189, 76, 229, 34, 187, 224, 217, 51, 188, 115, 151, 173, 220, 144, 25, 52, 206, 99, 2, 207, 190, 98, 108, 65, 61, 51, 69, 1, 60, 30, 145, 135, 241, 133, 14, 36, 201, 126, 53, 124, 61, 60, 40, 193, 59, 172, 2, 45, 61, 200, 143, 113, 243, 203, 62, 122, 215, 72, 77, 130, 61, 0, 0, 0, 0, 106, 247, 56, 61, 139, 139, 254, 248, 158, 80, 251, 213, 132, 156, 12, 61, 0, 0, 0, 0, 157, 26, 117, 189, 241, 152, 103, 247, 52, 18, 2, 207, 132, 156, 12, 61, 0, 0, 0, 0, 157, 26, 117, 189, 234, 33, 62, 236, 52, 18, 2, 207, 124, 232, 207, 190, 91, 71, 41, 61, 115, 28, 20, 188, 152, 32, 3, 236, 188, 3, 25, 192)
}]
blend_shape_mode = 0
shadow_mesh = SubResource("ArrayMesh_3vmo0")

[sub_resource type="BoxShape3D" id="BoxShape3D_6uj6p"]
size = Vector3(0.192681, 0.0500447, 0.140021)

[sub_resource type="BoxShape3D" id="BoxShape3D_5sedd"]
size = Vector3(0.332307, 0.0505059, 0.0683029)

[node name="PropSet_4_Spoon" type="RigidBody3D"]

[node name="PropSet_4_Spoon" type="MeshInstance3D" parent="."]
mesh = SubResource("ArrayMesh_0mo8y")
skeleton = NodePath("")

[node name="CollisionShape3D" type="CollisionShape3D" parent="."]
transform = Transform3D(1, 0, 0, 0, 1, 0, 0, 0, 1, 0, -0.00805316, 0)
shape = SubResource("BoxShape3D_6uj6p")

[node name="CollisionShape3D2" type="CollisionShape3D" parent="."]
transform = Transform3D(0.986935, 0.161122, 0, -0.161122, 0.986935, 0, 0, 0, 1, -0.250631, 0.0217517, 0)
shape = SubResource("BoxShape3D_5sedd")
