[gd_resource type="Gradient" format=3 uid="uid://bro041fo1rw15"]

[resource]
offsets = PackedFloat32Array(0, 0.417476, 1)
colors = PackedColorArray(1, 1, 0.45098, 1, 0.968627, 0.745098, 0.278431, 1, 0.94902, 0.505882, 0.207843, 1)
