[gd_scene load_steps=10 format=3 uid="uid://q7po4mjnrsu1"]

[ext_resource type="Material" uid="uid://dkke3cme1q653" path="res://Assets/ModularDungeonAsset/DungeonTiles/material/PropSet_2_Mat.tres" id="1_22754"]
[ext_resource type="Material" uid="uid://b0gymtrf5pf6l" path="res://Assets/ModularDungeonAsset/DungeonTiles/material/Fire.tres" id="2_jo0ew"]
[ext_resource type="Gradient" uid="uid://bro041fo1rw15" path="res://Assets/ModularDungeonAsset/DungeonTiles/material/fire_Gradient.tres" id="3_rmtfm"]

[sub_resource type="ArrayMesh" id="ArrayMesh_xkggj"]
_surfaces = [{
"aabb": AABB(-0.0198169, -0.316671, -0.0198169, 0.0396338, 0.413602, 0.0396338),
"format": 4097,
"index_count": 498,
"index_data": PackedByteArray(2, 0, 39, 0, 33, 0, 2, 0, 4, 0, 39, 0, 3, 0, 38, 0, 5, 0, 3, 0, 32, 0, 38, 0, 5, 0, 41, 0, 7, 0, 5, 0, 38, 0, 41, 0, 7, 0, 44, 0, 9, 0, 7, 0, 41, 0, 44, 0, 9, 0, 47, 0, 11, 0, 9, 0, 44, 0, 47, 0, 11, 0, 50, 0, 13, 0, 11, 0, 47, 0, 50, 0, 13, 0, 53, 0, 15, 0, 13, 0, 50, 0, 53, 0, 15, 0, 56, 0, 17, 0, 15, 0, 53, 0, 56, 0, 17, 0, 59, 0, 19, 0, 17, 0, 56, 0, 59, 0, 19, 0, 62, 0, 21, 0, 19, 0, 59, 0, 62, 0, 21, 0, 65, 0, 23, 0, 21, 0, 62, 0, 65, 0, 23, 0, 68, 0, 25, 0, 23, 0, 65, 0, 68, 0, 25, 0, 71, 0, 27, 0, 25, 0, 68, 0, 71, 0, 27, 0, 74, 0, 29, 0, 27, 0, 71, 0, 74, 0, 5, 0, 1, 0, 3, 0, 1, 0, 29, 0, 31, 0, 29, 0, 25, 0, 27, 0, 25, 0, 21, 0, 23, 0, 21, 0, 17, 0, 19, 0, 17, 0, 13, 0, 15, 0, 13, 0, 9, 0, 11, 0, 9, 0, 5, 0, 7, 0, 5, 0, 29, 0, 1, 0, 29, 0, 21, 0, 25, 0, 21, 0, 13, 0, 17, 0, 13, 0, 5, 0, 9, 0, 5, 0, 21, 0, 29, 0, 21, 0, 5, 0, 13, 0, 29, 0, 77, 0, 31, 0, 29, 0, 74, 0, 77, 0, 31, 0, 36, 0, 1, 0, 31, 0, 77, 0, 36, 0, 30, 0, 2, 0, 0, 0, 2, 0, 6, 0, 4, 0, 6, 0, 10, 0, 8, 0, 10, 0, 14, 0, 12, 0, 14, 0, 18, 0, 16, 0, 18, 0, 22, 0, 20, 0, 22, 0, 26, 0, 24, 0, 26, 0, 30, 0, 28, 0, 30, 0, 6, 0, 2, 0, 6, 0, 14, 0, 10, 0, 14, 0, 22, 0, 18, 0, 22, 0, 30, 0, 26, 0, 30, 0, 14, 0, 6, 0, 14, 0, 30, 0, 22, 0, 0, 0, 33, 0, 35, 0, 0, 0, 2, 0, 33, 0, 30, 0, 35, 0, 78, 0, 30, 0, 0, 0, 35, 0, 6, 0, 45, 0, 42, 0, 6, 0, 8, 0, 45, 0, 8, 0, 48, 0, 45, 0, 8, 0, 10, 0, 48, 0, 10, 0, 51, 0, 48, 0, 10, 0, 12, 0, 51, 0, 12, 0, 54, 0, 51, 0, 12, 0, 14, 0, 54, 0, 14, 0, 57, 0, 54, 0, 14, 0, 16, 0, 57, 0, 16, 0, 60, 0, 57, 0, 16, 0, 18, 0, 60, 0, 18, 0, 63, 0, 60, 0, 18, 0, 20, 0, 63, 0, 20, 0, 66, 0, 63, 0, 20, 0, 22, 0, 66, 0, 22, 0, 69, 0, 66, 0, 22, 0, 24, 0, 69, 0, 24, 0, 72, 0, 69, 0, 24, 0, 26, 0, 72, 0, 26, 0, 75, 0, 72, 0, 26, 0, 28, 0, 75, 0, 28, 0, 78, 0, 75, 0, 28, 0, 30, 0, 78, 0, 4, 0, 42, 0, 39, 0, 4, 0, 6, 0, 42, 0, 33, 0, 37, 0, 35, 0, 33, 0, 34, 0, 37, 0, 34, 0, 36, 0, 37, 0, 34, 0, 32, 0, 36, 0, 39, 0, 34, 0, 33, 0, 39, 0, 40, 0, 34, 0, 40, 0, 32, 0, 34, 0, 40, 0, 38, 0, 32, 0, 42, 0, 40, 0, 39, 0, 42, 0, 43, 0, 40, 0, 43, 0, 38, 0, 40, 0, 43, 0, 41, 0, 38, 0, 45, 0, 43, 0, 42, 0, 45, 0, 46, 0, 43, 0, 46, 0, 41, 0, 43, 0, 46, 0, 44, 0, 41, 0, 48, 0, 46, 0, 45, 0, 48, 0, 49, 0, 46, 0, 49, 0, 44, 0, 46, 0, 49, 0, 47, 0, 44, 0, 51, 0, 49, 0, 48, 0, 51, 0, 52, 0, 49, 0, 52, 0, 47, 0, 49, 0, 52, 0, 50, 0, 47, 0, 54, 0, 52, 0, 51, 0, 54, 0, 55, 0, 52, 0, 55, 0, 50, 0, 52, 0, 55, 0, 53, 0, 50, 0, 57, 0, 55, 0, 54, 0, 57, 0, 58, 0, 55, 0, 58, 0, 53, 0, 55, 0, 58, 0, 56, 0, 53, 0, 60, 0, 58, 0, 57, 0, 60, 0, 61, 0, 58, 0, 61, 0, 56, 0, 58, 0, 61, 0, 59, 0, 56, 0, 63, 0, 61, 0, 60, 0, 63, 0, 64, 0, 61, 0, 64, 0, 59, 0, 61, 0, 64, 0, 62, 0, 59, 0, 66, 0, 64, 0, 63, 0, 66, 0, 67, 0, 64, 0, 67, 0, 62, 0, 64, 0, 67, 0, 65, 0, 62, 0, 69, 0, 67, 0, 66, 0, 69, 0, 70, 0, 67, 0, 70, 0, 65, 0, 67, 0, 70, 0, 68, 0, 65, 0, 72, 0, 70, 0, 69, 0, 72, 0, 73, 0, 70, 0, 73, 0, 68, 0, 70, 0, 73, 0, 71, 0, 68, 0, 75, 0, 73, 0, 72, 0, 75, 0, 76, 0, 73, 0, 76, 0, 71, 0, 73, 0, 76, 0, 74, 0, 71, 0, 78, 0, 76, 0, 75, 0, 78, 0, 79, 0, 76, 0, 79, 0, 74, 0, 76, 0, 79, 0, 77, 0, 74, 0, 35, 0, 79, 0, 78, 0, 35, 0, 37, 0, 79, 0, 37, 0, 77, 0, 79, 0, 37, 0, 36, 0, 77, 0, 1, 0, 32, 0, 3, 0, 1, 0, 36, 0, 32, 0, 84, 0, 81, 0, 80, 0, 84, 0, 85, 0, 81, 0, 85, 0, 83, 0, 81, 0, 85, 0, 86, 0, 83, 0, 86, 0, 82, 0, 83, 0, 86, 0, 87, 0, 82, 0, 87, 0, 80, 0, 82, 0, 87, 0, 84, 0, 80, 0, 83, 0, 80, 0, 81, 0, 83, 0, 82, 0, 80, 0),
"lods": [0.00504501, PackedByteArray(2, 0, 4, 0, 33, 0, 30, 0, 2, 0, 33, 0, 4, 0, 42, 0, 33, 0, 4, 0, 6, 0, 42, 0, 6, 0, 8, 0, 42, 0, 30, 0, 33, 0, 75, 0, 8, 0, 54, 0, 42, 0, 28, 0, 30, 0, 75, 0, 26, 0, 28, 0, 75, 0, 24, 0, 26, 0, 75, 0, 22, 0, 24, 0, 75, 0, 22, 0, 75, 0, 66, 0, 8, 0, 10, 0, 54, 0, 10, 0, 12, 0, 54, 0, 12, 0, 14, 0, 54, 0, 14, 0, 16, 0, 54, 0, 16, 0, 60, 0, 54, 0, 16, 0, 18, 0, 60, 0, 18, 0, 20, 0, 60, 0, 20, 0, 66, 0, 60, 0, 20, 0, 22, 0, 66, 0, 38, 0, 44, 0, 50, 0, 54, 0, 50, 0, 44, 0, 54, 0, 44, 0, 42, 0, 42, 0, 44, 0, 38, 0, 33, 0, 42, 0, 36, 0, 42, 0, 38, 0, 36, 0, 33, 0, 36, 0, 75, 0, 75, 0, 68, 0, 66, 0, 74, 0, 36, 0, 38, 0, 75, 0, 36, 0, 74, 0, 75, 0, 74, 0, 68, 0, 62, 0, 68, 0, 74, 0, 38, 0, 62, 0, 74, 0, 66, 0, 68, 0, 62, 0, 66, 0, 62, 0, 60, 0, 62, 0, 38, 0, 56, 0, 60, 0, 56, 0, 54, 0, 60, 0, 62, 0, 56, 0, 56, 0, 38, 0, 50, 0, 54, 0, 56, 0, 50, 0, 2, 0, 6, 0, 4, 0, 30, 0, 6, 0, 2, 0, 6, 0, 10, 0, 8, 0, 6, 0, 14, 0, 10, 0, 30, 0, 14, 0, 6, 0, 10, 0, 14, 0, 12, 0, 26, 0, 30, 0, 28, 0, 22, 0, 30, 0, 26, 0, 14, 0, 30, 0, 22, 0, 22, 0, 26, 0, 24, 0, 14, 0, 22, 0, 18, 0, 18, 0, 22, 0, 20, 0, 14, 0, 18, 0, 16, 0, 84, 0, 81, 0, 80, 0, 84, 0, 85, 0, 81, 0, 85, 0, 83, 0, 81, 0, 85, 0, 86, 0, 83, 0, 86, 0, 82, 0, 83, 0, 86, 0, 87, 0, 82, 0, 87, 0, 80, 0, 82, 0, 87, 0, 84, 0, 80, 0, 83, 0, 80, 0, 81, 0, 83, 0, 82, 0, 80, 0), 0.00859501, PackedByteArray(36, 0, 60, 0, 75, 0, 66, 0, 75, 0, 60, 0, 60, 0, 36, 0, 48, 0, 42, 0, 48, 0, 36, 0, 42, 0, 36, 0, 75, 0, 24, 0, 4, 0, 28, 0, 22, 0, 4, 0, 24, 0, 12, 0, 4, 0, 22, 0, 4, 0, 12, 0, 8, 0, 12, 0, 22, 0, 20, 0, 4, 0, 42, 0, 75, 0, 4, 0, 8, 0, 42, 0, 28, 0, 4, 0, 75, 0, 8, 0, 48, 0, 42, 0, 24, 0, 28, 0, 75, 0, 22, 0, 24, 0, 75, 0, 22, 0, 75, 0, 66, 0, 8, 0, 12, 0, 48, 0, 12, 0, 60, 0, 48, 0, 12, 0, 20, 0, 60, 0, 20, 0, 66, 0, 60, 0, 20, 0, 22, 0, 66, 0, 84, 0, 81, 0, 80, 0, 84, 0, 85, 0, 81, 0, 85, 0, 83, 0, 81, 0, 85, 0, 86, 0, 83, 0, 86, 0, 82, 0, 83, 0, 86, 0, 87, 0, 82, 0, 87, 0, 80, 0, 82, 0, 87, 0, 84, 0, 80, 0, 83, 0, 80, 0, 81, 0, 83, 0, 82, 0, 80, 0), 0.0318902, PackedByteArray(20, 0, 28, 0, 22, 0, 20, 0, 66, 0, 75, 0, 20, 0, 22, 0, 66, 0, 28, 0, 20, 0, 75, 0, 22, 0, 28, 0, 75, 0, 22, 0, 75, 0, 66, 0, 84, 0, 81, 0, 80, 0, 84, 0, 85, 0, 81, 0, 85, 0, 83, 0, 81, 0, 85, 0, 86, 0, 83, 0, 86, 0, 82, 0, 83, 0, 86, 0, 87, 0, 82, 0, 87, 0, 80, 0, 82, 0, 87, 0, 84, 0, 80, 0, 83, 0, 80, 0, 81, 0, 83, 0, 82, 0, 80, 0)],
"name": "PropSet_2_Mat",
"primitive": 3,
"vertex_count": 88,
"vertex_data": PackedByteArray(94, 116, 109, 176, 179, 34, 162, 190, 20, 87, 162, 188, 94, 116, 109, 176, 184, 96, 143, 61, 103, 44, 99, 188, 220, 127, 248, 59, 179, 34, 162, 190, 149, 251, 149, 188, 247, 222, 173, 59, 184, 96, 143, 61, 132, 225, 81, 188, 100, 149, 101, 60, 179, 34, 162, 190, 107, 149, 101, 188, 197, 162, 32, 60, 184, 96, 143, 61, 204, 162, 32, 188, 146, 251, 149, 60, 179, 34, 162, 190, 234, 127, 248, 187, 125, 225, 81, 60, 184, 96, 143, 61, 5, 223, 173, 187, 17, 87, 162, 60, 179, 34, 162, 190, 24, 93, 194, 177, 96, 44, 99, 60, 184, 96, 143, 61, 24, 93, 194, 177, 146, 251, 149, 60, 179, 34, 162, 190, 210, 127, 248, 59, 125, 225, 81, 60, 184, 96, 143, 61, 237, 222, 173, 59, 100, 149, 101, 60, 179, 34, 162, 190, 95, 149, 101, 60, 197, 162, 32, 60, 184, 96, 143, 61, 192, 162, 32, 60, 220, 127, 248, 59, 179, 34, 162, 190, 143, 251, 149, 60, 247, 222, 173, 59, 184, 96, 143, 61, 120, 225, 81, 60, 94, 116, 109, 176, 179, 34, 162, 190, 14, 87, 162, 60, 94, 116, 109, 176, 184, 96, 143, 61, 91, 44, 99, 60, 224, 127, 248, 187, 179, 34, 162, 190, 143, 251, 149, 60, 251, 222, 173, 187, 184, 96, 143, 61, 120, 225, 81, 60, 102, 149, 101, 188, 179, 34, 162, 190, 95, 149, 101, 60, 199, 162, 32, 188, 184, 96, 143, 61, 192, 162, 32, 60, 146, 251, 149, 188, 179, 34, 162, 190, 210, 127, 248, 59, 127, 225, 81, 188, 184, 96, 143, 61, 237, 222, 173, 59, 17, 87, 162, 188, 179, 34, 162, 190, 24, 93, 194, 177, 98, 44, 99, 188, 184, 96, 143, 61, 24, 93, 194, 177, 146, 251, 149, 188, 179, 34, 162, 190, 234, 127, 248, 187, 127, 225, 81, 188, 184, 96, 143, 61, 5, 223, 173, 187, 102, 149, 101, 188, 179, 34, 162, 190, 107, 149, 101, 188, 199, 162, 32, 188, 184, 96, 143, 61, 204, 162, 32, 188, 224, 127, 248, 187, 179, 34, 162, 190, 149, 251, 149, 188, 251, 222, 173, 187, 184, 96, 143, 61, 132, 225, 81, 188, 68, 198, 196, 59, 232, 64, 144, 61, 37, 135, 109, 188, 220, 127, 248, 59, 144, 182, 137, 61, 149, 251, 149, 188, 125, 89, 233, 59, 56, 40, 143, 61, 199, 214, 140, 188, 94, 116, 109, 176, 144, 182, 137, 61, 20, 87, 162, 188, 94, 116, 109, 176, 232, 64, 144, 61, 151, 140, 128, 188, 94, 116, 109, 176, 56, 40, 143, 61, 103, 113, 152, 188, 192, 203, 53, 60, 232, 64, 144, 61, 199, 203, 53, 188, 100, 149, 101, 60, 144, 182, 137, 61, 107, 149, 101, 188, 61, 150, 87, 60, 56, 40, 143, 61, 68, 150, 87, 188, 30, 135, 109, 60, 232, 64, 144, 61, 82, 198, 196, 187, 146, 251, 149, 60, 144, 182, 137, 61, 234, 127, 248, 187, 196, 214, 140, 60, 56, 40, 143, 61, 140, 89, 233, 187, 148, 140, 128, 60, 232, 64, 144, 61, 24, 93, 194, 177, 17, 87, 162, 60, 144, 182, 137, 61, 24, 93, 194, 177, 100, 113, 152, 60, 56, 40, 143, 61, 24, 93, 194, 177, 30, 135, 109, 60, 232, 64, 144, 61, 58, 198, 196, 59, 146, 251, 149, 60, 144, 182, 137, 61, 210, 127, 248, 59, 196, 214, 140, 60, 56, 40, 143, 61, 115, 89, 233, 59, 192, 203, 53, 60, 232, 64, 144, 61, 187, 203, 53, 60, 100, 149, 101, 60, 144, 182, 137, 61, 95, 149, 101, 60, 61, 150, 87, 60, 56, 40, 143, 61, 56, 150, 87, 60, 68, 198, 196, 59, 232, 64, 144, 61, 25, 135, 109, 60, 220, 127, 248, 59, 144, 182, 137, 61, 143, 251, 149, 60, 126, 89, 233, 59, 56, 40, 143, 61, 193, 214, 140, 60, 94, 116, 109, 176, 232, 64, 144, 61, 145, 140, 128, 60, 94, 116, 109, 176, 144, 182, 137, 61, 14, 87, 162, 60, 94, 116, 109, 176, 56, 40, 143, 61, 97, 113, 152, 60, 72, 198, 196, 187, 232, 64, 144, 61, 25, 135, 109, 60, 224, 127, 248, 187, 144, 182, 137, 61, 143, 251, 149, 60, 129, 89, 233, 187, 56, 40, 143, 61, 193, 214, 140, 60, 194, 203, 53, 188, 232, 64, 144, 61, 187, 203, 53, 60, 102, 149, 101, 188, 144, 182, 137, 61, 95, 149, 101, 60, 63, 150, 87, 188, 56, 40, 143, 61, 56, 150, 87, 60, 32, 135, 109, 188, 232, 64, 144, 61, 58, 198, 196, 59, 146, 251, 149, 188, 144, 182, 137, 61, 210, 127, 248, 59, 196, 214, 140, 188, 56, 40, 143, 61, 116, 89, 233, 59, 148, 140, 128, 188, 232, 64, 144, 61, 24, 93, 194, 177, 17, 87, 162, 188, 144, 182, 137, 61, 24, 93, 194, 177, 100, 113, 152, 188, 56, 40, 143, 61, 24, 93, 194, 177, 32, 135, 109, 188, 232, 64, 144, 61, 82, 198, 196, 187, 146, 251, 149, 188, 144, 182, 137, 61, 234, 127, 248, 187, 196, 214, 140, 188, 56, 40, 143, 61, 139, 89, 233, 187, 194, 203, 53, 188, 232, 64, 144, 61, 199, 203, 53, 188, 102, 149, 101, 188, 144, 182, 137, 61, 107, 149, 101, 188, 63, 150, 87, 188, 56, 40, 143, 61, 68, 150, 87, 188, 72, 198, 196, 187, 232, 64, 144, 61, 37, 135, 109, 188, 224, 127, 248, 187, 144, 182, 137, 61, 149, 251, 149, 188, 130, 89, 233, 187, 56, 40, 143, 61, 199, 214, 140, 188, 102, 98, 53, 186, 232, 131, 198, 61, 246, 97, 53, 58, 102, 98, 53, 186, 232, 131, 198, 61, 184, 98, 53, 186, 72, 98, 53, 58, 232, 131, 198, 61, 246, 97, 53, 58, 72, 98, 53, 58, 232, 131, 198, 61, 184, 98, 53, 186, 69, 69, 235, 186, 200, 72, 115, 61, 163, 40, 248, 58, 251, 220, 173, 186, 200, 72, 115, 61, 243, 26, 146, 186, 46, 70, 235, 58, 200, 72, 115, 61, 186, 32, 248, 186, 227, 221, 173, 58, 200, 72, 115, 61, 218, 34, 146, 58)
}]
blend_shape_mode = 0

[sub_resource type="ArrayMesh" id="ArrayMesh_gcqvx"]
resource_name = "ModularDungeonTiles_Props_PropSet_2_Candle"
_surfaces = [{
"aabb": AABB(-0.0198169, -0.316671, -0.0198169, 0.0396338, 0.413602, 0.0396338),
"attribute_data": PackedByteArray(83, 160, 84, 61, 0, 2, 0, 59, 138, 177, 90, 62, 48, 150, 191, 62, 237, 81, 60, 62, 148, 137, 248, 62, 68, 141, 125, 61, 0, 1, 0, 59, 222, 155, 94, 62, 68, 220, 186, 62, 231, 85, 55, 62, 58, 15, 246, 62, 14, 61, 147, 61, 0, 1, 0, 59, 222, 155, 94, 62, 168, 190, 181, 62, 24, 161, 52, 62, 108, 208, 242, 62, 123, 179, 167, 61, 0, 1, 0, 59, 143, 177, 90, 62, 188, 4, 177, 62, 150, 154, 52, 62, 28, 76, 239, 62, 231, 41, 188, 61, 0, 2, 0, 59, 122, 117, 83, 62, 178, 102, 173, 62, 100, 70, 55, 62, 96, 11, 236, 62, 96, 160, 208, 61, 0, 0, 0, 59, 163, 1, 74, 62, 136, 113, 171, 62, 89, 58, 60, 62, 142, 140, 233, 62, 204, 22, 229, 61, 0, 0, 0, 59, 108, 198, 63, 62, 136, 113, 171, 62, 192, 182, 66, 62, 110, 49, 232, 62, 56, 141, 249, 61, 0, 0, 0, 59, 151, 82, 54, 62, 180, 102, 173, 62, 28, 190, 73, 62, 64, 46, 232, 62, 210, 1, 7, 62, 0, 0, 0, 59, 130, 22, 47, 62, 186, 4, 177, 62, 109, 62, 80, 62, 252, 131, 233, 62, 8, 61, 17, 62, 0, 0, 0, 59, 47, 44, 43, 62, 166, 190, 181, 62, 116, 58, 85, 62, 86, 254, 235, 62, 69, 120, 27, 62, 0, 0, 0, 59, 47, 44, 43, 62, 66, 220, 186, 62, 60, 239, 87, 62, 32, 61, 239, 62, 0, 0, 0, 59, 0, 2, 0, 59, 123, 179, 37, 62, 0, 0, 0, 59, 130, 22, 47, 62, 46, 150, 191, 62, 196, 245, 87, 62, 112, 193, 242, 62, 197, 179, 67, 60, 0, 2, 0, 59, 146, 82, 54, 62, 54, 52, 195, 62, 247, 73, 85, 62, 44, 2, 246, 62, 147, 179, 179, 60, 0, 2, 0, 59, 106, 198, 63, 62, 96, 41, 197, 62, 2, 86, 80, 62, 254, 128, 248, 62, 162, 198, 2, 61, 0, 2, 0, 59, 161, 1, 74, 62, 96, 41, 197, 62, 148, 217, 73, 62, 32, 220, 249, 62, 123, 179, 43, 61, 0, 2, 0, 59, 120, 117, 83, 62, 56, 52, 195, 62, 62, 210, 66, 62, 80, 223, 249, 62, 13, 78, 53, 62, 138, 189, 246, 62, 68, 141, 125, 61, 254, 255, 254, 62, 54, 152, 46, 62, 208, 240, 248, 62, 5, 11, 50, 62, 72, 210, 247, 62, 83, 160, 84, 61, 254, 255, 254, 62, 139, 115, 54, 62, 64, 223, 252, 62, 57, 247, 58, 62, 32, 142, 249, 62, 193, 199, 56, 62, 152, 45, 251, 62, 255, 58, 50, 62, 40, 14, 243, 62, 14, 61, 147, 61, 254, 255, 254, 62, 105, 88, 42, 62, 34, 206, 243, 62, 105, 99, 46, 62, 60, 110, 243, 62, 64, 52, 50, 62, 194, 15, 239, 62, 123, 179, 167, 61, 254, 255, 254, 62, 105, 88, 42, 62, 34, 63, 238, 62, 26, 94, 46, 62, 116, 172, 238, 62, 201, 60, 53, 62, 24, 94, 235, 62, 231, 41, 188, 61, 254, 255, 254, 62, 136, 153, 46, 62, 122, 28, 233, 62, 61, 253, 49, 62, 116, 70, 234, 62, 56, 221, 58, 62, 196, 136, 232, 62, 96, 160, 208, 61, 252, 255, 254, 62, 150, 117, 54, 62, 32, 46, 229, 62, 38, 179, 56, 62, 104, 231, 230, 62, 23, 59, 66, 62, 156, 254, 230, 62, 204, 22, 229, 61, 252, 255, 254, 62, 152, 186, 64, 62, 148, 13, 227, 62, 169, 122, 65, 62, 254, 18, 229, 62, 203, 54, 74, 62, 52, 251, 230, 62, 56, 141, 249, 61, 252, 255, 254, 62, 35, 216, 75, 62, 140, 13, 227, 62, 113, 253, 74, 62, 74, 16, 229, 62, 27, 153, 81, 62, 110, 127, 232, 62, 210, 1, 7, 62, 252, 255, 254, 62, 201, 28, 86, 62, 78, 46, 229, 62, 148, 200, 83, 62, 244, 223, 230, 62, 78, 66, 87, 62, 4, 80, 235, 62, 8, 61, 17, 62, 252, 255, 254, 62, 24, 248, 93, 62, 188, 28, 233, 62, 85, 133, 90, 62, 68, 59, 234, 62, 91, 85, 90, 62, 102, 255, 238, 62, 69, 120, 27, 62, 252, 255, 254, 62, 235, 55, 98, 62, 104, 63, 238, 62, 236, 44, 94, 62, 82, 159, 238, 62, 21, 92, 90, 62, 200, 253, 242, 62, 0, 0, 0, 59, 0, 0, 255, 62, 123, 179, 37, 62, 252, 255, 254, 62, 235, 55, 98, 62, 106, 206, 243, 62, 64, 50, 94, 62, 24, 97, 243, 62, 139, 83, 87, 62, 116, 175, 246, 62, 197, 179, 67, 60, 254, 255, 254, 62, 204, 246, 93, 62, 18, 241, 248, 62, 29, 147, 90, 62, 24, 199, 247, 62, 29, 179, 81, 62, 200, 132, 249, 62, 147, 179, 179, 60, 254, 255, 254, 62, 197, 26, 86, 62, 108, 223, 252, 62, 52, 221, 83, 62, 36, 38, 251, 62, 67, 85, 74, 62, 240, 14, 251, 62, 162, 198, 2, 61, 254, 255, 254, 62, 195, 213, 75, 62, 250, 255, 254, 62, 177, 21, 75, 62, 144, 250, 252, 62, 138, 89, 66, 62, 90, 18, 251, 62, 123, 179, 43, 61, 254, 255, 254, 62, 49, 184, 64, 62, 0, 0, 255, 62, 228, 146, 65, 62, 66, 253, 252, 62, 105, 88, 42, 62, 172, 62, 223, 62, 143, 2, 54, 62, 172, 62, 223, 62, 143, 2, 54, 62, 172, 62, 223, 62, 169, 52, 45, 62, 172, 62, 223, 62, 169, 52, 45, 62, 172, 62, 223, 62, 143, 2, 54, 62, 22, 187, 224, 62, 188, 9, 51, 62, 172, 62, 223, 62, 188, 9, 51, 62, 172, 62, 223, 62, 188, 9, 51, 62, 172, 62, 223, 62, 124, 45, 48, 62, 172, 62, 223, 62, 124, 45, 48, 62, 172, 62, 223, 62, 188, 9, 51, 62, 22, 187, 224, 62, 105, 88, 42, 62, 182, 9, 198, 62, 143, 2, 54, 62, 182, 9, 198, 62, 169, 52, 45, 62, 182, 9, 198, 62, 169, 52, 45, 62, 182, 9, 198, 62, 124, 45, 48, 62, 182, 9, 198, 62, 124, 45, 48, 62, 182, 9, 198, 62, 188, 9, 51, 62, 182, 9, 198, 62, 188, 9, 51, 62, 182, 9, 198, 62, 105, 88, 42, 62, 34, 63, 238, 62, 150, 117, 54, 62, 32, 46, 229, 62, 24, 248, 93, 62, 188, 28, 233, 62, 235, 55, 98, 62, 106, 206, 243, 62, 195, 213, 75, 62, 250, 255, 254, 62, 54, 152, 46, 62, 208, 240, 248, 62, 105, 88, 42, 62, 34, 63, 238, 62, 35, 216, 75, 62, 140, 13, 227, 62, 24, 248, 93, 62, 188, 28, 233, 62, 235, 55, 98, 62, 106, 206, 243, 62, 195, 213, 75, 62, 250, 255, 254, 62),
"format": 4119,
"index_count": 498,
"index_data": PackedByteArray(3, 0, 58, 0, 50, 0, 3, 0, 6, 0, 58, 0, 5, 0, 57, 0, 8, 0, 5, 0, 49, 0, 57, 0, 8, 0, 61, 0, 11, 0, 8, 0, 57, 0, 61, 0, 11, 0, 65, 0, 14, 0, 11, 0, 61, 0, 65, 0, 14, 0, 69, 0, 17, 0, 14, 0, 65, 0, 69, 0, 17, 0, 73, 0, 20, 0, 17, 0, 69, 0, 73, 0, 20, 0, 77, 0, 23, 0, 20, 0, 73, 0, 77, 0, 23, 0, 81, 0, 26, 0, 23, 0, 77, 0, 81, 0, 26, 0, 85, 0, 29, 0, 26, 0, 81, 0, 85, 0, 29, 0, 89, 0, 32, 0, 29, 0, 85, 0, 89, 0, 32, 0, 93, 0, 36, 0, 32, 0, 89, 0, 93, 0, 36, 0, 98, 0, 39, 0, 36, 0, 93, 0, 98, 0, 39, 0, 102, 0, 42, 0, 39, 0, 98, 0, 102, 0, 42, 0, 106, 0, 45, 0, 42, 0, 102, 0, 106, 0, 8, 0, 2, 0, 5, 0, 2, 0, 45, 0, 48, 0, 45, 0, 39, 0, 42, 0, 39, 0, 32, 0, 36, 0, 32, 0, 26, 0, 29, 0, 26, 0, 20, 0, 23, 0, 20, 0, 14, 0, 17, 0, 14, 0, 8, 0, 11, 0, 8, 0, 45, 0, 2, 0, 45, 0, 32, 0, 39, 0, 32, 0, 20, 0, 26, 0, 20, 0, 8, 0, 14, 0, 8, 0, 32, 0, 45, 0, 32, 0, 8, 0, 20, 0, 45, 0, 110, 0, 48, 0, 45, 0, 106, 0, 110, 0, 48, 0, 55, 0, 2, 0, 48, 0, 110, 0, 55, 0, 47, 0, 4, 0, 1, 0, 4, 0, 10, 0, 7, 0, 10, 0, 16, 0, 13, 0, 16, 0, 22, 0, 19, 0, 22, 0, 28, 0, 25, 0, 28, 0, 35, 0, 31, 0, 35, 0, 41, 0, 38, 0, 41, 0, 47, 0, 44, 0, 47, 0, 10, 0, 4, 0, 10, 0, 22, 0, 16, 0, 22, 0, 35, 0, 28, 0, 35, 0, 47, 0, 41, 0, 47, 0, 22, 0, 10, 0, 22, 0, 47, 0, 35, 0, 0, 0, 50, 0, 53, 0, 0, 0, 3, 0, 50, 0, 46, 0, 53, 0, 111, 0, 46, 0, 0, 0, 53, 0, 9, 0, 66, 0, 62, 0, 9, 0, 12, 0, 66, 0, 12, 0, 70, 0, 66, 0, 12, 0, 15, 0, 70, 0, 15, 0, 74, 0, 70, 0, 15, 0, 18, 0, 74, 0, 18, 0, 78, 0, 74, 0, 18, 0, 21, 0, 78, 0, 21, 0, 82, 0, 78, 0, 21, 0, 24, 0, 82, 0, 24, 0, 86, 0, 82, 0, 24, 0, 27, 0, 86, 0, 27, 0, 90, 0, 86, 0, 27, 0, 30, 0, 90, 0, 30, 0, 95, 0, 90, 0, 30, 0, 34, 0, 95, 0, 33, 0, 99, 0, 94, 0, 33, 0, 37, 0, 99, 0, 37, 0, 103, 0, 99, 0, 37, 0, 40, 0, 103, 0, 40, 0, 107, 0, 103, 0, 40, 0, 43, 0, 107, 0, 43, 0, 111, 0, 107, 0, 43, 0, 46, 0, 111, 0, 6, 0, 62, 0, 58, 0, 6, 0, 9, 0, 62, 0, 51, 0, 56, 0, 54, 0, 51, 0, 52, 0, 56, 0, 52, 0, 55, 0, 56, 0, 52, 0, 49, 0, 55, 0, 59, 0, 52, 0, 51, 0, 59, 0, 60, 0, 52, 0, 60, 0, 49, 0, 52, 0, 60, 0, 57, 0, 49, 0, 63, 0, 60, 0, 59, 0, 63, 0, 64, 0, 60, 0, 64, 0, 57, 0, 60, 0, 64, 0, 61, 0, 57, 0, 67, 0, 64, 0, 63, 0, 67, 0, 68, 0, 64, 0, 68, 0, 61, 0, 64, 0, 68, 0, 65, 0, 61, 0, 71, 0, 68, 0, 67, 0, 71, 0, 72, 0, 68, 0, 72, 0, 65, 0, 68, 0, 72, 0, 69, 0, 65, 0, 75, 0, 72, 0, 71, 0, 75, 0, 76, 0, 72, 0, 76, 0, 69, 0, 72, 0, 76, 0, 73, 0, 69, 0, 79, 0, 76, 0, 75, 0, 79, 0, 80, 0, 76, 0, 80, 0, 73, 0, 76, 0, 80, 0, 77, 0, 73, 0, 83, 0, 80, 0, 79, 0, 83, 0, 84, 0, 80, 0, 84, 0, 77, 0, 80, 0, 84, 0, 81, 0, 77, 0, 87, 0, 84, 0, 83, 0, 87, 0, 88, 0, 84, 0, 88, 0, 81, 0, 84, 0, 88, 0, 85, 0, 81, 0, 91, 0, 88, 0, 87, 0, 91, 0, 92, 0, 88, 0, 92, 0, 85, 0, 88, 0, 92, 0, 89, 0, 85, 0, 96, 0, 92, 0, 91, 0, 96, 0, 97, 0, 92, 0, 97, 0, 89, 0, 92, 0, 97, 0, 93, 0, 89, 0, 100, 0, 97, 0, 96, 0, 100, 0, 101, 0, 97, 0, 101, 0, 93, 0, 97, 0, 101, 0, 98, 0, 93, 0, 104, 0, 101, 0, 100, 0, 104, 0, 105, 0, 101, 0, 105, 0, 98, 0, 101, 0, 105, 0, 102, 0, 98, 0, 108, 0, 105, 0, 104, 0, 108, 0, 109, 0, 105, 0, 109, 0, 102, 0, 105, 0, 109, 0, 106, 0, 102, 0, 112, 0, 109, 0, 108, 0, 112, 0, 113, 0, 109, 0, 113, 0, 106, 0, 109, 0, 113, 0, 110, 0, 106, 0, 54, 0, 113, 0, 112, 0, 54, 0, 56, 0, 113, 0, 56, 0, 110, 0, 113, 0, 56, 0, 55, 0, 110, 0, 2, 0, 49, 0, 5, 0, 2, 0, 55, 0, 49, 0, 126, 0, 117, 0, 114, 0, 126, 0, 128, 0, 117, 0, 129, 0, 123, 0, 118, 0, 129, 0, 130, 0, 123, 0, 131, 0, 122, 0, 124, 0, 131, 0, 133, 0, 122, 0, 132, 0, 116, 0, 121, 0, 132, 0, 127, 0, 116, 0, 125, 0, 115, 0, 119, 0, 125, 0, 120, 0, 115, 0),
"lods": [0.00504501, PackedByteArray(3, 0, 6, 0, 50, 0, 46, 0, 3, 0, 50, 0, 6, 0, 62, 0, 50, 0, 6, 0, 9, 0, 62, 0, 9, 0, 12, 0, 62, 0, 46, 0, 50, 0, 107, 0, 12, 0, 78, 0, 62, 0, 43, 0, 46, 0, 107, 0, 40, 0, 43, 0, 107, 0, 37, 0, 40, 0, 107, 0, 33, 0, 37, 0, 107, 0, 33, 0, 107, 0, 94, 0, 12, 0, 15, 0, 78, 0, 15, 0, 18, 0, 78, 0, 18, 0, 21, 0, 78, 0, 21, 0, 24, 0, 78, 0, 24, 0, 86, 0, 78, 0, 24, 0, 27, 0, 86, 0, 27, 0, 30, 0, 86, 0, 30, 0, 95, 0, 86, 0, 30, 0, 34, 0, 95, 0, 57, 0, 65, 0, 73, 0, 79, 0, 73, 0, 65, 0, 79, 0, 65, 0, 63, 0, 140, 0, 65, 0, 57, 0, 139, 0, 140, 0, 55, 0, 63, 0, 57, 0, 55, 0, 51, 0, 55, 0, 108, 0, 108, 0, 98, 0, 96, 0, 106, 0, 55, 0, 57, 0, 144, 0, 55, 0, 106, 0, 144, 0, 106, 0, 98, 0, 89, 0, 98, 0, 106, 0, 57, 0, 89, 0, 106, 0, 143, 0, 98, 0, 89, 0, 96, 0, 89, 0, 87, 0, 89, 0, 57, 0, 81, 0, 87, 0, 81, 0, 79, 0, 142, 0, 89, 0, 81, 0, 81, 0, 57, 0, 73, 0, 141, 0, 81, 0, 73, 0, 4, 0, 10, 0, 7, 0, 47, 0, 10, 0, 4, 0, 10, 0, 16, 0, 13, 0, 10, 0, 22, 0, 16, 0, 47, 0, 22, 0, 10, 0, 16, 0, 22, 0, 19, 0, 41, 0, 47, 0, 44, 0, 35, 0, 47, 0, 41, 0, 22, 0, 47, 0, 35, 0, 35, 0, 41, 0, 38, 0, 22, 0, 35, 0, 28, 0, 28, 0, 35, 0, 31, 0, 22, 0, 28, 0, 25, 0, 126, 0, 117, 0, 114, 0, 126, 0, 128, 0, 117, 0, 129, 0, 123, 0, 118, 0, 129, 0, 130, 0, 123, 0, 131, 0, 122, 0, 124, 0, 131, 0, 133, 0, 122, 0, 132, 0, 116, 0, 121, 0, 132, 0, 127, 0, 116, 0, 125, 0, 115, 0, 119, 0, 125, 0, 120, 0, 115, 0), 0.00859501, PackedByteArray(55, 0, 136, 0, 138, 0, 137, 0, 138, 0, 136, 0, 136, 0, 55, 0, 135, 0, 134, 0, 135, 0, 55, 0, 63, 0, 55, 0, 108, 0, 38, 0, 7, 0, 44, 0, 35, 0, 7, 0, 38, 0, 19, 0, 7, 0, 35, 0, 7, 0, 19, 0, 13, 0, 19, 0, 35, 0, 31, 0, 6, 0, 62, 0, 107, 0, 6, 0, 12, 0, 62, 0, 43, 0, 6, 0, 107, 0, 12, 0, 70, 0, 62, 0, 37, 0, 43, 0, 107, 0, 33, 0, 37, 0, 107, 0, 33, 0, 107, 0, 94, 0, 12, 0, 18, 0, 70, 0, 18, 0, 86, 0, 70, 0, 18, 0, 30, 0, 86, 0, 30, 0, 95, 0, 86, 0, 30, 0, 34, 0, 95, 0, 126, 0, 117, 0, 114, 0, 126, 0, 128, 0, 117, 0, 129, 0, 123, 0, 118, 0, 129, 0, 130, 0, 123, 0, 131, 0, 122, 0, 124, 0, 131, 0, 133, 0, 122, 0, 132, 0, 116, 0, 121, 0, 132, 0, 127, 0, 116, 0, 125, 0, 115, 0, 119, 0, 125, 0, 120, 0, 115, 0), 0.0318902, PackedByteArray(31, 0, 44, 0, 35, 0, 30, 0, 95, 0, 107, 0, 30, 0, 34, 0, 95, 0, 43, 0, 30, 0, 107, 0, 33, 0, 43, 0, 107, 0, 33, 0, 107, 0, 94, 0, 126, 0, 117, 0, 114, 0, 126, 0, 128, 0, 117, 0, 129, 0, 123, 0, 118, 0, 129, 0, 130, 0, 123, 0, 131, 0, 122, 0, 124, 0, 131, 0, 133, 0, 122, 0, 132, 0, 116, 0, 121, 0, 132, 0, 127, 0, 116, 0, 125, 0, 115, 0, 119, 0, 125, 0, 120, 0, 115, 0)],
"material": ExtResource("1_22754"),
"name": "PropSet_2_Mat",
"primitive": 3,
"vertex_count": 145,
"vertex_data": PackedByteArray(94, 116, 109, 176, 179, 34, 162, 190, 20, 87, 162, 188, 255, 255, 255, 255, 254, 255, 255, 191, 94, 116, 109, 176, 179, 34, 162, 190, 20, 87, 162, 188, 255, 127, 0, 0, 254, 255, 161, 153, 94, 116, 109, 176, 184, 96, 143, 61, 103, 44, 99, 188, 255, 127, 71, 241, 99, 54, 222, 188, 220, 127, 248, 59, 179, 34, 162, 190, 149, 251, 149, 188, 255, 255, 129, 218, 129, 218, 255, 191, 220, 127, 248, 59, 179, 34, 162, 190, 149, 251, 149, 188, 255, 127, 0, 0, 254, 255, 161, 153, 247, 222, 173, 59, 184, 96, 143, 61, 132, 225, 81, 188, 142, 122, 107, 237, 48, 56, 100, 187, 100, 149, 101, 60, 179, 34, 162, 190, 107, 149, 101, 188, 255, 255, 255, 191, 255, 191, 255, 191, 100, 149, 101, 60, 179, 34, 162, 190, 107, 149, 101, 188, 255, 127, 0, 0, 254, 255, 161, 153, 197, 162, 32, 60, 184, 96, 143, 61, 204, 162, 32, 188, 16, 118, 33, 236, 104, 57, 156, 186, 146, 251, 149, 60, 179, 34, 162, 190, 234, 127, 248, 187, 255, 255, 124, 165, 124, 165, 255, 191, 146, 251, 149, 60, 179, 34, 162, 190, 234, 127, 248, 187, 255, 127, 0, 0, 254, 255, 161, 153, 125, 225, 81, 60, 184, 96, 143, 61, 5, 223, 173, 187, 221, 114, 107, 237, 199, 57, 157, 186, 17, 87, 162, 60, 179, 34, 162, 190, 24, 93, 194, 177, 255, 255, 255, 127, 255, 127, 255, 191, 17, 87, 162, 60, 179, 34, 162, 190, 24, 93, 194, 177, 255, 127, 0, 0, 254, 255, 161, 153, 96, 44, 99, 60, 184, 96, 143, 61, 24, 93, 194, 177, 71, 113, 71, 241, 20, 57, 99, 187, 146, 251, 149, 60, 179, 34, 162, 190, 210, 127, 248, 59, 129, 218, 255, 127, 130, 90, 255, 191, 146, 251, 149, 60, 179, 34, 162, 190, 210, 127, 248, 59, 255, 127, 0, 0, 254, 255, 161, 153, 125, 225, 81, 60, 184, 96, 143, 61, 237, 222, 173, 59, 108, 109, 220, 242, 80, 55, 218, 188, 100, 149, 101, 60, 179, 34, 162, 190, 95, 149, 101, 60, 255, 191, 255, 127, 255, 63, 255, 191, 100, 149, 101, 60, 179, 34, 162, 190, 95, 149, 101, 60, 255, 127, 0, 0, 254, 255, 161, 153, 197, 162, 32, 60, 184, 96, 143, 61, 192, 162, 32, 60, 33, 108, 16, 246, 163, 52, 217, 190, 220, 127, 248, 59, 179, 34, 162, 190, 143, 251, 149, 60, 124, 165, 255, 127, 125, 37, 255, 191, 220, 127, 248, 59, 179, 34, 162, 190, 143, 251, 149, 60, 255, 127, 0, 0, 254, 255, 161, 153, 247, 222, 173, 59, 184, 96, 143, 61, 120, 225, 81, 60, 108, 109, 142, 250, 53, 52, 28, 193, 94, 116, 109, 176, 179, 34, 162, 190, 14, 87, 162, 60, 255, 127, 255, 127, 0, 0, 255, 191, 94, 116, 109, 176, 179, 34, 162, 190, 14, 87, 162, 60, 255, 127, 0, 0, 254, 255, 162, 153, 94, 116, 109, 176, 184, 96, 143, 61, 91, 44, 99, 60, 71, 113, 254, 255, 99, 54, 31, 195, 224, 127, 248, 187, 179, 34, 162, 190, 143, 251, 149, 60, 130, 90, 255, 127, 0, 0, 189, 210, 224, 127, 248, 187, 179, 34, 162, 190, 143, 251, 149, 60, 255, 127, 0, 0, 254, 255, 161, 153, 251, 222, 173, 187, 184, 96, 143, 61, 120, 225, 81, 60, 146, 146, 142, 250, 48, 56, 154, 196, 102, 149, 101, 188, 179, 34, 162, 190, 95, 149, 101, 60, 255, 63, 255, 127, 0, 0, 255, 223, 102, 149, 101, 188, 179, 34, 162, 190, 95, 149, 101, 60, 255, 127, 0, 0, 254, 255, 161, 153, 199, 162, 32, 188, 184, 96, 143, 61, 192, 162, 32, 60, 221, 147, 16, 246, 104, 57, 97, 197, 146, 251, 149, 188, 179, 34, 162, 190, 210, 127, 248, 59, 125, 37, 255, 127, 0, 0, 64, 237, 146, 251, 149, 188, 179, 34, 162, 190, 210, 127, 248, 59, 125, 37, 255, 127, 0, 0, 64, 237, 146, 251, 149, 188, 179, 34, 162, 190, 210, 127, 248, 59, 255, 127, 0, 0, 254, 255, 161, 153, 127, 225, 81, 188, 184, 96, 143, 61, 237, 222, 173, 59, 146, 146, 220, 242, 199, 57, 97, 197, 17, 87, 162, 188, 179, 34, 162, 190, 24, 93, 194, 177, 0, 0, 255, 127, 255, 255, 255, 255, 17, 87, 162, 188, 179, 34, 162, 190, 24, 93, 194, 177, 255, 127, 0, 0, 254, 255, 161, 153, 98, 44, 99, 188, 184, 96, 143, 61, 24, 93, 194, 177, 183, 142, 71, 241, 19, 57, 154, 196, 146, 251, 149, 188, 179, 34, 162, 190, 234, 127, 248, 187, 0, 0, 124, 165, 255, 255, 64, 237, 146, 251, 149, 188, 179, 34, 162, 190, 234, 127, 248, 187, 255, 127, 0, 0, 254, 255, 161, 153, 127, 225, 81, 188, 184, 96, 143, 61, 5, 223, 173, 187, 33, 141, 107, 237, 80, 55, 35, 195, 102, 149, 101, 188, 179, 34, 162, 190, 107, 149, 101, 188, 0, 0, 255, 191, 255, 255, 255, 223, 102, 149, 101, 188, 179, 34, 162, 190, 107, 149, 101, 188, 255, 127, 0, 0, 254, 255, 161, 153, 199, 162, 32, 188, 184, 96, 143, 61, 204, 162, 32, 188, 238, 137, 33, 236, 163, 52, 37, 193, 224, 127, 248, 187, 179, 34, 162, 190, 149, 251, 149, 188, 0, 0, 129, 218, 255, 255, 189, 210, 224, 127, 248, 187, 179, 34, 162, 190, 149, 251, 149, 188, 255, 127, 0, 0, 254, 255, 161, 153, 251, 222, 173, 187, 184, 96, 143, 61, 132, 225, 81, 188, 112, 133, 107, 237, 53, 52, 225, 190, 68, 198, 196, 59, 232, 64, 144, 61, 37, 135, 109, 188, 55, 128, 238, 255, 136, 50, 12, 192, 220, 127, 248, 59, 144, 182, 137, 61, 149, 251, 149, 188, 51, 238, 183, 223, 129, 218, 255, 191, 220, 127, 248, 59, 144, 182, 137, 61, 149, 251, 149, 188, 51, 238, 183, 223, 216, 69, 203, 229, 125, 89, 233, 59, 56, 40, 143, 61, 199, 214, 140, 188, 115, 195, 61, 236, 245, 66, 81, 212, 94, 116, 109, 176, 144, 182, 137, 61, 20, 87, 162, 188, 178, 233, 255, 255, 254, 255, 255, 191, 94, 116, 109, 176, 144, 182, 137, 61, 20, 87, 162, 188, 178, 233, 255, 255, 244, 54, 176, 214, 94, 116, 109, 176, 232, 64, 144, 61, 151, 140, 128, 188, 42, 128, 254, 255, 106, 50, 7, 192, 94, 116, 109, 176, 56, 40, 143, 61, 103, 113, 152, 188, 232, 186, 254, 255, 90, 58, 108, 205, 192, 203, 53, 60, 232, 64, 144, 61, 199, 203, 53, 188, 60, 128, 224, 255, 17, 51, 14, 192, 100, 149, 101, 60, 144, 182, 137, 61, 107, 149, 101, 188, 97, 239, 78, 200, 255, 191, 255, 191, 100, 149, 101, 60, 144, 182, 137, 61, 107, 149, 101, 188, 97, 239, 78, 200, 57, 97, 12, 241, 61, 150, 87, 60, 56, 40, 143, 61, 68, 150, 87, 188, 248, 197, 2, 221, 91, 77, 17, 216, 30, 135, 109, 60, 232, 64, 144, 61, 82, 198, 196, 187, 55, 128, 215, 255, 188, 51, 14, 192, 146, 251, 149, 60, 144, 182, 137, 61, 234, 127, 248, 187, 51, 238, 18, 178, 124, 165, 255, 191, 146, 251, 149, 60, 144, 182, 137, 61, 234, 127, 248, 187, 51, 238, 18, 178, 234, 116, 77, 238, 196, 214, 140, 60, 56, 40, 143, 61, 140, 89, 233, 187, 115, 195, 76, 208, 85, 84, 86, 215, 148, 140, 128, 60, 232, 64, 144, 61, 24, 93, 194, 177, 42, 128, 211, 255, 32, 52, 12, 192, 17, 87, 162, 60, 144, 182, 137, 61, 24, 93, 194, 177, 178, 233, 76, 150, 255, 127, 255, 191, 17, 87, 162, 60, 144, 182, 137, 61, 24, 93, 194, 177, 178, 233, 76, 150, 211, 113, 148, 225, 100, 113, 152, 60, 56, 40, 143, 61, 24, 93, 194, 177, 232, 186, 21, 197, 188, 83, 222, 210, 30, 135, 109, 60, 232, 64, 144, 61, 58, 198, 196, 59, 39, 128, 198, 255, 1, 52, 7, 192, 146, 251, 149, 60, 144, 182, 137, 61, 210, 127, 248, 59, 236, 205, 203, 145, 130, 90, 255, 191, 146, 251, 149, 60, 144, 182, 137, 61, 210, 127, 248, 59, 236, 205, 203, 145, 199, 95, 13, 212, 196, 214, 140, 60, 56, 40, 143, 61, 115, 89, 233, 59, 177, 175, 139, 188, 124, 75, 106, 204, 192, 203, 53, 60, 232, 64, 144, 61, 187, 203, 53, 60, 30, 128, 193, 255, 115, 51, 2, 192, 100, 149, 101, 60, 144, 182, 137, 61, 95, 149, 101, 60, 176, 183, 157, 144, 255, 63, 255, 191, 100, 149, 101, 60, 144, 182, 137, 61, 95, 149, 101, 60, 176, 183, 157, 144, 27, 69, 71, 199, 61, 150, 87, 60, 56, 40, 143, 61, 56, 150, 87, 60, 251, 162, 6, 186, 242, 60, 161, 196, 68, 198, 196, 59, 232, 64, 144, 61, 25, 135, 109, 60, 16, 128, 198, 255, 201, 50, 252, 191, 220, 127, 248, 59, 144, 182, 137, 61, 143, 251, 149, 60, 70, 160, 203, 145, 125, 37, 255, 191, 220, 127, 248, 59, 144, 182, 137, 61, 143, 251, 149, 60, 70, 160, 203, 145, 90, 51, 4, 184, 126, 89, 233, 59, 56, 40, 143, 61, 193, 214, 140, 60, 193, 147, 139, 188, 67, 53, 20, 187, 94, 116, 109, 176, 232, 64, 144, 61, 145, 140, 128, 60, 255, 127, 211, 255, 106, 50, 246, 191, 94, 116, 109, 176, 144, 182, 137, 61, 14, 87, 162, 60, 255, 127, 76, 150, 0, 0, 255, 191, 94, 116, 109, 176, 144, 182, 137, 61, 14, 87, 162, 60, 255, 127, 76, 150, 244, 54, 78, 169, 94, 116, 109, 176, 56, 40, 143, 61, 97, 113, 152, 60, 255, 127, 21, 197, 90, 58, 145, 178, 72, 198, 196, 187, 232, 64, 144, 61, 25, 135, 109, 60, 238, 127, 198, 255, 136, 50, 242, 191, 224, 127, 248, 187, 144, 182, 137, 61, 143, 251, 149, 60, 184, 95, 203, 145, 0, 0, 189, 210, 224, 127, 248, 187, 144, 182, 137, 61, 143, 251, 149, 60, 184, 95, 203, 145, 216, 69, 50, 154, 129, 89, 233, 187, 56, 40, 143, 61, 193, 214, 140, 60, 61, 108, 139, 188, 244, 66, 172, 171, 194, 203, 53, 188, 232, 64, 144, 61, 187, 203, 53, 60, 224, 127, 193, 255, 18, 51, 239, 191, 102, 149, 101, 188, 144, 182, 137, 61, 95, 149, 101, 60, 78, 72, 157, 144, 0, 0, 255, 223, 102, 149, 101, 188, 144, 182, 137, 61, 95, 149, 101, 60, 78, 72, 157, 144, 57, 97, 241, 142, 63, 150, 87, 188, 56, 40, 143, 61, 56, 150, 87, 60, 3, 93, 6, 186, 91, 77, 236, 167, 32, 135, 109, 188, 232, 64, 144, 61, 58, 198, 196, 59, 215, 127, 198, 255, 188, 51, 240, 191, 146, 251, 149, 188, 144, 182, 137, 61, 210, 127, 248, 59, 18, 50, 203, 145, 213, 3, 31, 238, 146, 251, 149, 188, 144, 182, 137, 61, 210, 127, 248, 59, 18, 50, 203, 145, 206, 3, 126, 146, 146, 251, 149, 188, 144, 182, 137, 61, 210, 127, 248, 59, 18, 50, 203, 145, 233, 116, 176, 145, 196, 214, 140, 188, 56, 40, 143, 61, 116, 89, 233, 59, 77, 80, 139, 188, 85, 84, 167, 168, 148, 140, 128, 188, 232, 64, 144, 61, 24, 93, 194, 177, 212, 127, 211, 255, 32, 52, 242, 191, 17, 87, 162, 188, 144, 182, 137, 61, 24, 93, 194, 177, 76, 22, 76, 150, 254, 255, 254, 255, 17, 87, 162, 188, 144, 182, 137, 61, 24, 93, 194, 177, 76, 22, 76, 150, 211, 113, 105, 158, 100, 113, 152, 188, 56, 40, 143, 61, 24, 93, 194, 177, 22, 69, 21, 197, 188, 83, 32, 173, 32, 135, 109, 188, 232, 64, 144, 61, 82, 198, 196, 187, 199, 127, 215, 255, 1, 52, 246, 191, 146, 251, 149, 188, 144, 182, 137, 61, 234, 127, 248, 187, 203, 17, 18, 178, 254, 255, 64, 237, 146, 251, 149, 188, 144, 182, 137, 61, 234, 127, 248, 187, 203, 17, 18, 178, 199, 95, 240, 171, 196, 214, 140, 188, 56, 40, 143, 61, 139, 89, 233, 187, 139, 60, 76, 208, 124, 75, 147, 179, 194, 203, 53, 188, 232, 64, 144, 61, 199, 203, 53, 188, 194, 127, 224, 255, 115, 51, 252, 191, 102, 149, 101, 188, 144, 182, 137, 61, 107, 149, 101, 188, 157, 16, 78, 200, 255, 255, 255, 223, 102, 149, 101, 188, 144, 182, 137, 61, 107, 149, 101, 188, 157, 16, 78, 200, 27, 69, 183, 184, 63, 150, 87, 188, 56, 40, 143, 61, 68, 150, 87, 188, 6, 58, 2, 221, 242, 60, 92, 187, 72, 198, 196, 187, 232, 64, 144, 61, 37, 135, 109, 188, 199, 127, 238, 255, 201, 50, 2, 192, 224, 127, 248, 187, 144, 182, 137, 61, 149, 251, 149, 188, 203, 17, 183, 223, 255, 255, 189, 210, 224, 127, 248, 187, 144, 182, 137, 61, 149, 251, 149, 188, 203, 17, 183, 223, 90, 51, 250, 199, 130, 89, 233, 187, 56, 40, 143, 61, 199, 214, 140, 188, 139, 60, 61, 236, 67, 53, 233, 196, 102, 98, 53, 186, 232, 131, 198, 61, 246, 97, 53, 58, 127, 2, 152, 142, 185, 255, 38, 134, 102, 98, 53, 186, 232, 131, 198, 61, 246, 97, 53, 58, 255, 127, 255, 255, 0, 0, 255, 191, 102, 98, 53, 186, 232, 131, 198, 61, 246, 97, 53, 58, 135, 146, 52, 130, 39, 19, 44, 192, 102, 98, 53, 186, 232, 131, 198, 61, 184, 98, 53, 186, 127, 2, 152, 142, 190, 255, 39, 134, 102, 98, 53, 186, 232, 131, 198, 61, 184, 98, 53, 186, 52, 2, 118, 237, 156, 255, 150, 201, 102, 98, 53, 186, 232, 131, 198, 61, 184, 98, 53, 186, 255, 127, 255, 255, 0, 0, 255, 191, 72, 98, 53, 58, 232, 131, 198, 61, 246, 97, 53, 58, 255, 127, 255, 255, 0, 0, 255, 191, 72, 98, 53, 58, 232, 131, 198, 61, 246, 97, 53, 58, 135, 146, 52, 130, 45, 19, 48, 192, 72, 98, 53, 58, 232, 131, 198, 61, 246, 97, 53, 58, 102, 241, 127, 130, 176, 115, 223, 191, 72, 98, 53, 58, 232, 131, 198, 61, 184, 98, 53, 186, 52, 2, 118, 237, 163, 255, 146, 201, 72, 98, 53, 58, 232, 131, 198, 61, 184, 98, 53, 186, 102, 241, 127, 130, 177, 115, 220, 191, 72, 98, 53, 58, 232, 131, 198, 61, 184, 98, 53, 186, 255, 127, 255, 255, 0, 0, 255, 191, 69, 69, 235, 186, 200, 72, 115, 61, 163, 40, 248, 58, 127, 2, 152, 142, 225, 255, 212, 249, 69, 69, 235, 186, 200, 72, 115, 61, 163, 40, 248, 58, 135, 146, 52, 130, 255, 18, 234, 191, 251, 220, 173, 186, 200, 72, 115, 61, 243, 26, 146, 186, 127, 2, 152, 142, 223, 255, 212, 249, 251, 220, 173, 186, 200, 72, 115, 61, 243, 26, 146, 186, 52, 2, 118, 237, 216, 255, 128, 182, 46, 70, 235, 58, 200, 72, 115, 61, 186, 32, 248, 186, 52, 2, 118, 237, 212, 255, 127, 182, 46, 70, 235, 58, 200, 72, 115, 61, 186, 32, 248, 186, 102, 241, 127, 130, 171, 115, 13, 192, 227, 221, 173, 58, 200, 72, 115, 61, 218, 34, 146, 58, 135, 146, 52, 130, 252, 18, 235, 191, 227, 221, 173, 58, 200, 72, 115, 61, 218, 34, 146, 58, 102, 241, 127, 130, 171, 115, 14, 192, 146, 251, 149, 60, 144, 182, 137, 61, 234, 127, 248, 187, 51, 145, 107, 237, 234, 116, 77, 238, 146, 251, 149, 60, 144, 182, 137, 61, 210, 127, 248, 59, 122, 136, 231, 248, 199, 95, 13, 212, 224, 127, 248, 187, 144, 182, 137, 61, 143, 251, 149, 60, 208, 130, 8, 255, 216, 69, 50, 154, 146, 251, 149, 188, 144, 182, 137, 61, 210, 127, 248, 59, 206, 108, 159, 228, 233, 116, 176, 145, 102, 149, 101, 188, 144, 182, 137, 61, 107, 149, 101, 188, 254, 130, 64, 255, 27, 69, 183, 184, 220, 127, 248, 59, 144, 182, 137, 61, 149, 251, 149, 188, 177, 192, 243, 232, 216, 69, 203, 229, 146, 251, 149, 60, 144, 182, 137, 61, 234, 127, 248, 187, 236, 176, 208, 226, 234, 116, 77, 238, 220, 127, 248, 59, 144, 182, 137, 61, 143, 251, 149, 60, 106, 144, 44, 200, 90, 51, 4, 184, 224, 127, 248, 187, 144, 182, 137, 61, 143, 251, 149, 60, 51, 108, 176, 196, 216, 69, 50, 154, 146, 251, 149, 188, 144, 182, 137, 61, 210, 127, 248, 59, 203, 87, 20, 199, 233, 116, 176, 145, 102, 149, 101, 188, 144, 182, 137, 61, 107, 149, 101, 188, 59, 64, 61, 226, 27, 69, 183, 184)
}]
blend_shape_mode = 0
shadow_mesh = SubResource("ArrayMesh_xkggj")

[sub_resource type="ArrayMesh" id="ArrayMesh_ui6wj"]
_surfaces = [{
"aabb": AABB(-0.0126386, -0.0401682, -0.0126376, 0.0252753, 0.0977056, 0.0252753),
"format": 4097,
"index_count": 288,
"index_data": PackedByteArray(23, 0, 0, 0, 22, 0, 15, 0, 2, 0, 25, 0, 24, 0, 0, 0, 23, 0, 24, 0, 1, 0, 0, 0, 33, 0, 1, 0, 24, 0, 33, 0, 26, 0, 1, 0, 15, 0, 5, 0, 2, 0, 1, 0, 3, 0, 0, 0, 1, 0, 4, 0, 3, 0, 26, 0, 4, 0, 1, 0, 26, 0, 27, 0, 4, 0, 0, 0, 3, 0, 22, 0, 15, 0, 8, 0, 5, 0, 4, 0, 6, 0, 3, 0, 4, 0, 7, 0, 6, 0, 27, 0, 7, 0, 4, 0, 27, 0, 28, 0, 7, 0, 3, 0, 6, 0, 22, 0, 6, 0, 9, 0, 22, 0, 15, 0, 11, 0, 8, 0, 7, 0, 9, 0, 6, 0, 7, 0, 10, 0, 9, 0, 28, 0, 10, 0, 7, 0, 28, 0, 29, 0, 10, 0, 29, 0, 13, 0, 10, 0, 29, 0, 30, 0, 13, 0, 9, 0, 12, 0, 22, 0, 15, 0, 14, 0, 11, 0, 10, 0, 12, 0, 9, 0, 10, 0, 13, 0, 12, 0, 30, 0, 17, 0, 13, 0, 30, 0, 31, 0, 17, 0, 12, 0, 16, 0, 22, 0, 15, 0, 18, 0, 14, 0, 13, 0, 16, 0, 12, 0, 13, 0, 17, 0, 16, 0, 31, 0, 20, 0, 17, 0, 31, 0, 32, 0, 20, 0, 16, 0, 19, 0, 22, 0, 15, 0, 21, 0, 18, 0, 17, 0, 19, 0, 16, 0, 17, 0, 20, 0, 19, 0, 32, 0, 24, 0, 20, 0, 32, 0, 33, 0, 24, 0, 19, 0, 23, 0, 22, 0, 15, 0, 25, 0, 21, 0, 20, 0, 23, 0, 19, 0, 20, 0, 24, 0, 23, 0, 21, 0, 33, 0, 32, 0, 21, 0, 25, 0, 33, 0, 18, 0, 32, 0, 31, 0, 18, 0, 21, 0, 32, 0, 14, 0, 31, 0, 30, 0, 14, 0, 18, 0, 31, 0, 11, 0, 30, 0, 29, 0, 11, 0, 14, 0, 30, 0, 8, 0, 29, 0, 28, 0, 8, 0, 11, 0, 29, 0, 5, 0, 28, 0, 27, 0, 5, 0, 8, 0, 28, 0, 2, 0, 27, 0, 26, 0, 2, 0, 5, 0, 27, 0, 25, 0, 26, 0, 33, 0, 25, 0, 2, 0, 26, 0, 45, 0, 36, 0, 51, 0, 50, 0, 35, 0, 34, 0, 51, 0, 35, 0, 50, 0, 51, 0, 36, 0, 35, 0, 45, 0, 38, 0, 36, 0, 35, 0, 37, 0, 34, 0, 36, 0, 37, 0, 35, 0, 36, 0, 38, 0, 37, 0, 45, 0, 40, 0, 38, 0, 37, 0, 39, 0, 34, 0, 38, 0, 39, 0, 37, 0, 38, 0, 40, 0, 39, 0, 45, 0, 42, 0, 40, 0, 39, 0, 41, 0, 34, 0, 40, 0, 41, 0, 39, 0, 40, 0, 42, 0, 41, 0, 42, 0, 43, 0, 41, 0, 42, 0, 44, 0, 43, 0, 45, 0, 44, 0, 42, 0, 41, 0, 43, 0, 34, 0, 44, 0, 46, 0, 43, 0, 44, 0, 47, 0, 46, 0, 45, 0, 47, 0, 44, 0, 43, 0, 46, 0, 34, 0, 47, 0, 48, 0, 46, 0, 47, 0, 49, 0, 48, 0, 45, 0, 49, 0, 47, 0, 46, 0, 48, 0, 34, 0, 49, 0, 50, 0, 48, 0, 49, 0, 51, 0, 50, 0, 45, 0, 51, 0, 49, 0, 48, 0, 50, 0, 34, 0),
"lods": [0.000641906, PackedByteArray(23, 0, 0, 0, 22, 0, 33, 0, 0, 0, 23, 0, 33, 0, 26, 0, 0, 0, 26, 0, 3, 0, 0, 0, 0, 0, 3, 0, 22, 0, 15, 0, 26, 0, 33, 0, 32, 0, 33, 0, 23, 0, 15, 0, 33, 0, 32, 0, 32, 0, 23, 0, 19, 0, 19, 0, 23, 0, 22, 0, 31, 0, 32, 0, 19, 0, 15, 0, 32, 0, 31, 0, 31, 0, 19, 0, 16, 0, 16, 0, 19, 0, 22, 0, 30, 0, 31, 0, 16, 0, 15, 0, 31, 0, 30, 0, 12, 0, 16, 0, 22, 0, 30, 0, 16, 0, 12, 0, 15, 0, 30, 0, 29, 0, 29, 0, 30, 0, 12, 0, 15, 0, 27, 0, 26, 0, 26, 0, 27, 0, 3, 0, 15, 0, 29, 0, 28, 0, 15, 0, 28, 0, 27, 0, 29, 0, 12, 0, 9, 0, 28, 0, 29, 0, 9, 0, 9, 0, 12, 0, 22, 0, 27, 0, 28, 0, 6, 0, 28, 0, 9, 0, 6, 0, 27, 0, 6, 0, 3, 0, 6, 0, 9, 0, 22, 0, 3, 0, 6, 0, 22, 0, 45, 0, 36, 0, 51, 0, 51, 0, 36, 0, 35, 0, 36, 0, 37, 0, 35, 0, 35, 0, 37, 0, 34, 0, 36, 0, 38, 0, 37, 0, 45, 0, 38, 0, 36, 0, 38, 0, 39, 0, 37, 0, 37, 0, 39, 0, 34, 0, 50, 0, 35, 0, 34, 0, 51, 0, 35, 0, 50, 0, 38, 0, 40, 0, 39, 0, 45, 0, 40, 0, 38, 0, 40, 0, 41, 0, 39, 0, 39, 0, 41, 0, 34, 0, 48, 0, 50, 0, 34, 0, 49, 0, 51, 0, 50, 0, 49, 0, 50, 0, 48, 0, 45, 0, 51, 0, 49, 0, 40, 0, 42, 0, 41, 0, 45, 0, 42, 0, 40, 0, 42, 0, 43, 0, 41, 0, 41, 0, 43, 0, 34, 0, 45, 0, 44, 0, 42, 0, 42, 0, 44, 0, 43, 0, 45, 0, 49, 0, 47, 0, 45, 0, 47, 0, 44, 0, 47, 0, 49, 0, 48, 0, 46, 0, 48, 0, 34, 0, 47, 0, 48, 0, 46, 0, 44, 0, 47, 0, 46, 0, 44, 0, 46, 0, 43, 0, 43, 0, 46, 0, 34, 0), 0.00969722, PackedByteArray(15, 0, 28, 0, 33, 0, 28, 0, 15, 0, 19, 0, 15, 0, 33, 0, 19, 0, 33, 0, 28, 0, 6, 0, 28, 0, 19, 0, 6, 0, 33, 0, 6, 0, 19, 0, 6, 0, 19, 0, 22, 0, 19, 0, 6, 0, 22, 0, 50, 0, 35, 0, 34, 0, 51, 0, 35, 0, 50, 0, 35, 0, 37, 0, 34, 0, 51, 0, 37, 0, 35, 0, 37, 0, 39, 0, 34, 0, 51, 0, 38, 0, 37, 0, 38, 0, 39, 0, 37, 0, 45, 0, 38, 0, 51, 0, 38, 0, 41, 0, 39, 0, 39, 0, 41, 0, 34, 0, 48, 0, 50, 0, 34, 0, 47, 0, 51, 0, 50, 0, 47, 0, 50, 0, 48, 0, 45, 0, 51, 0, 47, 0, 45, 0, 42, 0, 38, 0, 38, 0, 42, 0, 41, 0, 45, 0, 47, 0, 42, 0, 42, 0, 43, 0, 41, 0, 41, 0, 43, 0, 34, 0, 46, 0, 48, 0, 34, 0, 47, 0, 48, 0, 46, 0, 42, 0, 47, 0, 46, 0, 42, 0, 46, 0, 43, 0, 43, 0, 46, 0, 34, 0), 0.0176556, PackedByteArray(50, 0, 35, 0, 34, 0, 35, 0, 37, 0, 34, 0, 37, 0, 39, 0, 34, 0, 35, 0, 47, 0, 37, 0, 47, 0, 39, 0, 37, 0, 47, 0, 35, 0, 50, 0, 47, 0, 41, 0, 39, 0, 39, 0, 41, 0, 34, 0, 48, 0, 50, 0, 34, 0, 47, 0, 50, 0, 48, 0, 47, 0, 43, 0, 41, 0, 41, 0, 43, 0, 34, 0, 46, 0, 48, 0, 34, 0, 47, 0, 48, 0, 46, 0, 47, 0, 46, 0, 43, 0, 43, 0, 46, 0, 34, 0)],
"name": "Fire",
"primitive": 3,
"vertex_count": 52,
"vertex_data": PackedByteArray(18, 114, 78, 59, 247, 164, 7, 61, 83, 18, 78, 187, 19, 8, 251, 59, 0, 0, 0, 0, 20, 5, 251, 187, 134, 219, 1, 60, 66, 94, 153, 188, 170, 216, 1, 188, 4, 233, 145, 59, 247, 164, 7, 61, 218, 60, 42, 53, 143, 129, 49, 60, 0, 0, 0, 0, 136, 147, 191, 52, 190, 164, 55, 60, 66, 94, 153, 188, 34, 24, 149, 52, 18, 114, 78, 59, 247, 164, 7, 61, 151, 39, 78, 59, 17, 8, 251, 59, 0, 0, 0, 0, 15, 11, 251, 59, 134, 219, 1, 60, 66, 94, 153, 188, 253, 218, 1, 60, 218, 60, 170, 54, 247, 164, 7, 61, 198, 195, 145, 59, 0, 0, 0, 0, 0, 0, 0, 0, 14, 131, 49, 60, 195, 122, 217, 52, 66, 94, 153, 188, 53, 164, 55, 60, 214, 199, 77, 187, 247, 164, 7, 61, 151, 39, 78, 59, 17, 8, 251, 187, 0, 0, 0, 0, 15, 11, 251, 59, 32, 216, 1, 188, 66, 94, 153, 188, 253, 218, 1, 60, 0, 0, 0, 0, 112, 135, 36, 189, 0, 0, 0, 128, 230, 147, 145, 187, 247, 164, 7, 61, 218, 60, 42, 53, 143, 129, 49, 188, 0, 0, 0, 0, 136, 147, 191, 52, 88, 161, 55, 188, 66, 94, 153, 188, 34, 24, 149, 52, 214, 199, 77, 187, 247, 164, 7, 61, 80, 18, 78, 187, 17, 8, 251, 187, 0, 0, 0, 0, 18, 5, 251, 187, 32, 216, 1, 188, 66, 94, 153, 188, 169, 216, 1, 188, 0, 0, 0, 0, 118, 213, 55, 61, 0, 0, 0, 128, 218, 60, 170, 54, 247, 164, 7, 61, 35, 185, 145, 187, 0, 0, 0, 0, 0, 0, 0, 0, 16, 128, 49, 188, 195, 122, 217, 52, 66, 94, 153, 188, 224, 161, 55, 188, 254, 100, 18, 60, 242, 173, 104, 188, 167, 104, 18, 188, 32, 10, 79, 60, 242, 173, 104, 188, 76, 73, 172, 51, 253, 100, 18, 60, 242, 173, 104, 188, 82, 105, 18, 60, 27, 172, 127, 181, 242, 173, 104, 188, 116, 14, 79, 60, 250, 108, 18, 188, 242, 173, 104, 188, 82, 105, 18, 60, 29, 18, 79, 188, 242, 173, 104, 188, 76, 73, 172, 51, 250, 108, 18, 188, 242, 173, 104, 188, 166, 104, 18, 188, 27, 172, 127, 181, 242, 173, 104, 188, 200, 13, 79, 188, 122, 200, 114, 174, 85, 172, 107, 61, 137, 241, 237, 53, 216, 1, 81, 187, 167, 21, 241, 60, 249, 83, 41, 187, 169, 165, 8, 188, 2, 110, 114, 188, 99, 161, 8, 188, 76, 228, 29, 186, 167, 21, 241, 60, 42, 141, 111, 187, 55, 184, 13, 176, 2, 110, 114, 188, 68, 59, 65, 188, 176, 15, 2, 59, 167, 21, 241, 60, 248, 83, 41, 187, 168, 165, 8, 60, 2, 110, 114, 188, 100, 161, 8, 188, 224, 72, 72, 59, 167, 21, 241, 60, 32, 41, 83, 54, 137, 63, 65, 60, 2, 110, 114, 188, 243, 147, 136, 53, 178, 15, 2, 59, 167, 21, 241, 60, 142, 189, 41, 59, 169, 165, 8, 60, 2, 110, 114, 188, 237, 169, 8, 60, 0, 0, 0, 0, 191, 254, 20, 189, 170, 165, 136, 53, 70, 228, 29, 186, 167, 21, 241, 60, 192, 246, 111, 59, 55, 184, 13, 48, 2, 110, 114, 188, 206, 67, 65, 60, 214, 1, 81, 187, 167, 21, 241, 60, 144, 189, 41, 59, 168, 165, 8, 188, 2, 110, 114, 188, 238, 169, 8, 60, 130, 157, 139, 187, 167, 21, 241, 60, 158, 46, 83, 54, 137, 63, 65, 188, 2, 110, 114, 188, 97, 183, 136, 53)
}]
blend_shape_mode = 0

[sub_resource type="ArrayMesh" id="ArrayMesh_sdbph"]
resource_name = "ModularDungeonTiles_Props_PropSet_2_Candle_Fire"
_surfaces = [{
"aabb": AABB(-0.0126386, -0.0401682, -0.0126376, 0.0252753, 0.0977056, 0.0252753),
"attribute_data": PackedByteArray(208, 231, 10, 63, 176, 245, 21, 62, 244, 176, 18, 63, 0, 0, 0, 63, 208, 231, 10, 63, 118, 130, 90, 63, 244, 176, 18, 63, 176, 245, 21, 62, 1, 178, 29, 63, 0, 0, 0, 63, 244, 176, 18, 63, 118, 130, 90, 63, 208, 231, 10, 63, 176, 245, 21, 62, 244, 176, 18, 63, 0, 0, 0, 63, 208, 231, 10, 63, 118, 130, 90, 63, 61, 59, 240, 62, 176, 245, 21, 62, 61, 59, 240, 62, 0, 0, 0, 63, 61, 59, 240, 62, 118, 130, 90, 63, 219, 166, 202, 62, 176, 245, 21, 62, 132, 14, 187, 62, 0, 0, 0, 63, 219, 166, 202, 62, 118, 130, 90, 63, 61, 59, 240, 62, 0, 0, 128, 63, 132, 14, 187, 62, 176, 245, 21, 62, 121, 18, 165, 62, 0, 0, 0, 63, 132, 14, 187, 62, 118, 130, 90, 63, 219, 166, 202, 62, 176, 245, 21, 62, 132, 14, 187, 62, 0, 0, 0, 63, 219, 166, 202, 62, 118, 130, 90, 63, 61, 59, 240, 62, 0, 0, 0, 0, 61, 59, 240, 62, 176, 245, 21, 62, 61, 59, 240, 62, 0, 0, 0, 63, 61, 59, 240, 62, 118, 130, 90, 63, 98, 204, 14, 63, 59, 65, 45, 63, 122, 49, 24, 63, 59, 65, 45, 63, 98, 204, 14, 63, 59, 65, 45, 63, 61, 59, 240, 62, 59, 65, 45, 63, 176, 218, 194, 62, 59, 65, 45, 63, 126, 16, 176, 62, 59, 65, 45, 63, 176, 218, 194, 62, 59, 65, 45, 63, 61, 59, 240, 62, 59, 65, 45, 63, 132, 14, 187, 62, 176, 245, 21, 62, 219, 166, 202, 62, 176, 245, 21, 62, 61, 59, 240, 62, 176, 245, 21, 62, 208, 231, 10, 63, 176, 245, 21, 62, 244, 176, 18, 63, 176, 245, 21, 62, 244, 176, 18, 63, 0, 0, 0, 63, 208, 231, 10, 63, 118, 130, 90, 63, 1, 178, 29, 63, 0, 0, 0, 63, 244, 176, 18, 63, 118, 130, 90, 63, 244, 176, 18, 63, 0, 0, 0, 63, 208, 231, 10, 63, 118, 130, 90, 63, 61, 59, 240, 62, 0, 0, 0, 63, 61, 59, 240, 62, 118, 130, 90, 63, 132, 14, 187, 62, 0, 0, 0, 63, 219, 166, 202, 62, 118, 130, 90, 63, 61, 59, 240, 62, 0, 0, 128, 63, 121, 18, 165, 62, 0, 0, 0, 63, 132, 14, 187, 62, 118, 130, 90, 63, 132, 14, 187, 62, 0, 0, 0, 63, 219, 166, 202, 62, 118, 130, 90, 63, 61, 59, 240, 62, 0, 0, 0, 63, 61, 59, 240, 62, 118, 130, 90, 63),
"format": 4119,
"index_count": 288,
"index_data": PackedByteArray(23, 0, 0, 0, 22, 0, 15, 0, 2, 0, 25, 0, 24, 0, 0, 0, 23, 0, 24, 0, 1, 0, 0, 0, 33, 0, 1, 0, 24, 0, 33, 0, 26, 0, 1, 0, 15, 0, 5, 0, 2, 0, 1, 0, 3, 0, 0, 0, 1, 0, 4, 0, 3, 0, 26, 0, 4, 0, 1, 0, 26, 0, 27, 0, 4, 0, 0, 0, 3, 0, 22, 0, 15, 0, 8, 0, 5, 0, 4, 0, 6, 0, 3, 0, 4, 0, 7, 0, 6, 0, 27, 0, 7, 0, 4, 0, 27, 0, 28, 0, 7, 0, 3, 0, 6, 0, 22, 0, 6, 0, 9, 0, 22, 0, 15, 0, 11, 0, 8, 0, 7, 0, 9, 0, 6, 0, 7, 0, 10, 0, 9, 0, 28, 0, 10, 0, 7, 0, 28, 0, 29, 0, 10, 0, 29, 0, 13, 0, 10, 0, 29, 0, 30, 0, 13, 0, 9, 0, 12, 0, 22, 0, 15, 0, 14, 0, 11, 0, 10, 0, 12, 0, 9, 0, 10, 0, 13, 0, 12, 0, 30, 0, 17, 0, 13, 0, 30, 0, 31, 0, 17, 0, 12, 0, 16, 0, 22, 0, 15, 0, 18, 0, 14, 0, 13, 0, 16, 0, 12, 0, 13, 0, 17, 0, 16, 0, 31, 0, 20, 0, 17, 0, 31, 0, 32, 0, 20, 0, 16, 0, 19, 0, 22, 0, 15, 0, 21, 0, 18, 0, 17, 0, 19, 0, 16, 0, 17, 0, 20, 0, 19, 0, 32, 0, 24, 0, 20, 0, 32, 0, 33, 0, 24, 0, 19, 0, 23, 0, 22, 0, 15, 0, 25, 0, 21, 0, 20, 0, 23, 0, 19, 0, 20, 0, 24, 0, 23, 0, 21, 0, 33, 0, 32, 0, 21, 0, 25, 0, 33, 0, 18, 0, 32, 0, 31, 0, 18, 0, 21, 0, 32, 0, 14, 0, 31, 0, 30, 0, 14, 0, 18, 0, 31, 0, 11, 0, 30, 0, 29, 0, 11, 0, 14, 0, 30, 0, 8, 0, 29, 0, 28, 0, 8, 0, 11, 0, 29, 0, 5, 0, 28, 0, 27, 0, 5, 0, 8, 0, 28, 0, 2, 0, 27, 0, 26, 0, 2, 0, 5, 0, 27, 0, 25, 0, 26, 0, 33, 0, 25, 0, 2, 0, 26, 0, 49, 0, 40, 0, 55, 0, 54, 0, 39, 0, 37, 0, 55, 0, 39, 0, 54, 0, 55, 0, 40, 0, 39, 0, 49, 0, 42, 0, 40, 0, 39, 0, 41, 0, 38, 0, 40, 0, 41, 0, 39, 0, 40, 0, 42, 0, 41, 0, 49, 0, 44, 0, 42, 0, 41, 0, 43, 0, 37, 0, 42, 0, 43, 0, 41, 0, 42, 0, 44, 0, 43, 0, 49, 0, 46, 0, 44, 0, 43, 0, 45, 0, 36, 0, 44, 0, 45, 0, 43, 0, 44, 0, 46, 0, 45, 0, 46, 0, 47, 0, 45, 0, 46, 0, 48, 0, 47, 0, 49, 0, 48, 0, 46, 0, 45, 0, 47, 0, 35, 0, 48, 0, 50, 0, 47, 0, 48, 0, 51, 0, 50, 0, 49, 0, 51, 0, 48, 0, 47, 0, 50, 0, 34, 0, 51, 0, 52, 0, 50, 0, 51, 0, 53, 0, 52, 0, 49, 0, 53, 0, 51, 0, 50, 0, 52, 0, 35, 0, 53, 0, 54, 0, 52, 0, 53, 0, 55, 0, 54, 0, 49, 0, 55, 0, 53, 0, 52, 0, 54, 0, 36, 0),
"lods": [0.000641906, PackedByteArray(23, 0, 0, 0, 22, 0, 33, 0, 0, 0, 23, 0, 33, 0, 26, 0, 0, 0, 26, 0, 3, 0, 0, 0, 0, 0, 3, 0, 22, 0, 15, 0, 26, 0, 33, 0, 32, 0, 33, 0, 23, 0, 15, 0, 33, 0, 32, 0, 32, 0, 23, 0, 19, 0, 19, 0, 23, 0, 22, 0, 31, 0, 32, 0, 19, 0, 15, 0, 32, 0, 31, 0, 31, 0, 19, 0, 16, 0, 16, 0, 19, 0, 22, 0, 30, 0, 31, 0, 16, 0, 15, 0, 31, 0, 30, 0, 12, 0, 16, 0, 22, 0, 30, 0, 16, 0, 12, 0, 15, 0, 30, 0, 29, 0, 29, 0, 30, 0, 12, 0, 15, 0, 27, 0, 26, 0, 26, 0, 27, 0, 3, 0, 15, 0, 29, 0, 28, 0, 15, 0, 28, 0, 27, 0, 29, 0, 12, 0, 9, 0, 28, 0, 29, 0, 9, 0, 9, 0, 12, 0, 22, 0, 27, 0, 28, 0, 6, 0, 28, 0, 9, 0, 6, 0, 27, 0, 6, 0, 3, 0, 6, 0, 9, 0, 22, 0, 3, 0, 6, 0, 22, 0, 49, 0, 40, 0, 55, 0, 55, 0, 40, 0, 39, 0, 40, 0, 41, 0, 39, 0, 39, 0, 41, 0, 38, 0, 40, 0, 42, 0, 41, 0, 49, 0, 42, 0, 40, 0, 42, 0, 43, 0, 41, 0, 41, 0, 43, 0, 37, 0, 54, 0, 39, 0, 37, 0, 55, 0, 39, 0, 54, 0, 42, 0, 44, 0, 43, 0, 49, 0, 44, 0, 42, 0, 44, 0, 45, 0, 43, 0, 43, 0, 45, 0, 36, 0, 52, 0, 54, 0, 36, 0, 53, 0, 55, 0, 54, 0, 53, 0, 54, 0, 52, 0, 49, 0, 55, 0, 53, 0, 44, 0, 46, 0, 45, 0, 49, 0, 46, 0, 44, 0, 46, 0, 47, 0, 45, 0, 45, 0, 47, 0, 35, 0, 49, 0, 48, 0, 46, 0, 46, 0, 48, 0, 47, 0, 49, 0, 53, 0, 51, 0, 49, 0, 51, 0, 48, 0, 51, 0, 53, 0, 52, 0, 50, 0, 52, 0, 35, 0, 51, 0, 52, 0, 50, 0, 48, 0, 51, 0, 50, 0, 48, 0, 50, 0, 47, 0, 47, 0, 50, 0, 34, 0), 0.00969722, PackedByteArray(15, 0, 28, 0, 33, 0, 28, 0, 15, 0, 19, 0, 15, 0, 33, 0, 19, 0, 33, 0, 28, 0, 6, 0, 28, 0, 19, 0, 6, 0, 33, 0, 6, 0, 19, 0, 6, 0, 19, 0, 22, 0, 19, 0, 6, 0, 22, 0, 54, 0, 39, 0, 37, 0, 55, 0, 39, 0, 54, 0, 39, 0, 41, 0, 38, 0, 55, 0, 41, 0, 39, 0, 41, 0, 43, 0, 37, 0, 55, 0, 42, 0, 41, 0, 42, 0, 43, 0, 41, 0, 49, 0, 42, 0, 55, 0, 42, 0, 45, 0, 43, 0, 43, 0, 45, 0, 36, 0, 52, 0, 54, 0, 36, 0, 51, 0, 55, 0, 54, 0, 51, 0, 54, 0, 52, 0, 49, 0, 55, 0, 51, 0, 49, 0, 46, 0, 42, 0, 42, 0, 46, 0, 45, 0, 49, 0, 51, 0, 46, 0, 46, 0, 47, 0, 45, 0, 45, 0, 47, 0, 35, 0, 50, 0, 52, 0, 35, 0, 51, 0, 52, 0, 50, 0, 46, 0, 51, 0, 50, 0, 46, 0, 50, 0, 47, 0, 47, 0, 50, 0, 34, 0), 0.0176556, PackedByteArray(54, 0, 39, 0, 37, 0, 39, 0, 41, 0, 38, 0, 41, 0, 43, 0, 37, 0, 39, 0, 51, 0, 41, 0, 51, 0, 43, 0, 41, 0, 51, 0, 39, 0, 54, 0, 51, 0, 45, 0, 43, 0, 43, 0, 45, 0, 36, 0, 52, 0, 54, 0, 36, 0, 51, 0, 54, 0, 52, 0, 51, 0, 47, 0, 45, 0, 45, 0, 47, 0, 35, 0, 50, 0, 52, 0, 35, 0, 51, 0, 52, 0, 50, 0, 51, 0, 50, 0, 47, 0, 47, 0, 50, 0, 34, 0)],
"material": ExtResource("2_jo0ew"),
"name": "Fire",
"primitive": 3,
"vertex_count": 56,
"vertex_data": PackedByteArray(18, 114, 78, 59, 247, 164, 7, 61, 83, 18, 78, 187, 3, 235, 124, 202, 254, 191, 255, 63, 19, 8, 251, 59, 0, 0, 0, 0, 20, 5, 251, 187, 25, 243, 113, 198, 255, 191, 255, 63, 134, 219, 1, 60, 66, 94, 153, 188, 170, 216, 1, 188, 111, 227, 184, 49, 254, 191, 255, 63, 4, 233, 145, 59, 247, 164, 7, 61, 218, 60, 42, 53, 51, 228, 202, 155, 250, 243, 170, 129, 143, 129, 49, 60, 0, 0, 0, 0, 136, 147, 191, 52, 126, 238, 127, 145, 94, 248, 154, 128, 190, 164, 55, 60, 66, 94, 153, 188, 34, 24, 149, 52, 6, 219, 6, 91, 60, 134, 81, 56, 18, 114, 78, 59, 247, 164, 7, 61, 151, 39, 78, 59, 129, 181, 251, 148, 255, 255, 255, 223, 17, 8, 251, 59, 0, 0, 0, 0, 15, 11, 251, 59, 140, 185, 228, 140, 254, 255, 255, 159, 134, 219, 1, 60, 66, 94, 153, 188, 253, 218, 1, 60, 183, 177, 112, 99, 254, 255, 255, 223, 218, 60, 170, 54, 247, 164, 7, 61, 198, 195, 145, 59, 1, 128, 200, 155, 254, 255, 0, 192, 0, 0, 0, 0, 0, 0, 0, 0, 14, 131, 49, 60, 255, 127, 130, 145, 254, 255, 255, 191, 195, 122, 217, 52, 66, 94, 153, 188, 53, 164, 55, 60, 0, 128, 4, 91, 254, 255, 0, 192, 214, 199, 77, 187, 247, 164, 7, 61, 151, 39, 78, 59, 125, 74, 249, 148, 0, 192, 255, 191, 17, 8, 251, 187, 0, 0, 0, 0, 15, 11, 251, 59, 115, 70, 231, 140, 255, 191, 255, 191, 32, 216, 1, 188, 66, 94, 153, 188, 253, 218, 1, 60, 73, 78, 108, 99, 255, 191, 255, 191, 0, 0, 0, 0, 112, 135, 36, 189, 0, 0, 0, 128, 254, 127, 0, 0, 254, 255, 0, 64, 230, 147, 145, 187, 247, 164, 7, 61, 218, 60, 42, 53, 198, 27, 198, 155, 252, 243, 169, 1, 143, 129, 49, 188, 0, 0, 0, 0, 136, 147, 191, 52, 133, 17, 133, 145, 92, 248, 154, 0, 88, 161, 55, 188, 66, 94, 153, 188, 34, 24, 149, 52, 254, 36, 1, 91, 63, 134, 79, 184, 214, 199, 77, 187, 247, 164, 7, 61, 80, 18, 78, 187, 249, 20, 124, 202, 255, 255, 0, 32, 17, 8, 251, 187, 0, 0, 0, 0, 18, 5, 251, 187, 231, 12, 115, 198, 254, 255, 255, 95, 32, 216, 1, 188, 66, 94, 153, 188, 169, 216, 1, 188, 147, 28, 181, 49, 254, 255, 0, 32, 0, 0, 0, 0, 118, 213, 55, 61, 0, 0, 0, 128, 241, 127, 242, 255, 242, 255, 247, 63, 218, 60, 170, 54, 247, 164, 7, 61, 35, 185, 145, 187, 54, 228, 253, 255, 252, 255, 255, 63, 0, 0, 0, 0, 0, 0, 0, 0, 16, 128, 49, 188, 131, 17, 254, 255, 254, 255, 255, 63, 195, 122, 217, 52, 66, 94, 153, 188, 224, 161, 55, 188, 3, 219, 1, 0, 253, 255, 255, 63, 254, 100, 18, 60, 242, 173, 104, 188, 167, 104, 18, 188, 173, 248, 86, 60, 255, 191, 255, 63, 32, 10, 79, 60, 242, 173, 104, 188, 76, 73, 172, 51, 227, 245, 228, 117, 95, 128, 211, 61, 253, 100, 18, 60, 242, 173, 104, 188, 82, 105, 18, 60, 86, 188, 174, 120, 255, 255, 254, 223, 27, 172, 127, 181, 242, 173, 104, 188, 116, 14, 79, 60, 254, 127, 226, 117, 253, 255, 255, 191, 250, 108, 18, 188, 242, 173, 104, 188, 82, 105, 18, 60, 169, 67, 171, 120, 254, 191, 255, 191, 29, 18, 79, 188, 242, 173, 104, 188, 76, 73, 172, 51, 32, 10, 222, 117, 95, 128, 209, 189, 250, 108, 18, 188, 242, 173, 104, 188, 166, 104, 18, 188, 84, 7, 85, 60, 255, 255, 255, 31, 27, 172, 127, 181, 242, 173, 104, 188, 200, 13, 79, 188, 30, 10, 1, 0, 255, 255, 255, 63, 122, 200, 114, 174, 85, 172, 107, 61, 137, 241, 237, 53, 165, 130, 89, 253, 28, 254, 148, 172, 122, 200, 114, 174, 85, 172, 107, 61, 137, 241, 237, 53, 165, 130, 89, 253, 225, 1, 149, 44, 122, 200, 114, 174, 85, 172, 107, 61, 137, 241, 237, 53, 165, 130, 89, 253, 200, 0, 159, 18, 122, 200, 114, 174, 85, 172, 107, 61, 137, 241, 237, 53, 165, 130, 89, 253, 225, 1, 105, 211, 122, 200, 114, 174, 85, 172, 107, 61, 137, 241, 237, 53, 165, 130, 89, 253, 28, 254, 106, 83, 216, 1, 81, 187, 167, 21, 241, 60, 249, 83, 41, 187, 9, 13, 88, 198, 254, 255, 231, 31, 169, 165, 8, 188, 2, 110, 114, 188, 99, 161, 8, 188, 130, 12, 172, 57, 254, 255, 9, 32, 76, 228, 29, 186, 167, 21, 241, 60, 42, 141, 111, 187, 102, 17, 136, 255, 185, 7, 198, 187, 55, 184, 13, 176, 2, 110, 114, 188, 68, 59, 65, 188, 117, 239, 47, 0, 42, 7, 54, 196, 176, 15, 2, 59, 167, 21, 241, 60, 248, 83, 41, 187, 79, 243, 130, 198, 0, 0, 23, 160, 168, 165, 8, 60, 2, 110, 114, 188, 100, 161, 8, 188, 40, 244, 38, 58, 0, 0, 245, 159, 224, 72, 72, 59, 167, 21, 241, 60, 32, 41, 83, 54, 220, 238, 33, 145, 254, 255, 254, 255, 137, 63, 65, 60, 2, 110, 114, 188, 243, 147, 136, 53, 14, 240, 14, 112, 0, 0, 254, 255, 178, 15, 2, 59, 167, 21, 241, 60, 142, 189, 41, 59, 123, 185, 174, 140, 254, 255, 230, 223, 169, 165, 8, 60, 2, 110, 114, 188, 237, 169, 8, 60, 37, 186, 40, 116, 254, 255, 8, 224, 0, 0, 0, 0, 191, 254, 20, 189, 170, 165, 136, 53, 255, 127, 0, 0, 0, 0, 0, 0, 70, 228, 29, 186, 167, 21, 241, 60, 192, 246, 111, 59, 137, 127, 102, 145, 127, 7, 104, 59, 55, 184, 13, 48, 2, 110, 114, 188, 206, 67, 65, 60, 47, 128, 116, 111, 65, 7, 16, 68, 214, 1, 81, 187, 167, 21, 241, 60, 144, 189, 41, 59, 89, 70, 8, 141, 0, 0, 23, 96, 168, 165, 8, 188, 2, 110, 114, 188, 238, 169, 8, 60, 82, 70, 124, 115, 0, 0, 246, 95, 130, 157, 139, 187, 167, 21, 241, 60, 158, 46, 83, 54, 200, 17, 199, 145, 0, 0, 0, 0, 137, 63, 65, 188, 2, 110, 114, 188, 97, 183, 136, 53, 48, 17, 206, 110, 254, 255, 0, 0)
}]
blend_shape_mode = 0
shadow_mesh = SubResource("ArrayMesh_ui6wj")

[sub_resource type="ConvexPolygonShape3D" id="ConvexPolygonShape3D_7e6tu"]
points = PackedVector3Array(-0.0210552, -0.317909, -0.00867073, 0.00865884, 0.0684381, -0.0210552, 0.0210473, -0.317869, 0.00865935, -0.00866682, -0.317909, 0.021048, -0.0210552, 0.0684381, 0.00866347, 0.00865884, -0.317909, -0.0210552, 0.0210473, 0.0683973, -0.00866661, -0.0160974, 0.0684381, -0.0161014, 0.0160935, 0.0709225, 0.0160901, -0.00866682, -0.317909, -0.0210552, 0.00865884, -0.317909, 0.021048, -0.0210552, -0.317909, 0.00866347, 0.0210473, -0.317869, -0.00866661, 0.00123238, 0.0981696, 0.00123276, -0.00866682, 0.0684381, 0.021048, -0.0210552, 0.0684381, -0.00867073, -0.00866682, 0.0684381, -0.0210552, 0.0210473, 0.0683973, 0.00865935, 0.00865884, 0.0684381, 0.021048, 0.0160935, 0.0709225, -0.0160973, -0.0160974, 0.0709225, 0.0160942, 0.0160935, -0.317909, -0.0161014, 0.0160935, -0.317909, 0.0160942, -0.0160974, -0.317909, 0.0160942, -0.0160974, -0.317909, -0.0161014)

[sub_resource type="GradientTexture2D" id="GradientTexture2D_8n6w8"]
gradient = ExtResource("3_rmtfm")
use_hdr = true
fill_from = Vector2(1, 0)
fill_to = Vector2(1, 1)

[node name="PropSet_2_Candle" type="MeshInstance3D"]
mesh = SubResource("ArrayMesh_gcqvx")
skeleton = NodePath("")

[node name="PropSet_2_Candle_Fire" type="MeshInstance3D" parent="."]
transform = Transform3D(1, 0, 0, 0, 1, 0, 0, 0, 1, 0, 0.110568, 0)
mesh = SubResource("ArrayMesh_sdbph")
skeleton = NodePath("")

[node name="StaticBody3D" type="StaticBody3D" parent="."]

[node name="CollisionShape3D" type="CollisionShape3D" parent="StaticBody3D"]
shape = SubResource("ConvexPolygonShape3D_7e6tu")

[node name="OmniLight3D" type="OmniLight3D" parent="."]
transform = Transform3D(1, 0, 0, 0, 1, 0, 0, 0, 1, 0, 0.134884, 0)
light_energy = 0.5
light_indirect_energy = 3.0
light_projector = SubResource("GradientTexture2D_8n6w8")
shadow_enabled = true
omni_range = 6.66
omni_attenuation = 0.31864
